Introdução à Linguagem R - 2 Fundamentos da Linguagem R
…
Um tibble nada mais é do que uma “versão moderna” de um data.frame. Essa estrutura de dado é originária do pacote tibble, logo, se você deseja utilizá-la em algum de seus dados, você terá que chamar obrigatoriamente por esse pacote com o comando library()2. Lembre-se que o pacote deve estar instalado em sua máquina, para que você seja capaz de chamar por ele com o comando library().

Portanto, essa estrutura foi criada com o intuito de melhorar alguns comportamentos do data.frame, que eram adequados para a sua época, mas que hoje, são desnecessários e que podem gerar um pouco de dor de cabeça. Tais estruturas podem ser criadas do zero, através da função tibble(), que funciona da mesma maneira que data.frame(). Você dá o nome para cada coluna, e após um igual (=) você define o que irá preencher cada uma dessas colunas.

library(tibble)

tab_tibble <- tibble(
  Datas = seq.Date(as.Date("2020-12-01"), as.Date("2020-12-10"), by = 1),
  Usuario = sample(c("Ana", "Eduardo"), size = 10, replace = T),
  Valor = sample(c(2000, 3000, 4000, 5000), size = 10, replace = T)
)

tab_tibble

# A tibble: 10 × 3
  Datas      Usuario Valor
  <date>     <chr>   <dbl>
1 2020-12-01 Ana      3000
2 2020-12-02 Eduardo  5000
3 2020-12-03 Eduardo  3000
4 2020-12-04 Eduardo  3000
5 2020-12-05 Eduardo  4000
# ℹ 5 more rows
…
Quando as suas tabelas são tibble’s, o console lhe retorna por padrão, apenas as 10 primeiras linhas da tabela (caso a tabela seja muito pequena, ele pode lhe retornar todas as linhas), o que já é o suficiente para vermos a sua estrutura. Além disso, caso as próximas colunas não caibam em uma mesma “linha”, ou ao lado das colunas anteriores, o tibble acaba omitindo essas colunas para não sobrecarregar o seu console de resultados. Lembre-se que você sempre pode ver toda a tabela, em uma janela separada através da função View().

View(flights)

Veja o exemplo abaixo, onde eu chamo novamente pela base flights. O primeiro detalhe que você percebe, é a dimensão da tabela (algo que não é informado, quando chamamos por um data.frame) no canto superior esquerdo da tabela (336.776 linhas e 19 colunas). O segundo detalhe, é que o tipo de dado contido em cada coluna, está descrito logo abaixo do nome da coluna, de acordo com a abreviação deste tipo. Por exemplo, nas três primeiras colunas estão contidos números inteiros (integer’s - int), enquanto na sexta coluna (dep_delay) temos números decimais (double’s - dbl).

Mesmo que em um tibble, você fique sem a possibilidade de visualizar todas as outras colunas da tabela, que não cabem na mesma linha junto com as colunas anteriores, um tibble sempre lhe retorna logo abaixo da tabela, uma lista contendo o nome de todas as colunas restantes, além do tipo de dado contido em cada coluna, através das mesmas abreviações que vimos nas colunas anteriores.

flights

# A tibble: 336,776 × 19
   year month   day dep_time sched_dep_time dep_delay arr_time sched_arr_time
  <int> <int> <int>    <int>          <int>     <dbl>    <int>          <int>
1  2013     1     1      517            515         2      830            819
2  2013     1     1      533            529         4      850            830
3  2013     1     1      542            540         2      923            850
4  2013     1     1      544            545        -1     1004           1022
5  2013     1     1      554            600        -6      812            837
# ℹ 336,771 more rows
# ℹ 11 more variables: arr_delay <dbl>, carrier <chr>, flight <int>, …
…
   Nome.coluna X10_janeiro
1    1.1547142 -0.61716609
2   -0.9835476  1.15786240
3    0.7115670 -0.06361489
4    0.4106486 -0.60002315
5   -1.2921761 -1.31783740
6    1.2599612  0.35075579
7   -1.2853554 -0.42862554
8   -0.9221728 -1.68730627
9   -0.8045062  0.90921247
10   0.6508011 -0.26749117

tibble

# A tibble: 10 × 2
  `Nome coluna` `10_janeiro`
          <dbl>        <dbl>
1         0.841        0.286
2        -0.125        1.86 
3         1.66        -1.21 
4         1.18        -1.28 
5        -0.733        0.524
# ℹ 5 more rows
…
