Introdução à Linguagem R - 4 Importando e exportando dados com readr, readxl e haven
…
Perceba no resultado acima que, a função read_csv2() nos reporta a lista de colunas que ela encontrou no arquivo (Column specification), e também, o tipo de dado que foi associado para cada uma delas. Por exemplo, a coluna Região metropolitana que foi encontrada no arquivo CSV, foi automaticamente associado com o tipo de dado character.

Este relatório é muito útil, pois você pode rapidamente identificar se alguma coluna de seu arquivo CSV não foi importada por algum motivo, ou ainda, se o tipo de dado que foi associado a essa coluna está incorreto. Por se tratar de uma variável categórica, o tipo character é, a princípio, um tipo de dado adequado para a variável Região metropolitana.

Agora, a partir daqui, eu não vou evitar mostrar esse relatório. Apenas com o objetivo de ser mais breve, e evitar ser muito repetitivo ao longo do livro. Mas lembre-se que, por padrão, sempre que utilizar as funções do pacote readr, elas vão produzir esse relatório automaticamente para você.

Além de tudo isso, perceba também no exemplo acima, que eu salvo o resultado da função read_csv2() em um objeto chamado Censo_2010. Isso é muito importante! Lembre-se sempre de salvar o resultado das funções read_*() em algum objeto. Pois tudo que a função read_csv2() faz é ler o arquivo Censo_2010.csv e encaixar o seu conteúdo em uma tabela (ou um data.frame) do R. Ou seja, em nenhum momento, a função read_csv2() se preocupa em salvar os dados que ela coletou do arquivo Censo_2010.csv, em algum lugar que podemos acessar futuramente.

É por esse motivo, que eu salvo a tabela gerada pela função read_csv2() em um novo objeto do R chamado Censo_2010. Pois dessa forma, eu posso acessar novamente os dados que coletamos do arquivo Censo_2010.csv, através deste objeto Censo_2010.

Censo_2010

# A tibble: 2,013 × 11
  `Região metropolitana` `População residente` `População em área urbana`
  <chr>                                  <dbl>                      <dbl>
1 Manaus  AM                           2106322                    1972885
2 Homens                               1036676                     964041
3 Mulheres                             1069646                    1008844
4 Careiro da Várzea                      23930                       1000
5 Homens                                 12688                        481
# ℹ 2,008 more rows
# ℹ 8 more variables: `População em área não urbanizada` <dbl>, …
…
flights <- read_csv2(
  "flights.csv",
  col_types = tipos_col
)

flights

# A tibble: 336,776 × 19
   year month   day dep_time sched_dep_time dep_delay arr_time sched_arr_time
  <int> <int> <int>    <dbl>          <dbl>     <dbl>    <dbl>          <dbl>
1  2013     1     1      517            515         2      830            819
2  2013     1     1      533            529         4      850            830
3  2013     1     1      542            540         2      923            850
4  2013     1     1      544            545        -1     1004           1022
5  2013     1     1      554            600        -6      812            837
# ℹ 336,771 more rows
# ℹ 11 more variables: arr_delay <dbl>, carrier <chr>, flight <dbl>, …

4.7.2 Compreendendo o argumento locale

O argumento locale está presente em todas as funções read_*(), e é responsável por definir as especificações do arquivo de texto que mudam de país para país. No Brasil, por exemplo, datas são definidas no formato “Dia/Mês/Ano”, enquanto nos EUA, datas se encontram no formato “Ano-Mês-Dia”. Além disso, no Brasil, utilizamos vírgulas para separar a parte decimal de um número, enquanto nos EUA, essa separação é definida por um ponto final. Uma diferença ainda mais importante, se encontra no sistema de encoding adotado, que varia de maneira muito violenta ao longo dos países.

O R é uma linguagem centrada nos padrões americanos. Por isso, sempre que você estiver tentando ler algum arquivo de texto que não se encaixa de alguma forma neste padrão, você terá que ajustar o locale da função read_*() que você está utilizando. Algumas funções já preveem e adotam essas diferenças. Um exemplo disso, é a função read_csv2(), que é na verdade um atalho para o padrão de arquivo CSV adotado por nós brasileiros, e por alguns países europeus.

Como exemplo inicial, vamos tentar ler o arquivo pib_per_capita.csv, que novamente se encontra dentro da pasta 6 - Importacao. Dessa vez, vamos utilizar a função geral do pacote, a read_delim(). Lembre-se que nessa função, você deve sempre indicar qual o caractere separador do arquivo, através do argumento delim.

pib <- read_delim("Parte 1/6 - Importacao/pib_per_capita.csv", delim = ";")
pib

## # A tibble: 853 x 7
##  IBGE2   IBGE `Munic\xedpio`        `Popula\xe7\xe3o`   Ano PIB
##  <dbl>  <dbl> <chr>                             <dbl> <dbl> <chr>
## 1   10 310010 "Abadia dos Dourados"              6972  2017 33.389.769,00
## 2   20 310020 "Abaet\xe9"                       23223  2017 96.201.158,00
## 3   30 310030 "Abre Campo"                      13465  2017 29.149.429,00
## 4   40 310040 "Acaiaca"                          3994  2017 2.521.892,00
## 5   50 310050 "A\xe7ucena"                       9575  2017 15.250.077,00
## # ... with 848 more rows, and 1 more variable: PIB per capita <chr>
…
O motivo para tal conflito, se encontra justamente no uso do ponto final como separador de milhares, e da vírgula para marcar a parte decimal dos números dispostos nas colunas PIB e PIB_per_capita. Ou seja, como não informamos nada sobre as particularidades do arquivo, a função read_delim() está imaginando que o arquivo pib_per_capita.csv se encontra no padrão americano. Por isso, para que esse problema seja corrigido, nós precisamos avisar a função read_delim(), sobre essas particularidades de nosso arquivo.

Para fornecer tais informações, utilizamos a função locale(), como no exemplo abaixo. No nosso caso, precisamos ajustar o caractere responsável por separar os milhares, e o caractere que separa a parte decimal dos nossos números, que correspondem aos argumentos grouping_mark e decimal_mark da função locale(), respectivamente. Perceba no exemplo abaixo, que após provermos essas informações à função read_delim() através da função locale(), as colunas PIB e PIB per capita foram corretamente interpretadas como colunas numéricas (double).

pib <- read_delim(
  "Parte 1/6 - Importacao/pib_per_capita.csv",
  delim = ";",
  locale = locale(decimal_mark = ",", grouping_mark = ".")
)

pib

## # A tibble: 853 x 7
##  IBGE2   IBGE `Munic\xedpio`        `Popula\xe7\xe3o`   Ano      PIB
##  <dbl>  <dbl> <chr>                             <dbl> <dbl>    <dbl>
## 1   10 310010 "Abadia dos Dourados"              6972  2017 33389769
## 2   20 310020 "Abaet\xe9"                       23223  2017 96201158
## 3   30 310030 "Abre Campo"                      13465  2017 29149429
## 4   40 310040 "Acaiaca"                          3994  2017  2521892
## 5   50 310050 "A\xe7ucena"                       9575  2017 15250077
## # ... with 848 more rows, and 1 more variable: PIB per capita <dbl>
…
Nas funções do pacote readr, nós podemos definir o encoding de leitura do arquivo, através do argumento encoding presente na função locale(). Nesse argumento, você pode fornecer tanto o nome oficial do sistema (ISO-8859-1) quanto o seu apelido (Latin1). Repare no exemplo abaixo, que ao definirmos o encoding correto de leitura, os problemas em elementos textuais foram resolvidos. Para ter uma melhor compreensão desse problema, por favor, leia a seção Encoding de caracteres.

pib <- read_delim(
  "Parte 1/6 - Importacao/pib_per_capita.csv",
  delim = ";",
  locale = locale(
    decimal_mark = ",",
    grouping_mark = ".",
    encoding = "Latin1"
  )
)

pib

# A tibble: 853 × 7
  IBGE2   IBGE Município           População   Ano      PIB `PIB per capita`
  <dbl>  <dbl> <chr>                   <dbl> <dbl>    <dbl>            <dbl>
1    10 310010 Abadia dos Dourados      6972  2017 33389769            4789.
2    20 310020 Abaeté                  23223  2017 96201158            4142.
3    30 310030 Abre Campo              13465  2017 29149429            2165.
4    40 310040 Acaiaca                  3994  2017  2521892             631.
5    50 310050 Açucena                  9575  2017 15250077            1593.
# ℹ 848 more rows
…
t <- "2020;P.A22;01;4230.45
2020;B.34;02;1250.28
2020;S.T4;03;3510.90
2020;B.35;04;1200.25
2020;F.J4;05;1542.20
2020;A.12;06;9854.09
2020;B.Q2;07;7654.10
2020;G.T4;08;4328.36
2020;E.7A;09;2310.25"

Por padrão, as funções read_*() utilizam a primeira linha do arquivo para construir o nome de cada coluna presente.

read_delim(t, delim = ";")

# A tibble: 8 × 4
  `2020` P.A22 `01`  `4230.45`
   <dbl> <chr> <chr>     <dbl>
1   2020 B.34  02        1250.
2   2020 S.T4  03        3511.
3   2020 B.35  04        1200.
4   2020 F.J4  05        1542.
5   2020 A.12  06        9854.
# ℹ 3 more rows

Mas se você deseja evitar esse comportamento, você pode configurar o argumento col_names para FALSE. Dessa forma, a função read_*() vai gerar nomes genéricos para cada coluna, como no exemplo abaixo:

read_delim(t, delim = ";", col_names = FALSE)

# A tibble: 9 × 4
     X1 X2    X3       X4
  <dbl> <chr> <chr> <dbl>
1  2020 P.A22 01    4230.
2  2020 B.34  02    1250.
3  2020 S.T4  03    3511.
4  2020 B.35  04    1200.
5  2020 F.J4  05    1542.
# ℹ 4 more rows

Uma outra alternativa é fornecer um vetor ao argumento col_names, contendo os nomes de cada coluna na ordem em que elas aparecem no arquivo, como no exemplo abaixo.

col <- c("Ano", "Código", "Dia", "Valor")

read_delim(t, delim = ";", col_names = col)

# A tibble: 9 × 4
    Ano Código Dia   Valor
  <dbl> <chr>  <chr> <dbl>
1  2020 P.A22  01    4230.
2  2020 B.34   02    1250.
3  2020 S.T4   03    3511.
4  2020 B.35   04    1200.
5  2020 F.J4   05    1542.
# ℹ 4 more rows
…
# A tibble: 5 × 4
    Ano Código Dia   Valor
  <dbl> <chr>  <chr> <dbl>
1  2020 P.A22  01    4230.
2  2020 B.34   02    1250.
3  2020 S.T4   03    3511.
4  2020 B.35   04    1200.
5  2020 F.J4   05    1542.

Para mais, também podemos indiretamente definir a linha pela qual a função deve iniciar a leitura, por meio do argumento skip. Nesse argumento, você vai determinar quantas linhas do início do arquivo devem ser desconsideradas pela função. Portanto, no exemplo abaixo, eu estou ignorando as 2 primeiras linhas do arquivo t.

read_delim(t, delim = ";", skip = 2, col_names = col)

# A tibble: 7 × 4
    Ano Código Dia   Valor
  <dbl> <chr>  <chr> <dbl>
1  2020 S.T4   03    3511.
2  2020 B.35   04    1200.
3  2020 F.J4   05    1542.
4  2020 A.12   06    9854.
5  2020 B.Q2   07    7654.
# ℹ 2 more rows
…
Enfim, após extrair as especificações de cada coluna do arquivo input, eu tenho como resultado, o objeto columns. Veja pelo resultado abaixo, que eu defini 3 colunas na tabela armazenada neste objeto. A coluna name possui os nomes da colunas, na ordem em que elas aparecem no script do arquivo input, e portanto, nos microdados. A coluna width possui o número de caracteres presentes em cada uma dessas colunas. Já a coluna is_character, possui um valor lógico, indicando se os dados contidos nessa coluna, devem ser interpretados como texto (TRUE), ou como números (FALSE).

columns <- read_csv(
  "C:/Users/Pedro/Downloads/PNADC_012020/widths.txt", 
  col_names = c("name", "width", "is_character")
)
columns 

## # A tibble: 217 x 3
##    variavel  width char 
##    <chr>     <dbl> <lgl>
##  1 Ano           4 TRUE 
##  2 Trimestre     1 TRUE 
##  3 UF            2 TRUE 
##  4 Capital       2 TRUE 
##  5 RM_RIDE       2 TRUE 
## # ... with 212 more rows
…
4.8.4 Analisando erros de importação

Nós podemos obter através da função problems(), uma tabela contendo todos os erros que ocorreram durante esse processo de importação. Precisamos apenas fornecer a essa função, os comandos que geraram esses problemas, como no exemplo abaixo.

problemas <- problems(
  read_fwf(
    "C:/Users/Pedro/Downloads/PNADC_012020/PNADC_012020.txt",
    col_positions = fwf_widths(columns$width, col_names = columns$name), 
    col_types = tipos
  )
)

problemas

## # A tibble: 2,032,039 x 5
##      row col    expected   actual file
##    <int> <chr>  <chr>      <chr>  <chr>        
##  1     1 VD4032 a double   .      'C:/Users/Pedro/Downloads/PNADC_012020/PNAD~
##  2     1 VD4033 a double   .      'C:/Users/Pedro/Downloads/PNADC_012020/PNAD~
##  3     1 VD4034 a double   .      'C:/Users/Pedro/Downloads/PNADC_012020/PNAD~
##  4     2 VD4031 a double   .      'C:/Users/Pedro/Downloads/PNADC_012020/PNAD~
##  5     2 VD4032 a double   .      'C:/Users/Pedro/Downloads/PNADC_012020/PNAD~
## # ... with 2,032,034 more rows
…
unique(problemas$col)

## [1] "VD4032" "VD4033" "VD4034" "VD4031" "VD4035"

Seria uma boa ideia, olharmos mais de perto como essas colunas aparecem no arquivo de microdaddos. Para determinarmos a parte do arquivo que diz respeito a essas colunas, precisamos descobrir o intervalo de caracteres que cobrem essas colunas, através dos dados da tabela columns. Para isso, vamos precisar descobrir o número total de caracteres em cada linha (ou em outras palavras, a largura total da base), ao somarmos a largura de todas as colunas na tabela columns. Ao longo do caminho, teremos que subtrair uma faixa desse total, para descobrirmos o caractere que inicia o intervalo de colunas que estamos interessados.

(total_caracteres <- sum(columns$width))

[1] 464

Em seguida, podemos aplicar a função tail() sobre a tabela columns, para extrairmos as últimas linhas dessa tabela, e verificarmos as especificações das colunas que cobrem essa faixa. Pois nós sabemos que as variáveis que geraram problemas na importação, estão entre as últimas colunas dos microdados, logo, as especificações dessas colunas vão se encontrar nas últimas linhas da tabela columns. Vemos abaixo, que as duas últimas colunas da base (VD4036 e VD4037), das quais não estamos interessados, possuem juntas, 2 caracteres de largura. Portanto, o intervalo que cobre as colunas que geraram os problemas na importação (VD4031-VD4035), termina no 462° caractere, como vemos abaixo. Pelo resultado de tail(), vemos que as colunas das quais estamos interessados (VD4031-VD4035), somam 15 caracteres de largura. Tendo isso em mente, o intervalo que cobre essas colunas, se inicia no 448° caractere.

tail(columns, 7)

# A tibble: 7 × 3
  name   width is_character
  <chr>  <dbl> <lgl>       
1 VD4031     3 FALSE       
2 VD4032     3 FALSE       
3 VD4033     3 FALSE       
4 VD4034     3 FALSE       
5 VD4035     3 FALSE       
# ℹ 2 more rows
…
Logo abaixo, temos o resultado do intervalo que selecionamos do arquivo, em que podemos ver o grupo de pontos finais que estão causando o problema. Agora, temos que identificar o motivo desses pontos estarem aí. Se nós retornarmos às especificações dessas colunas apresentadas na tabela columns, nós sabemos que essas colunas são colunas numéricas. Será que esses pontos estão aí, para marcar as casas decimais dos números dessa coluna?

Talvez não seja esse o caso. Pois se esses pontos estivessem de fato, marcando as casas decimais, porque eles não aparecem na primeira linha das colunas VD4031 e VD4035? Isto é, por que o valor 040 que aparece nessas colunas, não se apresenta como 0.40, ou 04.0, ou 40.0 na tabela conferir? Lembre-se que esses valores da tabela conferir são apresentados exatamente da forma como eles estam escritos no arquivo dos microdados. Pois todas as colunas estão sendo interpretadas como character.

conferir

## # A tibble: 487,937 x 5
##    VD4031 VD4032 VD4033 VD4034 VD4035
##    <chr>  <chr>  <chr>  <chr>  <chr> 
##  1 040    .      .      .      040   
##  2 .      .      .      .      .     
##  3 .      .      .      .      .     
##  4 .      .      .      .      .     
##  5 .      .      .      .      .     
## # ... with 487,932 more rows
…
4.10 Importando planilhas do Excel com readxl

O Excel continua sendo um dos programas mais populares no mundo e, por essa razão, muitas pessoas ainda o utilizam para analisar dados e gerar gráficos. Tendo isso em vista, nessa seção, vamos aprender como podemos importar para o R, dados que se encontram em planilhas do Excel (.xlsx), através da função read_excel() que pertence ao pacote readxl.

Vale destacar que, nessa seção, vamos mostrar apenas como ler (ou importar) os dados armazenados em planilhas de Excel no R. Porém, em um capítulo posterior, mais especificamente na seção Um estudo de caso: exportando múltiplas planilhas de Excel, vamos mostrar quais são os pacotes e funções do R disponíveis hoje para escrever (ou exportar os seus dados para) uma planilha de Excel.

O principal argumento da função read_excel() corresponde novamente ao endereço até o arquivo que você deseja ler, ou apenas o seu nome caso esse arquivo se encontre em seu diretório de trabalho atual.

library(readxl)
codigos <- read_excel("codigos.xlsx")

codigos

# A tibble: 853 × 4
   IBGE1 IBGE2   SEF Municípios         
   <dbl> <dbl> <dbl> <chr>              
1 310010    10     1 ABADIA DOS DOURADOS
2 310020    20     2 ABAETÉ             
3 310030    30     3 ABRE CAMPO         
4 310040    40     4 ACAIACA            
5 310050    50     5 AÇUCENA            
# ℹ 848 more rows

4.10.1 Delimitando a parte de seu arquivo .xlsx

Um único arquivo .xlsx pode conter várias planilhas, ou várias abas (sheet’s) diferentes. Por padrão, a função read_excel() sempre lê a primeira planilha de seu arquivo .xlsx. Porém, você pode ler diferentes planilhas de seu arquivo por meio do argumento sheet. Somos capazes de selecionar a planilha desejada de acordo com a sua ordem (1, 2, 3, …), ou de acordo com o nome dado à aba que a contém.

## Lê a terceira planilha do arquivo
read_excel("datasets.xlsx", sheet = 3)

# A tibble: 71 × 2
  weight feed     
   <dbl> <chr>    
1    179 horsebean
2    160 horsebean
3    136 horsebean
4    227 horsebean
5    217 horsebean
# ℹ 66 more rows

## Lê a planilha presente na aba denominada mtcars
read_excel("datasets.xlsx", sheet = "mtcars")

# A tibble: 32 × 11
    mpg   cyl  disp    hp  drat    wt  qsec    vs    am  gear  carb
  <dbl> <dbl> <dbl> <dbl> <dbl> <dbl> <dbl> <dbl> <dbl> <dbl> <dbl>
1  21       6   160   110  3.9   2.62  16.5     0     1     4     4
2  21       6   160   110  3.9   2.88  17.0     0     1     4     4
3  22.8     4   108    93  3.85  2.32  18.6     1     1     4     1
4  21.4     6   258   110  3.08  3.22  19.4     1     0     3     1
5  18.7     8   360   175  3.15  3.44  17.0     0     0     3     2
# ℹ 27 more rows

Além dessas configurações, conseguimos delimitar o intervalo de células a serem lidas pela função, através do argumento range. Podemos fornecer esse intervalo em dois estilos diferentes. Nós podemos utilizar o sistema tradicional do Excel (CL:CL), como no exemplo abaixo, em que estamos lendo da célula A1 à célula C150 através da notação A1:C150.

read_excel("datasets.xlsx", range = "A1:C150")

# A tibble: 149 × 3
  Sepal.Length Sepal.Width Petal.Length
         <dbl>       <dbl>        <dbl>
1          5.1         3.5          1.4
2          4.9         3            1.4
3          4.7         3.2          1.3
4          4.6         3.1          1.5
5          5           3.6          1.4
# ℹ 144 more rows
…
