Introdução à Linguagem R - 6 Introdução a base de dados relacionais com dplyr
…
Por exemplo, suponha que eu tenha a tabela children abaixo. Essa tabela descreve os filhos de alguns músicos famosos, e a coluna father caracteriza-se como a foreign key dessa tabela. Não apenas porque os valores da coluna father se repetem ao longo da base, mas também, porque essa coluna pode ser claramente cruzada com a coluna name pertencente às tabelas info e band_instruments.

children <- tibble(
  child = c("Stella", "Beatrice", "James", "Mary",
            "Heather", "Sean", "Julian", "Zak",
            "Lee", "Jason", "Dhani"),
  sex = c("F", "F", "M", "F", "F", "M", "M", "M", "F", "M", "M"),
  father = c(rep("Paul", times = 5), "John", "John",
             rep("Ringo", times = 3), "Harrison")
)

children

# A tibble: 11 × 3
  child    sex   father
  <chr>    <chr> <chr> 
1 Stella   F     Paul  
2 Beatrice F     Paul  
3 James    M     Paul  
4 Mary     F     Paul  
5 Heather  F     Paul  
# ℹ 6 more rows
…
Nessa tabela, as colunas dia, mes, ano, valor, unidades e descricao, sozinhas, são insuficientes para identificarmos cada carga registrada na tabela. Mesmo que, atualmente, cada valor presente na coluna descricao seja único, essa característica provavelmente não vai resistir por muito tempo. Pois o supermercado pode muito bem receber amanhã, por exemplo, uma outra carga de refrigerantes de 2 litros da Mate Couro.

Por outro lado, a combinação dos valores presentes nas colunas dia, mes, ano, valor, unidades e descricao, pode ser o suficiente para criarmos um código de identificação único para cada carga. Por exemplo, ao voltarmos à tabela registro, podemos encontrar duas cargas que chegaram no mesmo dia 18, no mesmo mês 2, no mesmo ano de 2020, e trazendo as mesmas 325 unidades. Todavia, essas duas cargas, possuem descrições diferentes: uma delas incluía garrafas preenchidas com Coca Cola, enquanto a outra, continha Mate Couro. Concluindo, ao aliarmos as informações referentes a data de entrada (18/02/2020), as quantidades inclusas nas cargas (325 unidades), e as suas descrições (Coca Cola 2L e Mate Couro 2L), podemos enfim diferenciar essas duas cargas.

Como um outro exemplo, podemos utilizar as bases flights e weather, provenientes do pacote nycflights13. Perceba abaixo, que a base flights já possui um número grande colunas. Essa tabela apresenta dados diários, referentes a diversos voos que partiram da cidade de Nova York (EUA) durante o ano de 2013. Já a tabela weather, contém dados meteorológicos em uma dada hora, e em diversas datas do mesmo ano, e que foram especificamente coletados nos aeroportos da mesma cidade de Nova York.

library(nycflights13)

flights

# A tibble: 336,776 × 19
   year month   day dep_time sched_dep_time dep_delay arr_time sched_arr_time
  <int> <int> <int>    <int>          <int>     <dbl>    <int>          <int>
1  2013     1     1      517            515         2      830            819
2  2013     1     1      533            529         4      850            830
3  2013     1     1      542            540         2      923            850
4  2013     1     1      544            545        -1     1004           1022
5  2013     1     1      554            600        -6      812            837
# ℹ 336,771 more rows
# ℹ 11 more variables: arr_delay <dbl>, carrier <chr>, flight <int>, …

weather

# A tibble: 26,115 × 15
  origin  year month   day  hour  temp  dewp humid wind_dir wind_speed wind_gust
  <chr>  <int> <int> <int> <int> <dbl> <dbl> <dbl>    <dbl>      <dbl>     <dbl>
1 EWR     2013     1     1     1  39.0  26.1  59.4      270      10.4         NA
2 EWR     2013     1     1     2  39.0  27.0  61.6      250       8.06        NA
3 EWR     2013     1     1     3  39.0  28.0  64.4      240      11.5         NA
4 EWR     2013     1     1     4  39.9  28.0  62.2      250      12.7         NA
5 EWR     2013     1     1     5  39.0  28.0  64.4      260      12.7         NA
# ℹ 26,110 more rows
# ℹ 4 more variables: precip <dbl>, pressure <dbl>, visib <dbl>, …
…
Por exemplo, supondo que você precisasse em seu resultado apenas das colunas dep_time e dep_delay da tabela flights, você poderia fornecer os comandos a seguir:

cols_para_key <- c(
  "year", "month", "day", "hour", "origin"
)
cols_desejadas <- c("dep_time", "dep_delay")
cols_c <- c(cols_para_key, cols_desejadas)
inner_join(
  flights %>% select(all_of(cols_c)),
  weather,
  by = join_by(year, month, day, hour, origin)
)

# A tibble: 335,220 × 17
   year month   day  hour origin dep_time dep_delay  temp  dewp humid wind_dir
  <int> <int> <int> <dbl> <chr>     <int>     <dbl> <dbl> <dbl> <dbl>    <dbl>
1  2013     1     1     5 EWR         517         2  39.0  28.0  64.4      260
2  2013     1     1     5 LGA         533         4  39.9  25.0  54.8      250
3  2013     1     1     5 JFK         542         2  39.0  27.0  61.6      260
4  2013     1     1     5 JFK         544        -1  39.0  27.0  61.6      260
5  2013     1     1     6 LGA         554        -6  39.9  25.0  54.8      260
# ℹ 335,215 more rows
# ℹ 6 more variables: wind_speed <dbl>, wind_gust <dbl>, precip <dbl>, …
…
# A tibble: 3 × 5
  name  band    born       children plays 
  <chr> <chr>   <date>     <lgl>    <chr> 
1 John  Beatles 1940-09-10 TRUE     guitar
2 Paul  Beatles 1942-06-18 TRUE     bass  
3 Keith <NA>    NA         NA       guitar

Por fim, a função full_join() executa o processo inverso da função inner_join(). Ou seja, se por um lado, a função inner_join() mantém as linhas de todos os indivíduos que puderam ser localizados em ambas as tabelas, por outro, a função full_join() sempre traz todos os indivíduos de ambas as tabelas em seu resultado.

Em outras palavras, a função full_join() mantém todas as linhas de ambas as tabelas. De certa forma, a função full_join() busca encontrar sempre o maior número possível de combinações entre as tabelas, e em todas as ocasiões que full_join() não encontra um determinado indivíduo, por exemplo, na tabela B, a função vai preencher os campos dessa tabela B com valores NA para as linhas desse indivíduo. Veja o exemplo abaixo.

full_join(info, band_instruments, by = join_by(name))

# A tibble: 6 × 5
  name   band           born       children plays 
  <chr>  <chr>          <date>     <lgl>    <chr> 
1 Mick   Rolling Stones 1943-07-26 TRUE     <NA>  
2 John   Beatles        1940-09-10 TRUE     guitar
3 Paul   Beatles        1942-06-18 TRUE     bass  
4 George Beatles        1943-02-25 TRUE     <NA>  
5 Ringo  Beatles        1940-07-07 TRUE     <NA>  
# ℹ 1 more row

Como o primeiro data.frame fornecido à função *_join(), será na maioria das situações, a sua principal tabela de trabalho, o ideal é que você adote o left_join() como o seu padrão de join (WICKHAM; GROLEMUND, 2017). Pois dessa maneira, você evita uma possível perda de observações em sua tabela mais importante.

6.6 Relações entre keys: primary keys são menos comuns do que você pensa

Na seção Dados relacionais e o conceito de key, nós estabelecemos que variáveis com a capacidade de identificar unicamente cada observação de sua base, podem ser caracterizadas como primary keys. Mas para que essa característica seja verdadeira para uma dada variável, os seus valores não podem se repetir ao longo da base, e isso não acontece com tanta frequência na realidade.

Como exemplo, podemos voltar ao join entre as tabelas flights e weather que mostramos na seção Configurações sobre as colunas e keys utilizadas no join. Para realizarmos o join entre essas tabelas, nós utilizamos as colunas year, month, day, hour e origin como key. Porém, a forma como descrevemos essas colunas na seção passada, ficou subentendido que a combinação entre elas foi capaz de formar uma primary key. Bem, porque não conferimos se essas colunas assumem de fato esse atributo:

flights %>% 
  count(year, month, day, hour, origin) %>% 
  filter(n > 1)

# A tibble: 18,906 × 6
   year month   day  hour origin     n
  <int> <int> <int> <dbl> <chr>  <int>
1  2013     1     1     5 EWR        2
2  2013     1     1     5 JFK        3
3  2013     1     1     6 EWR       18
4  2013     1     1     6 JFK       17
5  2013     1     1     6 LGA       17
# ℹ 18,901 more rows
…
incomings

# A tibble: 4 × 4
  user_id user_name     channel   dt_enter           
    <dbl> <chr>         <chr>     <dttm>             
1       1 pedrobc67     Instagram 2023-07-06 08:04:09
2       1 pedrobc67     Instagram 2023-07-06 11:13:42
3       2 anne_marie992 Instagram 2023-07-06 11:45:00
4       3 <NA>          Website   2023-07-06 12:25:06

Agora, olhando para a tabela events, perceba que, na primeira visita ao fluxo do usuário pedrobc67, ele não realizou nenhuma ação após navegar para a página "/transport/select". Já na segunda visita desse mesmo usuário, ele de fato realizou outras ações após essa navegação. Esse comportamento não é incomum, pois muitos usuários entram na plataforma, mas acabam desistindo de continuar no meio do caminho, pois precisam fazer outra coisa naquele momento (e.g. filho está chorando e precisa de atenção, esqueceu de colocar comida para o cachorro, etc.), ou ainda, estão mentalmente exaustos naquele momento e precisam de um tempo para respirar.

events

# A tibble: 6 × 5
  user_id event_id dt_event            event_type      event_value              
    <dbl>    <dbl> <dttm>              <chr>           <chr>                    
1       1        1 2023-07-06 08:37:02 page-navigation "{\"type\": \"page-navig…
2       1        2 2023-07-06 11:15:49 page-navigation "{\"type\": \"page-navig…
3       1        3 2023-07-06 11:18:21 select-option   "{\"type\": \"select-opt…
4       1        4 2023-07-06 11:20:08 sent-input      "{\"type\": \"sent-input…
5       3        5 2023-07-06 12:25:35 page-navigation "{\"type\": \"page-navig…
# ℹ 1 more row
O meu trabalho envolve muitas vezes analisar como os usuários estão navegando pelo fluxo de vendas, e com isso, identificar possíveis pontos de atrito, ou pontos em que o usuário tem mais dificuldade para prosseguir e completar o processo de compra do produto.

Porém, para desenvolver esse tipo de análise, é útil relacionarmos cada entrada no fluxo que um determinado usuário realiza, com, os eventos que esse usuário realizou ao longo do fluxo durante essa visita que ele fez ao fluxo. Cada vez que um mesmo usuário entra no fluxo, uma nova visita se inicia, e portanto, um novo conjunto de eventos começa a ser gravado.

Como podemos relacionar corretamente a tabela events à tabela incomings de modo que a gente consiga relacionar cada visita ao fluxo de cada usuário com o respectivo conjunto de eventos que esse usuário realizou no fluxo nesta visita específica? A resposta está em um join de desigualdade.

by <- join_by(user_id, dt_event >= dt_enter)
events_with_incomings <- events |>
  inner_join(incomings, by = by) |>
  select(user_id, event_id, dt_enter, dt_event) |>
  arrange(user_id, dt_event)

events_with_incomings

# A tibble: 9 × 4
  user_id event_id dt_enter            dt_event           
    <dbl>    <dbl> <dttm>              <dttm>             
1       1        1 2023-07-06 08:04:09 2023-07-06 08:37:02
2       1        2 2023-07-06 08:04:09 2023-07-06 11:15:49
3       1        2 2023-07-06 11:13:42 2023-07-06 11:15:49
4       1        3 2023-07-06 08:04:09 2023-07-06 11:18:21
5       1        3 2023-07-06 11:13:42 2023-07-06 11:18:21
# ℹ 4 more rows

Porém, se você reparar atentamente no resultado acima, você talvez perceba que, os eventos produzidos pelo usuário pedrobc67 na sua segunda visita ao fluxo foram relacionados não apenas com o horário de entrada de sua segunda visita (11:13), mas também, com o horário de entrada de sua primeira visita (08:04) ao fluxo. Ou seja, o join acaba relacionando a primeira visita no fluxo com eventos que pertencem à segunda visita ao fluxo.

Existem diferentes formas de resolvermos esta inconsistência. Uma delas seria calcular a distância do horário de cada evento em relação ao horário de entrada, e filtrar todos os registros que possuem a menor distância possível. Veja o resultado abaixo como exemplo:

events_with_incomings <- events_with_incomings |>
  mutate(df_diff = dt_event - dt_enter) |>
  group_by(event_id) |>
  filter(df_diff == min(df_diff))

events_with_incomings

# A tibble: 6 × 5
# Groups:   event_id [6]
  user_id event_id dt_enter            dt_event            df_diff  
    <dbl>    <dbl> <dttm>              <dttm>              <drtn>   
1       1        1 2023-07-06 08:04:09 2023-07-06 08:37:02 1973 secs
2       1        2 2023-07-06 11:13:42 2023-07-06 11:15:49  127 secs
3       1        3 2023-07-06 11:13:42 2023-07-06 11:18:21  279 secs
4       1        4 2023-07-06 11:13:42 2023-07-06 11:20:08  386 secs
5       3        5 2023-07-06 12:25:06 2023-07-06 12:25:35   29 secs
# ℹ 1 more row

Porém, a melhor forma de corrigir esse problema, seria usar um rolling join, ao invés de um join de desigualdade clássico. Pense um pouco nisso. Nós queremos relacionar os eventos com o horário de entrada que esteja mais próximo possível dos horários desses eventos. Proximidade é a especialidade de rolling joins com a função closest()!

Portanto, tudo o que precisamos fazer é encapsular a nossa expressão de desigualdade com a função closest(). Perceba no resultado abaixo que, dessa vez, os eventos foram relacionados corretamente com a visita ao fluxo correspondente. Pois nesse caso, o join passa a relacionar cada evento que o usuário realizou dentro do fluxo com o horário de entrada que está mais próximo, como demonstrado no resultado abaixo:

by <- join_by(user_id, closest(dt_event >= dt_enter))
events_with_incomings <- events |>
  inner_join(incomings, by = by) |>
  select(user_id, event_id, dt_enter, dt_event) |>
  arrange(user_id)

events_with_incomings

# A tibble: 6 × 4
  user_id event_id dt_enter            dt_event           
    <dbl>    <dbl> <dttm>              <dttm>             
1       1        1 2023-07-06 08:04:09 2023-07-06 08:37:02
2       1        2 2023-07-06 11:13:42 2023-07-06 11:15:49
3       1        3 2023-07-06 11:13:42 2023-07-06 11:18:21
4       1        4 2023-07-06 11:13:42 2023-07-06 11:20:08
5       3        5 2023-07-06 12:25:06 2023-07-06 12:25:35
# ℹ 1 more row
…
