Introdução à Linguagem R - 7 Tidy Data: uma abordagem para organizar os seus dados com tidyr
…
7.2 O que é tidy data?

Em geral, nós passamos grande parte do tempo, reorganizando os nossos dados, para que eles fiquem no formato adequado para a nossa análise. Logo, aprender técnicas que facilitem o seu trabalho nesta atividade, pode economizar uma grande parte de seu tempo.

Isso é muito importante, pois uma base de dados que está bagunçada, é em geral, bagunçada em sua própria maneira. Como resultado, cada base irá exigir um conjunto de operações e técnicas diferentes das outras bases, para que ela seja arrumada. Em alguns casos, são problemas simples de serem resolvidos, já em outros, podemos ter bases que estão desarrumadas em um padrão não muito bem definido, e por isso, vão te demandar mais trabalho.

“Tidy datasets are all alike, but every messy dataset is messy in its own way”. WICKHAM (2014, p. 2).

Toda essa problemática, ocorre não apenas pelo erro humano, mas também porque podemos representar os nossos dados de diversas maneiras dentro de uma tabela. Cada maneira pode tanto facilitar muito o seu trabalho, quanto tornar o trabalho de outros, num inferno. Veja por exemplo, as tabelas abaixo. Ambas, apresentam os mesmos dados, mas em estruturas diferentes.

table2

# A tibble: 12 × 4
  country      year type          count
  <chr>       <dbl> <chr>         <dbl>
1 Afghanistan  1999 cases           745
2 Afghanistan  1999 population 19987071
3 Afghanistan  2000 cases          2666
4 Afghanistan  2000 population 20595360
5 Brazil       1999 cases         37737
# ℹ 7 more rows

table3

# A tibble: 6 × 3
  country      year rate             
  <chr>       <dbl> <chr>            
1 Afghanistan  1999 745/19987071     
2 Afghanistan  2000 2666/20595360    
3 Brazil       1999 37737/172006362  
4 Brazil       2000 80488/174504898  
5 China        1999 212258/1272915272
# ℹ 1 more row
…
Três propriedades que caracterizam o formato tidy data

Portanto, sempre inicie o seu trabalho, identificando a unidade básica de sua base. Em seguida, tente encontrar quais são as suas variáveis, ou as características dessa unidade básica que estão sendo descritas na base. Após isso, basta alocar cada variável em uma coluna, e reservar uma linha para cada observação diferente de sua base, que você automaticamente estará deixando uma célula para cada valor da base.

7.2.1 Será que você entendeu o que é tidy data?

Nessa seção vamos fazer um teste rápido, para saber se você entendeu o que é uma tabela no formato tidy. Olhe por algum tempo para os exemplos abaixo, e reflita sobre qual dessas tabelas está no formato tidy. Tente também descobrir quais são os problemas que as tabelas “não tidy” apresentam, ou em outras palavras, qual das três definições que apresentamos anteriormente, que essas tabelas “não tidy” acabam rompendo.

table1

# A tibble: 6 × 4
  country      year  cases population
  <chr>       <dbl>  <dbl>      <dbl>
1 Afghanistan  1999    745   19987071
2 Afghanistan  2000   2666   20595360
3 Brazil       1999  37737  172006362
4 Brazil       2000  80488  174504898
5 China        1999 212258 1272915272
# ℹ 1 more row

table2

# A tibble: 12 × 4
  country      year type          count
  <chr>       <dbl> <chr>         <dbl>
1 Afghanistan  1999 cases           745
2 Afghanistan  1999 population 19987071
3 Afghanistan  2000 cases          2666
4 Afghanistan  2000 population 20595360
5 Brazil       1999 cases         37737
# ℹ 7 more rows

table3

# A tibble: 6 × 3
  country      year rate             
  <chr>       <dbl> <chr>            
1 Afghanistan  1999 745/19987071     
2 Afghanistan  2000 2666/20595360    
3 Brazil       1999 37737/172006362  
4 Brazil       2000 80488/174504898  
5 China        1999 212258/1272915272
# ℹ 1 more row
…
A tabela 3, também rompe com a regra de que cada variável deve possuir a sua própria coluna. Pois o número de casos e a população total, estão guardados em uma mesma coluna! Ao separar os valores de população e de número de casos na tabela 3, em duas colunas diferentes, você chega na tabela 1, que é um exemplo de tabela tidy, pois agora todas as três definições estão sendo respeitadas.

7.2.2 Uma breve definição de formas

Apenas para que os exemplos das próximas seções, fiquem mais claros e fáceis de se visualizar mentalmente, vou definir dois formatos gerais que a sua tabela pode assumir, que são: long (longa) e wide (larga)1. Ou seja, qualquer que seja a sua tabela, ela vai em geral, estar em algum desses dois formatos, de uma forma ou de outra.

Esses termos (long e wide) são bem descritivos por si só. A ideia é que se uma tabela qualquer, está no formato long, ela adquire um aspecto visual de longa, ou em outras palavras, visualmente ela aparenta ter muitas linhas, e poucas colunas. Já uma tabela que está no formato wide, adquire um aspecto visual de larga, como se essa tabela possuísse mais colunas do que o necessário, e poucas linhas. Tais formas estão apresentadas em Figura 7.2.

7.3 Operações de pivô

As operações de pivô são as principais operações que você irá utilizar para reformatar a sua tabela. Uma operação de pivô basicamente altera as dimensões de sua tabela, ou dito de outra maneira, essas operações buscam transformar colunas em linhas, ou vice-versa. Para exemplificar essas operações, vamos utilizar as tabelas que vem do próprio pacote tidyr. Logo, se você chamou pelo tidyverse através de library(), você tem acesso a tabela abaixo. Basta chamar no console pelo objeto relig_income.

relig_income

# A tibble: 18 × 11
  religion  `<$10k` `$10-20k` `$20-30k` `$30-40k` `$40-50k` `$50-75k` `$75-100k`
  <chr>       <dbl>     <dbl>     <dbl>     <dbl>     <dbl>     <dbl>      <dbl>
1 Agnostic       27        34        60        81        76       137        122
2 Atheist        12        27        37        52        35        70         73
3 Buddhist       27        21        30        34        33        58         62
4 Catholic      418       617       732       670       638      1116        949
5 Don’t kn…      15        14        15        11        10        35         21
# ℹ 13 more rows
# ℹ 3 more variables: `$100-150k` <dbl>, `>150k` <dbl>, …
…
7.3.1 Adicionando linhas à sua tabela com pivot_longer()

Atualmente, a tabela relig_income possui poucas linhas e muitas colunas, e por isso, ela adquire um aspecto visual de “larga” (ou “wide”). Como eu disse, seria muito interessante para você, que transformasse essa tabela, de modo a agrupar as diferentes faixas de níveis salarias em uma única coluna. Logo, se estamos falando em reduzir o número de colunas, estamos querendo alongar a base, ou dito de outra forma, aumentar o número de linhas da base. Para fazermos isso, devemos utilizar a função pivot_longer().

Essa função possui três argumentos principais: 1) cols, os nomes das colunas que você deseja transformar em linhas; 2) names_to, o nome da nova coluna onde serão alocados os nomes, ou os rótulos das colunas que você definiu em cols; 3) values_to, o nome da nova coluna onde serão alocados os valores da sua tabela, que se encontram nas colunas que você definiu em cols. Como nós queremos transformar todas as colunas da tabela relig_income, que contém faixas salariais, eu posso simplesmente colocar no argumento cols, um símbolo de menos antes do nome da coluna religion, que é a única coluna da tabela, que não possui esse tipo de informação. Ou seja, dessa forma, eu estou dizendo à pivot_longer(), para transformar todas as colunas (exceto a coluna religion).

relig_income %>% 
  pivot_longer(
    cols = -religion,
    names_to = "income",
    values_to = "values"
  )

# A tibble: 180 × 3
  religion income  values
  <chr>    <chr>    <dbl>
1 Agnostic <$10k       27
2 Agnostic $10-20k     34
3 Agnostic $20-30k     60
4 Agnostic $30-40k     81
5 Agnostic $40-50k     76
# ℹ 175 more rows
…
relig_income %>% 
  pivot_longer(
    # A linha abaixo também poderia ser: cols = matches("\\d")
    cols = is.numeric,
    names_to = "income",
    values_to = "values"
  )

Portanto, sempre que utilizar a função pivot_longer(), duas novas colunas serão criadas. Em uma dessas colunas (values_to), a função irá guardar os valores que se encontravam nas colunas que você transformou em linhas. Já na outra coluna (names_to), a função irá criar rótulos em cada linha, que lhe informam de qual coluna (que você transformou em linhas) veio o valor disposto na coluna anterior (values_to). Você sempre deve definir como texto o nome dessas duas novas colunas. Isto é, sempre forneça os nomes dessas colunas, entre aspas duplas ou simples.

Como um outro exemplo, temos a tabela billboard, que também está disponível no pacote tidyr. Nessa tabela, temos a posição que diversas músicas ocuparam na lista da Billboard das 100 músicas mais populares no mundo, durante o ano de 2000. Portanto a posição que cada uma dessas músicas ocuparam nessa lista, ao longo do tempo, é a unidade básica que está sendo tratada nessa tabela. Agora, repare que a tabela possui muitas colunas (79 no total), onde em cada uma delas, temos a posição de uma música em uma dada semana desde a sua entrada na lista.

billboard

# A tibble: 317 × 79
  artist      track date.entered   wk1   wk2   wk3   wk4   wk5   wk6   wk7   wk8
  <chr>       <chr> <date>       <dbl> <dbl> <dbl> <dbl> <dbl> <dbl> <dbl> <dbl>
1 2 Pac       Baby… 2000-02-26      87    82    72    77    87    94    99    NA
2 2Ge+her     The … 2000-09-02      91    87    92    NA    NA    NA    NA    NA
3 3 Doors Do… Kryp… 2000-04-08      81    70    68    67    66    57    54    53
4 3 Doors Do… Loser 2000-10-21      76    76    72    69    67    65    55    59
5 504 Boyz    Wobb… 2000-04-15      57    34    25    17    17    31    36    49
# ℹ 312 more rows
# ℹ 68 more variables: wk9 <dbl>, wk10 <dbl>, wk11 <dbl>, wk12 <dbl>, …

São ao todo, 76 colunas contendo a posição de cada música no ranking na semana correspondente. Novamente, quando há um conjunto muito grande de colunas que desejamos selecionar, podemos utilizar os métodos alternativos de seleção que vimos em select(). Repare que os nomes dessas 76 colunas estão sempre no formato (wk...). Logo, você pode se aproveitar desse padrão, e selecionar todas essas colunas de uma vez só, usando a função starts_with() no argumento cols de pivot_longer(). Também podemos selecionar todas essas colunas pelos seus índices, fornecendo o vetor 4:79 para o argumento cols.

billboard_long <- billboard %>% 
  pivot_longer(
    # A linha abaixo também poderia ser: cols = 4:79
    cols = starts_with("wk"),
    names_to = "week",
    values_to = "position"
  )

billboard_long

# A tibble: 24,092 × 5
  artist track                   date.entered week  position
  <chr>  <chr>                   <date>       <chr>    <dbl>
1 2 Pac  Baby Don't Cry (Keep... 2000-02-26   wk1         87
2 2 Pac  Baby Don't Cry (Keep... 2000-02-26   wk2         82
3 2 Pac  Baby Don't Cry (Keep... 2000-02-26   wk3         72
4 2 Pac  Baby Don't Cry (Keep... 2000-02-26   wk4         77
5 2 Pac  Baby Don't Cry (Keep... 2000-02-26   wk5         87
# ℹ 24,087 more rows
…
Por outro lado, você talvez deseje realizar a operação contrária. Ou seja, se você deseja transformar linhas de sua tabela, em novas colunas, você deve utilizar a função pivot_wider(), que possui argumentos muito parecidos com os de pivot_longer().

Vamos começar com um exemplo simples. Veja a tabela df que estou criando logo abaixo. Nessa tabela, temos dados como o peso, a idade e a altura de cinco pessoas diferentes. Porém, perceba que essa tabela, não está no formato tidy. Pois temos três informações (peso, idade e altura) que representam características diferentes da unidade básica da tabela (pessoas), condensadas em uma mesma coluna (variavel).

df <- tibble(nome = c("Ana", "Ana", "Ana", "Eduardo", "Eduardo", 
"Eduardo", "Paulo", "Paulo", "Paulo", "Henrique", "Henrique", 
"Henrique", "Letícia", "Letícia", "Letícia"), variavel = c("idade", 
"peso", "altura", "idade", "peso", "altura", "idade", "peso", 
"altura", "idade", "peso", "altura", "idade", "peso", "altura"
), valor = c(20, 61, 1.67, 18, 90, 1.89, 19, 68, 1.67, 23, 82, 
1.72, 27, 56, 1.58))

df

# A tibble: 15 × 3
  nome    variavel valor
  <chr>   <chr>    <dbl>
1 Ana     idade    20   
2 Ana     peso     61   
3 Ana     altura    1.67
4 Eduardo idade    18   
5 Eduardo peso     90   
# ℹ 10 more rows
…
Warning: Values from `valor` are not uniquely identified; output will contain list-cols.
• Use `values_fn = list` to suppress this warning.
• Use `values_fn = {summary_fun}` to summarise duplicates.
• Use the following dplyr code to identify duplicates.
  {data} |>
  dplyr::summarise(n = dplyr::n(), .by = c(ano, mes, dia, produtoid, usuario))
  |>
  dplyr::filter(n > 1L)

vendas_wide

# A tibble: 7,845 × 9
    ano   mes   dia produtoid Ana       Henrique  Letícia   Eduardo   Paulo 
  <int> <int> <int> <chr>     <list>    <list>    <list>    <list>    <list>
1  2010     1     1 10104     <dbl [1]> <dbl [1]> <NULL>    <NULL>    <NULL>
2  2010     1     2 10013     <NULL>    <dbl [1]> <NULL>    <NULL>    <NULL>
3  2010     1     3 10555     <dbl [1]> <NULL>    <dbl [1]> <NULL>    <NULL>
4  2010     1     4 10555     <dbl [1]> <NULL>    <NULL>    <NULL>    <NULL>
5  2010     1     4 10013     <NULL>    <NULL>    <NULL>    <dbl [1]> <NULL>
# ℹ 7,840 more rows
…
Ou seja, temos uma única célula na tabela (localizada na primeira linha, e quinta coluna da tabela), que deve conter o valor arrecadado na venda do produto 10104, realizada pela vendedora Ana no dia 01/01/2010. Você poderia pensar: “Bem, por que não somar os valores dessas duas vendas? Dessa forma, temos apenas um valor para encaixar nessa célula”. Essa é uma alternativa possível, porém, ela gera perda de informação, especialmente se o valor arrecadado nas duas operações forem diferentes. Por exemplo, se a receita da primeira venda foi de 3907, e da segunda, de 4530. Com essa alternativa, nós sabemos que a soma das duas vendas ocorridas naquele dia, geraram 8437 reais de receita, mas nós não sabemos mais qual das duas vendas teve o maior valor de venda.

Isso é particularmente importante, pois podemos gerar o mesmo valor (8437 reais) de múltiplas formas. Pode ser que a Ana tenha vendido cinco unidades do produto 10104, tendo arrecadado em cada venda, o valor de 1687,4 reais. Mas ela poderia atingir o mesmo valor, ao vender dez unidades do produto 10104, dessa vez, arrecadando um valor médio bem menor, de 843,7 reais. Portanto, se utilizarmos a soma desses valores, como forma de contornarmos o problema posto anteriormente, os administradores da loja não poderão mais inferir da tabela vendas, se as suas vendas tem se reduzido em quantidade, ou se o valor arrecadado em cada venda, tem caído ao longo dos últimos anos.

Apesar de ser uma alternativa ruim em muitos casos, ela pode fazer sentido para o seu caso específico. Nesta situação, as versões mais recentes do pacote tidyr, oferecem na função pivot_wider() o argumento values_fn, onde você pode fornecer o nome de uma função a ser aplicada sobre os valores dispostos em cada célula. Logo, se quiséssemos somar os valores de vendas de cada célula criada na tabela vendas_wide, poderíamos realizar os comandos abaixo:

vendas %>% 
  pivot_wider(
    id_cols = c("ano", "mes", "dia", "produtoid"),
    names_from = usuario,
    values_from = valor,
    values_fn = sum
  )

# A tibble: 7,845 × 9
    ano   mes   dia produtoid   Ana Henrique Letícia Eduardo Paulo
  <int> <int> <int> <chr>     <dbl>    <dbl>   <dbl>   <dbl> <dbl>
1  2010     1     1 10104     3907.    6139.     NA      NA     NA
2  2010     1     2 10013       NA     5510.     NA      NA     NA
3  2010     1     3 10555     5296.      NA    3525.     NA     NA
4  2010     1     4 10555     5102.      NA      NA      NA     NA
5  2010     1     4 10013       NA       NA      NA    6051.    NA
# ℹ 7,840 more rows
…
library(repurrrsive)

7.4.1 Criando colunas a partir dos atributos da lista

A função unnest_wider() busca transformar os atributos encontrados em cada elemento de uma lista, em novas colunas de seu data.frame/tibble. Como exemplo, vamos analisar os dados no objeto gh_users. Se você conseguiu carregar o pacote repurrrsive com sucesso para a sua sessão, você tem acesso a este objeto.

Em resumo, gh_users é uma lista contendo dados sobre seis usuários diferentes do GitHub. Cada elemento dessa lista contém uma outra lista com os atributos/características que descrevem um usuário específico. Portanto, temos uma “lista de seis listas”. Em cada elemento dessa lista, temos uma nova lista contendo vários atributos diferentes, como username desse usuário, a sua cidade (location), o seu email, a empresa onde trabalha (company). Enfim, temos várias informações diferentes de cada usuário.

Primeiro, vamos armazenar essa lista dentro de um tibble. Perceba que, por ser uma lista, o tibble resultante cria uma coluna do tipo list para armazenar esse objeto. Perceba também pela notação list[30] presente nas linhas dessa coluna, que cada uma das seis listas que estão dentro dessa lista inicial, possuem em torno de 30 atributos diferentes.

users <- tibble(user = gh_users)
users

# A tibble: 6 × 1
  user             
  <list>           
1 <named list [30]>
2 <named list [30]>
3 <named list [30]>
4 <named list [30]>
5 <named list [30]>
# ℹ 1 more row

Em resumo, a função unnest_wider() vai “expandir” os atributos dessa lista em novas colunas de nossa tabela. Em outras palavras, os atributos presentes em cada “sublista” (ou em cada elemento) da lista inicial vai virar uma nova coluna dentro da nossa tabela. Como vimos acima que cada “sublista” da lista parece ter em torno de 30 atributos diferentes, significa que a função unnest_wider() vai criar em torno de 30 colunas novas.

Para usarmos essa função, basta fornecermos o tibble com os nossos dados em seu primeiro argumento, e, em seguida, escrevemos no segundo argumento, o nome da coluna dentro desse tibble que contém a lista que queremos “expandir” em novas colunas. Como armazenamos o objeto gh_users em uma coluna chamada user em nossa tabela, eu escrevo o nome dessa coluna no segundo argumento da função.

Como esperado, um novo tibble foi criado, contendo 30 colunas e 6 linhas. Cada linha nessa tabela representa um dos elementos da lista gh_users, e cada coluna nessa tabela, contém os dados de um atributo que estava armazenado dentro de cada “sublista”.

users_wide <- users |> unnest_wider(user)
users_wide

# A tibble: 6 × 30
  login     id avatar_url gravatar_id url   html_url followers_url following_url
  <chr>  <int> <chr>      <chr>       <chr> <chr>    <chr>         <chr>        
1 gabo… 6.60e5 https://a… ""          http… https:/… https://api.… https://api.…
2 jenn… 5.99e5 https://a… ""          http… https:/… https://api.… https://api.…
3 jtle… 1.57e6 https://a… ""          http… https:/… https://api.… https://api.…
4 juli… 1.25e7 https://a… ""          http… https:/… https://api.… https://api.…
5 leep… 3.51e6 https://a… ""          http… https:/… https://api.… https://api.…
# ℹ 1 more row
# ℹ 22 more variables: gists_url <chr>, starred_url <chr>, …
…
