Introdução à Linguagem R - 8 Visualização de dados com ggplot2
…
8.3 Iniciando um gráfico do ggplot

8.3.1 Dados

Primeiro, vamos definir os dados que vamos utilizar em nossos gráficos. A tabela datasus, contém a contagem de mortes por homicídios dolosos em 2018 no Brasil, coletados a partir dos microdados do SIM/DATASUS. Nessa mesma tabela, temos a distribuição dessas mortes, por sexo, por faixa etária, pelo estado (Unidade da Federação - UF) em que as mortes ocorreram, e pela cor de pele dos indivíduos.

library(readr)
github <- "https://raw.githubusercontent.com/pedropark99/"
pasta <- "Curso-R/master/Dados/"
arquivo <- "datasus.csv"
datasus <- read_csv2(paste0(github, pasta, arquivo))
datasus

# A tibble: 1,836 × 6
  `Faixa etaria` Genero    Cor    `Nome UF` UF    Contagem
  <chr>          <chr>     <chr>  <chr>     <chr>    <dbl>
1 10 a 14        Feminino  Parda  Acre      AC           4
2 10 a 14        Masculino Parda  Acre      AC           4
3 15 a 19        Feminino  Branca Acre      AC           2
4 15 a 19        Feminino  Parda  Acre      AC           4
5 15 a 19        Masculino Branca Acre      AC           6
# ℹ 1,831 more rows
…
Porém, você talvez se pergunte: o que ocorre se eu fornecer a cor steelblue dentro de aes()? Será que o ggplot reconhece que queremos aplicar essa cor sobre as formas geométricas do gráfico? A resposta curta é não, mas o resultado em geral é um pouco estranho, ou no mínimo algo inesperado. Pois em um caso como esse, a função aes() irá entender que você deseja colorir as barras no gráfico, de acordo com uma nova variável em sua tabela, chamada fill, e que possui um único valor possível ao longo da base, mais especificamente, o texto steelblue. Você pode ver esse resultado no gráfico à direita no exemplo acima.

Esse comportamento ocorre sempre que você fornece um valor em texto (um string) à algum argumento de aes(). Em uma situação como essa, o ggplot() parece criar uma nova variável em sua tabela chamada fill, e que contém o valor em texto que você forneceu a esse argumento. Isso não necessariamente é um comportamento inadequado, mas ele certamente surpreende alguns usuários, e como ele tem se mantido ao longo das últimas versões do ggplot, é possível que ele continue a funcionar dessa forma, por um bom tempo.

8.5 Sobrepondo o aesthetic mapping inicial em diversas camadas

Agora, vou explicar em maiores detalhes qual é a diferença entre: preenchermos os argumentos de data e mapping já na função inicial do gráfico (ggplot()), e de preenchê-los nas funções geom.

Para isso, vamos usar outros dados. Na tabela PIB eu possuo uma série histórica mensal do índice de faturamento real da indústria (Faturamento_indus), da porcentagem do PIB que representa a dívida pública líquida (Divida_liq_perc), e a média mensal da taxa de investimento produtivo (taxa de formação bruta de capital fixo - FBCF) na economia brasileira, além de dados de PIB, coletados do IPEAData5.

PIB

# A tibble: 184 × 6
  Data           PIB PIB_acumulado Divida_liq_perc  FBCF Faturamento_indus
  <date>       <dbl>         <dbl>           <dbl> <dbl>             <dbl>
1 2005-01-01 163540.         100              42.3 103.              102. 
2 2005-02-01 160702.          98.3            42.7  99.1              98.9
3 2005-03-01 175469.         107.             43.1 112.               98.3
4 2005-04-01 177179          108.             42.5 108.              107. 
5 2005-05-01 177497.         109.             42.4 113.              100. 
# ℹ 179 more rows
…
