Introdução à Linguagem R - 10 Manipulação e transformação de strings com stringr
…
Como exemplo, suponha que você possua a tabela usuarios. Repare que os valores da coluna cidade, variam bastante quanto ao uso da capitalização. Repare também, que em alguns valores na coluna nome, temos para além de problemas com a capitalização, espaços em branco desnecessários, que as vezes se encontram a direita, ou a esquerda, ou em ambos os lados do nome.

usuarios <- tibble(
  nome = c("Ana", " Eduardo", " Cláudio   ", "VerÔNiCA ",
           "  hugo    ", "JULIANA", "  Vitor de paula   "),
  cidade = c("BELÉM", "goiânia", "são paulo", "São paulo", "SÃO pAULO",
             "rIO DE janeiro", "rio de janeiro"),
  profissao = c("Bióloga", "Biólogo", "Químico", "Socióloga",
                "Administrador", "Administradora", "Economista")
)

usuarios

# A tibble: 7 × 3
  nome          cidade    profissao    
  <chr>         <chr>     <chr>        
1 "Ana"         BELÉM     Bióloga      
2 " Eduardo"    goiânia   Biólogo      
3 " Cláudio   " são paulo Químico      
4 "VerÔNiCA "   São paulo Socióloga    
5 "  hugo    "  SÃO pAULO Administrador
# ℹ 2 more rows

No Excel, você normalmente utilizaria a função ARRUMAR() para resolver os excessos de espaços, e as funções MAIÚSCULA(), MINÚSCULA() e PRI.MAIÚSCULA() para alterar a capitalização de todas as letras de cada nome. Sendo as funções str_trim(), str_to_upper(), str_to_lower() e str_to_title(), os seus equivalentes no pacote stringr, respectivamente.

Como os próprios nomes das funções str_to_upper() e str_to_lower() dão a entender, elas convertem todos as letras contidas em um vetor do tipo character, para letras maiúsculas (upper) e minúsculas (lower). Por exemplo, ao aplicarmos essas funções sobre a coluna cidade, temos o seguinte resultado:

usuarios %>% 
  mutate(cidade = str_to_upper(cidade))

# A tibble: 7 × 3
  nome          cidade    profissao    
  <chr>         <chr>     <chr>        
1 "Ana"         BELÉM     Bióloga      
2 " Eduardo"    GOIÂNIA   Biólogo      
3 " Cláudio   " SÃO PAULO Químico      
4 "VerÔNiCA "   SÃO PAULO Socióloga    
5 "  hugo    "  SÃO PAULO Administrador
# ℹ 2 more rows

usuarios %>% 
  mutate(cidade = str_to_lower(cidade))

# A tibble: 7 × 3
  nome          cidade    profissao    
  <chr>         <chr>     <chr>        
1 "Ana"         belém     Bióloga      
2 " Eduardo"    goiânia   Biólogo      
3 " Cláudio   " são paulo Químico      
4 "VerÔNiCA "   são paulo Socióloga    
5 "  hugo    "  são paulo Administrador
# ℹ 2 more rows

Por outro lado, a função str_to_title() representa a alternativa do meio, ao converter a primeira letra de cada palavra, para maiúsculo, e as letras restantes, para minúsculo, como demonstrado abaixo:

usuarios %>% 
  mutate(cidade = str_to_title(cidade))

# A tibble: 7 × 3
  nome          cidade    profissao    
  <chr>         <chr>     <chr>        
1 "Ana"         Belém     Bióloga      
2 " Eduardo"    Goiânia   Biólogo      
3 " Cláudio   " São Paulo Químico      
4 "VerÔNiCA "   São Paulo Socióloga    
5 "  hugo    "  São Paulo Administrador
# ℹ 2 more rows

Quanto ao excedente de espaços na coluna nome, podemos aplicar a função str_trim(). Por padrão, essa função retira qualquer espaço remanescente em ambos os lados de sua string. Mas caso seja de seu desejo, você pode especificar um lado específico para retirar espaços, por meio do argumento side, que aceita os valores "both", "left" ou "right".

usuarios <- usuarios %>% 
  mutate(nome = str_trim(nome))

usuarios

# A tibble: 7 × 3
  nome     cidade    profissao    
  <chr>    <chr>     <chr>        
1 Ana      BELÉM     Bióloga      
2 Eduardo  goiânia   Biólogo      
3 Cláudio  são paulo Químico      
4 VerÔNiCA São paulo Socióloga    
5 hugo     SÃO pAULO Administrador
# ℹ 2 more rows
…
[1] "São Carlos de   Santana"

str_squish("  São Carlos de   Santana   ")

[1] "São Carlos de Santana"

10.7 Extraindo partes ou subsets de uma string com str_sub()

Para extrairmos partes de uma string, podemos utilizar a função str_sub(), que se baseia na posição dos caracteres que delimitam o intervalo que você deseja capturar. Ou seja, nessa função, precisamos definir as posições dos caracteres que iniciam e terminam o intervalo que estamos extraindo. Como exemplo, eu posso extrair do primeiro ao quarto caractere de cada texto presente na coluna nome, da seguinte maneira:

usuarios %>% 
  mutate(parte = str_sub(nome, start = 1, end = 4))

# A tibble: 7 × 4
  nome     cidade    profissao     parte
  <chr>    <chr>     <chr>         <chr>
1 Ana      BELÉM     Bióloga       Ana  
2 Eduardo  goiânia   Biólogo       Edua 
3 Cláudio  são paulo Químico       Cláu 
4 VerÔNiCA São paulo Socióloga     VerÔ 
5 hugo     SÃO pAULO Administrador hugo 
# ℹ 2 more rows

De forma semelhante, podemos extrair do terceiro ao quinto caractere dessa mesma coluna, de acordo com o seguinte comando:

usuarios %>% 
  mutate(parte = str_sub(nome, start = 3, end = 5))

# A tibble: 7 × 4
  nome     cidade    profissao     parte
  <chr>    <chr>     <chr>         <chr>
1 Ana      BELÉM     Bióloga       a    
2 Eduardo  goiânia   Biólogo       uar  
3 Cláudio  são paulo Químico       áud  
4 VerÔNiCA São paulo Socióloga     rÔN  
5 hugo     SÃO pAULO Administrador go   
# ℹ 2 more rows
…
Portanto, ao final da coleta desses nomes, inserimos esses nomes em uma coluna de nosso data.frame, tendo como resultado algo parecido com a coluna origem, que se encontra na tabela periodo, e que pode ser recriada através dos comandos abaixo.

meses <- c("Janeiro", "Fevereiro", "Março", "Abril",
           "Maio", "Junho", "Julho", "Agosto",
           "Setembro", "Outubro", "Novembro", "Dezembro")
meses <- rep(meses, times = 6)
anos <- rep(2015:2020, each = 12)

periodo <- tibble(
  origem = str_c(str_c(meses, anos, sep = "_"), ".xslx")
)

periodo

# A tibble: 72 × 1
  origem             
  <chr>              
1 Janeiro_2015.xslx  
2 Fevereiro_2015.xslx
3 Março_2015.xslx    
4 Abril_2015.xslx    
5 Maio_2015.xslx     
# ℹ 67 more rows
…
Em momentos como esse, você pode tentar identificar se a parte final ou a parte inicial dos textos inclusos em sua coluna, são de alguma maneira, constantes. Ou seja, mesmo que o número de caracteres varie muito ao longo da coluna, talvez exista uma parte específica desses textos que sempre possui a mesma quantidade de caracteres.

No caso da coluna origem, temos três partes que são sempre constantes, que são a parte dos anos (mesmo que os anos variem, eles sempre são formados por 4 números, ou 4 caracteres), a parte da extensão do arquivo (.xlsx), e o underscore (_), que sempre separa as duas partes anteriores do mês em cada nome. Somando os caracteres dessas três partes, temos sempre 10 caracteres ao final do nome do arquivo, ao qual podemos eliminar para chegarmos à seção do texto que contém o nome do mês. Com isso, podemos utilizar a função str_length() para calcular o número total de caracteres de cada texto, e subtrair 10 desse valor, para chegarmos ao caractere que delimita o fim do mês em cada texto.

Podemos empregar a mesma linha de raciocínio, para chegarmos aos limites do intervalo que contém o ano em cada texto. Contudo, tanto o limite inicial quanto o limite final desse intervalo, variam. Logo, temos que utilizar o resultado de str_length() para descobrirmos os dois limites dessa seção. Como estamos empregando os valores produzidos por str_length() em três locais diferentes, eu guardo o resultado dessa função em uma coluna denominada num, para não ter o trabalho de digitar repetidamente a função str_length().

periodo %>% 
  mutate(
    num = str_length(origem),
    mes = str_sub(origem, start = 1, end = num - 10),
    ano = str_sub(origem, start = num - 8, end = num - 5) %>% as.integer()
  )

# A tibble: 72 × 4
  origem                num mes         ano
  <chr>               <int> <chr>     <int>
1 Janeiro_2015.xslx      17 Janeiro    2015
2 Fevereiro_2015.xslx    19 Fevereiro  2015
3 Março_2015.xslx        15 Março      2015
4 Abril_2015.xslx        15 Abril      2015
5 Maio_2015.xslx         14 Maio       2015
# ℹ 67 more rows
…
