12 Introdução à variáveis de tempo com lubridate – Introdução à Linguagem R
…
library(readr)
transf <- read_csv2(paste0(github, pasta, arquivo))

transf <- transf %>% 
  select(-Descricao) %>% 
  mutate(
    hora = hour(Data),
    minuto = minute(Data),
    segundo = second(Data)
  )

transf

# A tibble: 20,006 × 8
  Data                Usuario  Valor TransferID Pais      hora minuto segundo
  <dttm>              <chr>    <dbl>      <dbl> <chr>    <int>  <int>   <dbl>
1 2018-12-06 22:19:19 Eduardo   599.  116241629 Alemanha    22     19      19
2 2018-12-06 22:10:34 Júlio    4611.  115586504 Alemanha    22     10      34
3 2018-12-06 21:59:50 Nathália 4418.  115079280 Alemanha    21     59      50
4 2018-12-06 21:54:13 Júlio    2740.  114972398 Alemanha    21     54      13
5 2018-12-06 21:41:27 Ana      1408.  116262934 Alemanha    21     41      27
# ℹ 20,001 more rows
…
