Introdução à Linguagem R - 15 Loops
…
É frequente termos vários data.frame’s diferentes que desejamos salvar em arquivos de nosso computador. Até o momento, mostramos no capítulo 4 como podemos salvar esses objetos em arquivos CSV, através de funções como readr::write_delim() e readr::write_csv2(). Mas nessa seção, vamos exportar esses data.frame’s para arquivos de Excel.

Como exemplo, vamos utilizar novamente a tabela datasus que introduzimos anteriormente no capítulo 8. Lembrando que você pode importar rapidamente essa tabela para a sua sessão com os comandos abaixo. Ou seja, copie e cole os comandos abaixo em seu console, que você já terá acesso a essa tabela.

library(readr)

github <- "https://raw.githubusercontent.com/pedropark99/"
pasta <- "Curso-R/master/Dados/"
arquivo <- "datasus.csv"
datasus <- read_csv2(paste0(github, pasta, arquivo))

print(datasus)

# A tibble: 1,836 × 6
  `Faixa etaria` Genero    Cor    `Nome UF` UF    Contagem
  <chr>          <chr>     <chr>  <chr>     <chr>    <dbl>
1 10 a 14        Feminino  Parda  Acre      AC           4
2 10 a 14        Masculino Parda  Acre      AC           4
3 15 a 19        Feminino  Branca Acre      AC           2
4 15 a 19        Feminino  Parda  Acre      AC           4
5 15 a 19        Masculino Branca Acre      AC           6
# ℹ 1,831 more rows
…
## Por último exportando os dados:
saveWorkbook(wb, "dados-datasus.xlsx")

15.8.3 Como salvar múltiplas planilhas de Excel

Agora que sabemos quais são os passos necessários para salvar uma única planilha, podemos pensar em como podemos salvar múltiplas planilhas diferentes. Como exemplo, vamos dividir a tabela datasus, em várias tabelas menores. Mais especificamente, vamos dividir essa tabela por cada UF (Unidade da Federação). Para isso, podemos utilizar a função split():

por_uf <- split(datasus, ~UF)

Agora, o objeto por_uf é uma lista de 27 elementos. Cada elemento, contém um data.frame com os dados de uma UF específica. Por exemplo, com o comando abaixo, podemos acessar os dados de Minas Gerais (MG).

por_uf[["MG"]]

# A tibble: 89 × 6
  `Faixa etaria` Genero    Cor    `Nome UF`    UF    Contagem
  <chr>          <chr>     <chr>  <chr>        <chr>    <dbl>
1 10 a 14        Feminino  Branca Minas Gerais MG           1
2 10 a 14        Feminino  Parda  Minas Gerais MG           3
3 10 a 14        Feminino  Preta  Minas Gerais MG           1
4 10 a 14        Masculino Branca Minas Gerais MG           3
5 10 a 14        Masculino Parda  Minas Gerais MG          11
# ℹ 84 more rows
…
