Introdução à Linguagem R - 16 Functional programming com purrr
…
alunos %>% 
  map_dbl("idade")

    Ana   Bruno  Amanda Eduardo 
     15      17      21      14 

16.3 Um estudo de caso: aplicando um modelo econométrico sobre diferentes países

Nessa seção, vamos reproduzir o famoso exemplo dado por Hadley Wickham em sua palestra “Managing many models with R”. Pois esse exemplo demonstra bem, como as funções map ampliam as nossas capacidades com a linguagem R. Tal exemplo, começa pelo dataset gapminder, disponível através do pacote gapminder. Esse dataset contém dados de expectativa de vida (lifeExp), população (pop) e PIB per capita (gdpPercap) de diversos países do mundo (country), ao longo de vários anos (year).

library(gapminder)

gapminder

# A tibble: 1,704 × 6
  country     continent  year lifeExp      pop gdpPercap
  <fct>       <fct>     <int>   <dbl>    <int>     <dbl>
1 Afghanistan Asia       1952    28.8  8425333      779.
2 Afghanistan Asia       1957    30.3  9240934      821.
3 Afghanistan Asia       1962    32.0 10267083      853.
4 Afghanistan Asia       1967    34.0 11537966      836.
5 Afghanistan Asia       1972    36.1 13079460      740.
# ℹ 1,699 more rows
…
16.3.2 Criando uma lista de data.frame’s

Podemos criar a lista de data.frame’s, contendo os dados de cada país, de diversas formas. Em sua palestra, Hadley Wickham utilizou a função nest(), proveniente do pacote tidyr, para criar essa lista de data.frame’s dentro de uma coluna do data.frame original. Ou seja, Wickham utilizou nest() para criar uma espécie de data.frame de data.frame’s, pois ele queria demonstrar esta poderosa ideia de um nested data.frame. Porém, como uma solução ainda mais simples, também poderíamos utilizar a função split() para dividirmos a tabela gapminder em uma lista, onde cada elemento dessa lista conteria um data.frame com os dados de um país diferente. Ambas as soluções são perfeitamente válidas.

16.3.3 Com a função split()

Precisamos separar em diferentes elementos, os dados de cada país descrito na tabela gapminder. Para isso, podemos utilizar a função split(). Em resumo, essa função aceita um vetor ou data.frame como input, e divide esse objeto de input em diferentes elementos de uma lista, com base em algum vetor de grupos.

Logo, podemos pedir à split() que divida a tabela gapminder de acordo com os valores da coluna country. Veja o resultado abaixo:

dados_por_pais <- gapminder %>% split(~country)
dados_por_pais[[1]]

# A tibble: 12 × 6
  country     continent  year lifeExp      pop gdpPercap
  <fct>       <fct>     <int>   <dbl>    <int>     <dbl>
1 Afghanistan Asia       1952    28.8  8425333      779.
2 Afghanistan Asia       1957    30.3  9240934      821.
3 Afghanistan Asia       1962    32.0 10267083      853.
4 Afghanistan Asia       1967    34.0 11537966      836.
5 Afghanistan Asia       1972    36.1 13079460      740.
# ℹ 7 more rows
…
No momento, cada linha da tabela gapminder descreve os dados de um país em um determinado ano. Entretanto, a nossa intenção com essa solução, é transformar a tabela gapminder, de modo que cada linha da tabela contenha todos os dados de um determinado país para todos os anos.

Podemos realizar essa transformação, ao agruparmos à tabela pela coluna country (com a função group_by()) e, em seguida, aplicarmos a função nest() do pacote tidyr, como demonstrado abaixo:

library(tidyr)
library(magrittr)
library(dplyr)

dados_por_pais <- gapminder %>%
  group_by(country, continent) %>% 
  nest()

dados_por_pais

# A tibble: 142 × 3
# Groups:   country, continent [142]
  country     continent data             
  <fct>       <fct>     <list>           
1 Afghanistan Asia      <tibble [12 × 4]>
2 Albania     Europe    <tibble [12 × 4]>
3 Algeria     Africa    <tibble [12 × 4]>
4 Angola      Africa    <tibble [12 × 4]>
5 Argentina   Americas  <tibble [12 × 4]>
# ℹ 137 more rows

Dessa vez, o objeto dados_por_pais é um data.frame que contém três colunas (country, continent e data). A coluna data é uma lista, e cada elemento dessa lista contém um novo data.frame, que por sua vez, contém todos os dados referentes ao país identificado na coluna country da tabela.

Ou seja, ainda estamos utilizando uma lista de data.frame’s, onde cada data.frame dessa lista contém os dados de um país específico. A diferença agora, é que essa lista está inserida em uma coluna de um data.frame, ao invés de estar em um objeto separado.

Portanto, a Figura 16.4 apresenta de forma gráfica a transformação executada por nest(). Repare também, que o pacote tidyr nos oferece a função unnest(), com a qual podemos reverter a transformação executada por nest().

Como exemplo, os dados do Brasil estão na 15° linha da tabela dados_por_pais. Logo, eu posso adquirir todos os dados do Brasil, ao acessar o 15° elemento da coluna data. Perceba abaixo, que um novo data.frame é retornado, que contém todos os dados referentes ao Brasil.

dados_por_pais$data[[15]]

# A tibble: 12 × 4
   year lifeExp       pop gdpPercap
  <int>   <dbl>     <int>     <dbl>
1  1952    50.9  56602560     2109.
2  1957    53.3  65551171     2487.
3  1962    55.7  76039390     3337.
4  1967    57.6  88049823     3430.
5  1972    59.5 100840058     4986.
# ℹ 7 more rows

Agora, precisamos apenas aplicar a função aplicar_modelo() sobre cada elemento da coluna data. Para isso, podemos utilizar novamente a função map(), dessa vez, dentro da função mutate() que introduzimos no capítulo 4. Dessa maneira, map() vai executar a função aplicar_modelo() para cada elemento da coluna data, e retornar uma lista com os resultados, e a função mutate() vai adicionar essa lista como uma nova coluna do data.frame.

modelos <- dados_por_pais %>% 
  mutate(
    resultados = data %>% map(aplicar_modelo)
  )

modelos

# A tibble: 142 × 4
# Groups:   country, continent [142]
  country     continent data              resultados
  <fct>       <fct>     <list>            <list>    
1 Afghanistan Asia      <tibble [12 × 4]> <lm>      
2 Albania     Europe    <tibble [12 × 4]> <lm>      
3 Algeria     Africa    <tibble [12 × 4]> <lm>      
4 Angola      Africa    <tibble [12 × 4]> <lm>      
5 Argentina   Americas  <tibble [12 × 4]> <lm>      
# ℹ 137 more rows

Agora, cada elemento da coluna resultados contém todos os resultados do modelo para cada país da tabela gapminder. A partir daqui, podemos utilizar novamente as funções map para extrairmos as informações específicas dos modelos. Por exemplo, podemos extrair o beta estimado (\(\beta_1\)) e o coeficiente de determinação de cada país, e adicioná-los como novas colunas da tabela modelos.

modelos <- modelos %>% 
  mutate(
    glance = resultados %>% map(broom::glance),
    tidy = resultados %>% map(broom::tidy),
    beta_estimado = tidy %>% map_dbl(~.[["estimate"]][2]),
    r2 = glance %>% map_dbl("r.squared")
  ) %>% 
  select(-glance, -tidy)

modelos

# A tibble: 142 × 6
# Groups:   country, continent [142]
  country     continent data              resultados beta_estimado      r2
  <fct>       <fct>     <list>            <list>             <dbl>   <dbl>
1 Afghanistan Asia      <tibble [12 × 4]> <lm>            -0.00224 0.00226
2 Albania     Europe    <tibble [12 × 4]> <lm>             0.00444 0.701  
3 Algeria     Africa    <tibble [12 × 4]> <lm>             0.00714 0.818  
4 Angola      Africa    <tibble [12 × 4]> <lm>            -0.00103 0.0906 
5 Argentina   Americas  <tibble [12 × 4]> <lm>             0.00187 0.692  
# ℹ 137 more rows
…
Diversos critérios descritos na lei regem o cálculo deste índice de participação de cada município, sendo alguns deles: Turismo, Esporte, Patrimônio Cultural, População e Receita Própria. Em suma, o índice de participação de cada município, é uma média ponderada dos índices de cada um desses diversos critérios da lei. Você pode encontrar uma descrição completa desses critérios e do cálculo dos índices de participação, no texto original da lei1.

16.7.1 A demanda em si

A demanda é muito simples, porém, ela é trabalhosa e envolve um volume excessivo de repetição se você optar por utilizar programas como Excel para resolvê-la. Dentre os vários critérios da lei, temos o critério de Meio Ambiente, e o órgão responsável pelo cálculo do índice referente a esse critério, é a SEMAD-MG (Secretaria de Estado de Meio Ambiente e Desenvolvimento Sustentável). Um dia, a SEMAD chegou até nós da Fundação João Pinheiro (FJP), pedindo por todos os valores de ICMS transferidos para cada município, ao longo dos anos de 2018 e 2019, de acordo com o critério do Meio Ambiente da Lei Robin Hood.

Os funcionários da FJP, calculam e publicam todo mês, os valores transferidos de ICMS separados por cada critério da lei, e para cada município. Ou seja, para o ano de 2019, pense por exemplo, em uma lista de arquivos de Excel parecida com a lista abaixo, onde cada planilha corresponde aos valores de ICMS transferidos em um mês específico do ano.

Dando uma olhada mais de perto, cada uma dessas planilhas do Excel, assumem a estrutura abaixo. Onde cada linha da tabela, representa um município do estado de Minas Gerais, e cada coluna (ou pelo menos, grande parte dessas colunas), representa os valores de ICMS transferidos segundo os índices de um critério específico da lei. Ou seja, a coluna Educação, nos apresenta os valores de ICMS transferidos para cada município do estado, considerando-se o índice que cada um desses municípios adquiriram no critério de Educação, e também, considerando-se a parcela que o critério de Educação representa do total de ICMS distribuído.

library(readxl)
Abril_2019 <- read_excel("./../Dados/planilhas/Abril_2019.xlsx")
Abril_2019

# A tibble: 853 × 27
   IBGE1 IBGE2   SEF Municípios          População População dos 50 + Populoso…¹
   <dbl> <dbl> <dbl> <chr>                   <dbl>                         <dbl>
1 310010    10     1 ABADIA DOS DOURADOS     8847.                             0
2 310020    20     2 ABAETÉ                 29470.                             0
3 310030    30     3 ABRE CAMPO             17087.                             0
4 310040    40     4 ACAIACA                 5068.                             0
5 310050    50     5 AÇUCENA                12151.                             0
# ℹ 848 more rows
# ℹ abbreviated name: ¹​`População dos 50 + Populosos`
…
Agora que temos os caminhos até todas essas planilhas, importá-las para dentro do R se torna algo extremamente simples. Podemos simplesmente utilizar a função map() para aplicar uma função (que seja capaz de ler esses arquivos) sobre cada um desses caminhos. Lembre-se que, podemos importar planilhas do Excel para dentro do R, através da função readxl::read_excel() que introduzimos no capítulo 4.

library(readxl)
library(purrr)

planilhas <- map(caminhos, read_excel)
planilhas[[1]]

# A tibble: 853 × 27
   IBGE1 IBGE2   SEF Municípios          População População dos 50 + Populoso…¹
   <dbl> <dbl> <dbl> <chr>                   <dbl>                         <dbl>
1 310010    10     1 ABADIA DOS DOURADOS     8847.                             0
2 310020    20     2 ABAETÉ                 29470.                             0
3 310030    30     3 ABRE CAMPO             17087.                             0
4 310040    40     4 ACAIACA                 5068.                             0
5 310050    50     5 AÇUCENA                12151.                             0
# ℹ 848 more rows
# ℹ abbreviated name: ¹​`População dos 50 + Populosos`
…
[1] "cota minima"

Pelos resultados acima, podemos observar que as duas planilhas possuem uma coluna chamada cota minima, a qual não está presente nas demais planilhas. Essa mesma coluna está nomeada como Cota Mínima, nas demais planilhas. Como resultado, caso você estivesse aplicando um loop sobre cada uma das 12 planilhas, e estivesse procurando por uma coluna chamada Cota Mínima em cada uma delas, o R não seria capaz de encontrar essa coluna nos arquivos Dezembro_2019.xlsx e Novembro_2019.xlsx.

Pelo fato de estarmos preocupados com a coluna de Meio Ambiente, essa diferença se torna um pouco irrelevante para nós. Entretanto, caso estivéssemos trabalhando com essa coluna de Cota Mínima em cada planilha, teríamos um grande problema a ser resolvido.

16.7.5 Adicionando colunas de referência

Apesar de já termos importado todas as 12 planilhas, temos um grande problema a ser solucionado. Os dados de cada planilha não possuem qualquer coluna ou metadado de referência que indique o período ao qual os dados se referem.

Dito de outra forma, ao olharmos para os dados da primeira planilha, podemos ver os valores monetários de cada município para cada critério. Porém, a que mês esses valores monetários se referem? Dezembro? Janeiro? Março? E de que ano? 2019? ou 2020?

planilhas[[1]]

# A tibble: 853 × 27
   IBGE1 IBGE2   SEF Municípios          População População dos 50 + Populoso…¹
   <dbl> <dbl> <dbl> <chr>                   <dbl>                         <dbl>
1 310010    10     1 ABADIA DOS DOURADOS     8847.                             0
2 310020    20     2 ABAETÉ                 29470.                             0
3 310030    30     3 ABRE CAMPO             17087.                             0
4 310040    40     4 ACAIACA                 5068.                             0
5 310050    50     5 AÇUCENA                12151.                             0
# ℹ 848 more rows
# ℹ abbreviated name: ¹​`População dos 50 + Populosos`
…
### Um for loop para visitar cada uma das
### 12 planilhas e adicionar as colunas Ano e Mes:
for(i in seq_along(planilhas)){
  planilhas[[i]] <- planilhas[[i]] %>% 
    mutate(
      Ano = anos[i],
      Mes = meses[i]
    )
}

### Os dados de Abril de 2019:
planilhas[[1]] %>% select(Ano, Mes)

# A tibble: 853 × 2
    Ano Mes  
  <int> <chr>
1  2019 Abril
2  2019 Abril
3  2019 Abril
4  2019 Abril
5  2019 Abril
# ℹ 848 more rows

### Os dados de Dezembro de 2019:
planilhas[[3]] %>% select(Ano, Mes)

# A tibble: 853 × 2
    Ano Mes     
  <int> <chr>   
1  2019 Dezembro
2  2019 Dezembro
3  2019 Dezembro
4  2019 Dezembro
5  2019 Dezembro
# ℹ 848 more rows
…
Relembrando os argumentos de map()

Lembre-se também, que os argumentos repassados serão constantes ao longo de todo o loop. Em outras palavras, esses argumentos serão sempre os mesmos em cada chamada da função .f. Logo, quando você digita um comando como map(x, mean, na.rm = TRUE), a função map() vai sempre repassar o argumento na.rm com o valor TRUE em cada chamada à função mean().

Para compreender como você pode se aproveitar desse argumento, pense em como você aplicaria a função select() sobre apenas 1 das 12 planilhas. Perceba abaixo, que estamos repassando os argumentos Ano, Mes, IBGE1, Municípios e Meio Ambiente à função.

planilhas[[1]] %>% 
  select(Ano, Mes, IBGE1, Municípios, `Meio Ambiente`)

# A tibble: 853 × 5
    Ano Mes    IBGE1 Municípios          `Meio Ambiente`
  <int> <chr>  <dbl> <chr>                         <dbl>
1  2019 Abril 310010 ABADIA DOS DOURADOS              0 
2  2019 Abril 310020 ABAETÉ                           0 
3  2019 Abril 310030 ABRE CAMPO                   10433.
4  2019 Abril 310040 ACAIACA                          0 
5  2019 Abril 310050 AÇUCENA                       7727.
# ℹ 848 more rows
…
16.7.7 Unindo as 12 planilhas em uma só

Temos agora, uma lista contendo todas as 12 planilhas com apenas as colunas que a SEMAD necessita. Porém, lembre-se que cada planilha, está atualmente separada em um elemento diferente da lista. Nós estabelecemos anteriormente, que o ideal seria reunirmos todas essas 12 tabelas, em uma só.

Para executarmos esse passo, nós podemos simplesmente aplicar a função bind_rows() (que introduzimos no capítulo 4) sobre a lista planilhas. Se nós temos 12 planilhas diferentes, onde, cada linha de cada planilha representa um dos 853 municípios de Minas Gerais, ao unirmos todas essas tabelas, devemos ter como resultado, uma única tabela contendo 10.236 linhas (\(853 \times 12 = 10.236\)).

resultado <- bind_rows(planilhas)
resultado

# A tibble: 10,236 × 5
    Ano Mes    IBGE1 Municípios          `Meio Ambiente`
  <int> <chr>  <dbl> <chr>                         <dbl>
1  2019 Abril 310010 ABADIA DOS DOURADOS              0 
2  2019 Abril 310020 ABAETÉ                           0 
3  2019 Abril 310030 ABRE CAMPO                   10433.
4  2019 Abril 310040 ACAIACA                          0 
5  2019 Abril 310050 AÇUCENA                       7727.
# ℹ 10,231 more rows
…
