Introdução à Linguagem R - Exercícios
…
github <- "https://raw.githubusercontent.com/rfordatascience/"
arquivo <- "tidytuesday/master/data/2020/2020-03-10/tuition_income.csv"

dados <- read_csv(paste0(github, arquivo))

5.2.A) Com esses dados em mão, tente descobrir as 10 universidades que sofreram os maiores aumentos de preços durante o período descrito na base.

5.2.B) Dado que você descubra a universidade que sofreu o maior aumento de preço dentre as 10 universidades descritas no item anterior, procure pelos dados dessa universidade ao longo da base. Com esses dados, discuta o momento em que houve a variação. Não tem resposta certa ou errada, apenas encontre os dados dessa universidade na base, e dê sua opinião sobre tamanha variação no preço dessa universidade.

Questão 5.3. Caso você tenha chamado pelo pacote dplyr com sucesso em sua sessão, através do comando library(), você tem acesso à tabela starwars, que é utilizada nessa questão. Tendo a tabela starwars em mãos, da coluna 1 até a coluna 11, descubra qual a coluna do tipo character que possui o maior número de valores únicos (ou o maior número de “grupos”) ao longo da base.

library(tidyverse)
starwars

# A tibble: 87 × 14
   name     height  mass hair_color skin_color eye_color birth_year sex   gender
   <chr>     <int> <dbl> <chr>      <chr>      <chr>          <dbl> <chr> <chr> 
 1 Luke Sk…    172    77 blond      fair       blue            19   male  mascu…
 2 C-3PO       167    75 <NA>       gold       yellow         112   none  mascu…
 3 R2-D2        96    32 <NA>       white, bl… red             33   none  mascu…
 4 Darth V…    202   136 none       white      yellow          41.9 male  mascu…
 5 Leia Or…    150    49 brown      light      brown           19   fema… femin…
 6 Owen La…    178   120 brown, gr… light      blue            52   male  mascu…
 7 Beru Wh…    165    75 brown      light      blue            47   fema… femin…
 8 R5-D4        97    32 <NA>       white, red red             NA   none  mascu…
 9 Biggs D…    183    84 black      light      brown           24   male  mascu…
10 Obi-Wan…    182    77 auburn, w… fair       blue-gray       57   male  mascu…
# ℹ 77 more rows
# ℹ 5 more variables: homeworld <chr>, species <chr>, films <list>,
#   vehicles <list>, starships <list>
…
### Porque esse comando de join
### abaixo não funciona?
filmes %>% 
  left_join(
    filmes_receita
  )

Capítulo 7 - Tidy data: uma abordagem para organizar os seus dados com tidyr

Questão 7.1. Os itens desta questão vão utilizar a tabela world_bank_pop. Essa tabela advém do pacote tidyr, logo, caso você tenha chamado com sucesso por esse pacote através do comando library() você já possui acesso a essa tabela. A tabela world_bank_pop contém uma série histórica de vários dados populacionais para cada país descrito na base.

world_bank_pop

# A tibble: 1,064 × 20
   country indicator      `2000`  `2001`  `2002`  `2003`  `2004`  `2005`  `2006`
   <chr>   <chr>           <dbl>   <dbl>   <dbl>   <dbl>   <dbl>   <dbl>   <dbl>
 1 ABW     SP.URB.TOTL    4.16e4 4.20e+4 4.22e+4 4.23e+4 4.23e+4 4.24e+4 4.26e+4
 2 ABW     SP.URB.GROW    1.66e0 9.56e-1 4.01e-1 1.97e-1 9.46e-2 1.94e-1 3.67e-1
 3 ABW     SP.POP.TOTL    8.91e4 9.07e+4 9.18e+4 9.27e+4 9.35e+4 9.45e+4 9.56e+4
 4 ABW     SP.POP.GROW    2.54e0 1.77e+0 1.19e+0 9.97e-1 9.01e-1 1.00e+0 1.18e+0
 5 AFE     SP.URB.TOTL    1.16e8 1.20e+8 1.24e+8 1.29e+8 1.34e+8 1.39e+8 1.44e+8
 6 AFE     SP.URB.GROW    3.60e0 3.66e+0 3.72e+0 3.71e+0 3.74e+0 3.81e+0 3.81e+0
 7 AFE     SP.POP.TOTL    4.02e8 4.12e+8 4.23e+8 4.34e+8 4.45e+8 4.57e+8 4.70e+8
 8 AFE     SP.POP.GROW    2.58e0 2.59e+0 2.61e+0 2.62e+0 2.64e+0 2.67e+0 2.70e+0
 9 AFG     SP.URB.TOTL    4.31e6 4.36e+6 4.67e+6 5.06e+6 5.30e+6 5.54e+6 5.83e+6
10 AFG     SP.URB.GROW    1.86e0 1.15e+0 6.86e+0 7.95e+0 4.59e+0 4.47e+0 5.03e+0
# ℹ 1,054 more rows
# ℹ 11 more variables: `2007` <dbl>, `2008` <dbl>, `2009` <dbl>, `2010` <dbl>,
#   `2011` <dbl>, `2012` <dbl>, `2013` <dbl>, `2014` <dbl>, `2015` <dbl>,
#   `2016` <dbl>, `2017` <dbl>
…
8.2.C) Desenhe um conjunto de setas apontando para o texto "Uma anotação muito importante". Ou seja, desenhe o texto guardado no objeto anotacao abaixo em seu ggplot e, em seguida, tente desenhar um conjunto de setas apontando para essa anotação.

anotacao <- "Uma anotação\nmuito importante"

Questão 8.3. Na média qual a qualidade de corte (cut) na tabela diamonds que gera o maior preço (price). Dito de outra forma, utilize um gráfico do ggplot para responder à seguinte pergunta: tendo a tabela diamonds em mãos, quais são os cortes descritos na coluna cut que geram os diamantes mais caros do mercado, isto é, que possuem os maiores preços na coluna price. Lembre-se que a tabela diamonds advém do próprio pacote ggplot2, logo, se você chamou por esse pacote em sua sessão com um comando library(), você já tem acesso à tabela diamonds.

library(ggplot2)

### Ao chamar pelo pacote
### ggplot2, você terá acesso
### à tabela diamonds
diamonds

# A tibble: 53,940 × 10
   carat cut       color clarity depth table price     x     y     z
   <dbl> <ord>     <ord> <ord>   <dbl> <dbl> <int> <dbl> <dbl> <dbl>
 1  0.23 Ideal     E     SI2      61.5    55   326  3.95  3.98  2.43
 2  0.21 Premium   E     SI1      59.8    61   326  3.89  3.84  2.31
 3  0.23 Good      E     VS1      56.9    65   327  4.05  4.07  2.31
 4  0.29 Premium   I     VS2      62.4    58   334  4.2   4.23  2.63
 5  0.31 Good      J     SI2      63.3    58   335  4.34  4.35  2.75
 6  0.24 Very Good J     VVS2     62.8    57   336  3.94  3.96  2.48
 7  0.24 Very Good I     VVS1     62.3    57   336  3.95  3.98  2.47
 8  0.26 Very Good H     SI1      61.9    55   337  4.07  4.11  2.53
 9  0.22 Fair      E     VS2      65.1    61   337  3.87  3.78  2.49
10  0.23 Very Good H     VS1      59.4    61   338  4     4.05  2.39
# ℹ 53,930 more rows
…
