…
O argumento `locale` está presente em todas as funções `read_*()`, e é responsável por definir as especificações do arquivo de texto que mudam de país para país. No Brasil, por exemplo, datas são definidas no formato "Dia/Mês/Ano", enquanto nos EUA, datas se encontram no formato "Ano-Mês-Dia". No Brasil, utilizamos vírgulas para separar a parte decimal de um número, enquanto nos EUA, essa separação é definida por um ponto final. Uma diferença ainda mais importante, se encontra no sistema de *encoding* adotado, que varia de maneira muito violenta ao longo dos países. 

O R, é uma linguagem centrada nos padrões americanos, por isso, sempre que você estiver tentando ler algum arquivo de texto que não se encaixa de alguma forma neste padrão, você terá que ajustar o `locale` da função `read_*()` que você está utilizando. Algumas funções já preveem e adotam essas diferenças, um exemplo disso, é a função `read_csv2()`, que é na verdade um atalho para o padrão adotado por nós brasileiros, e por alguns países europeus. 

Como exemplo inicial, vamos tentar ler o arquivo `pib_per_capita.csv`, que novamente se encontra dentro da pasta `6 - Importacao`. Dessa vez, vamos utilizar a função geral do pacote, a `read_delim()`. Lembre-se que nessa função, você deve sempre indicar qual o caractere separador do arquivo, através do argumento `delim`.

```{r, eval = FALSE}
pib <- read_delim("Parte 1/6 - Importacao/pib_per_capita.csv", delim = ";")
pib
```


```
## # A tibble: 853 x 7
##  IBGE2   IBGE `Munic\xedpio`        `Popula\xe7\xe3o`   Ano PIB
##  <dbl>  <dbl> <chr>                             <dbl> <dbl> <chr>
## 1   10 310010 "Abadia dos Dourados"              6972  2017 33.389.769,00
## 2   20 310020 "Abaet\xe9"                       23223  2017 96.201.158,00
## 3   30 310030 "Abre Campo"                      13465  2017 29.149.429,00
## 4   40 310040 "Acaiaca"                          3994  2017 2.521.892,00
## 5   50 310050 "A\xe7ucena"                       9575  2017 15.250.077,00
## 6   60 310060 "\xc1gua Boa"                     13600  2017 29.988.906,00
## 7   70 310070 "\xc1gua Comprida"                 2005  2017 74.771.408,00
## 8   80 310080 "Aguanil"                          4448  2017 15.444.038,00
## 9   90 310090 "\xc1guas Formosas"               19166  2017 11.236.696,00
## 10 100 310100 "\xc1guas Vermelhas"              13477  2017 48.088.397,00
## # ... with 843 more rows, and 1 more variable: PIB per capita <chr>
```
…
Para fornecer tais informações, utilizamos a função `locale()`, como no exemplo abaixo. No nosso caso, precisamos ajustar o caractere responsável por separar os milhares, e o caractere que separa a parte decimal dos nossos números, que correspondem aos argumentos `grouping_mark` e `decimal_mark` da função `locale()`, respectivamente. Perceba no exemplo abaixo, que após provermos essas informações à função `read_delim()` através da função `locale()`, as colunas `PIB` e `PIB per capita` foram corretamente interpretadas como colunas numéricas (`double`).


```{r, eval = FALSE}
pib <- read_delim(
  "Parte 1/6 - Importacao/pib_per_capita.csv",
  delim = ";",
  locale = locale(decimal_mark = ",", grouping_mark = ".")
)

pib
```

```
## # A tibble: 853 x 7
##  IBGE2   IBGE `Munic\xedpio`        `Popula\xe7\xe3o`   Ano      PIB
##  <dbl>  <dbl> <chr>                             <dbl> <dbl>    <dbl>
## 1   10 310010 "Abadia dos Dourados"              6972  2017 33389769
## 2   20 310020 "Abaet\xe9"                       23223  2017 96201158
## 3   30 310030 "Abre Campo"                      13465  2017 29149429
## 4   40 310040 "Acaiaca"                          3994  2017  2521892
## 5   50 310050 "A\xe7ucena"                       9575  2017 15250077
## 6   60 310060 "\xc1gua Boa"                     13600  2017 29988906
## 7   70 310070 "\xc1gua Comprida"                 2005  2017 74771408
## 8   80 310080 "Aguanil"                          4448  2017 15444038
## 9   90 310090 "\xc1guas Formosas"               19166  2017 11236696
## 10 100 310100 "\xc1guas Vermelhas"              13477  2017 48088397
## # ... with 843 more rows, and 1 more variable: PIB per capita <dbl>
```
…
```
## -- Column specification --------------------------------
## cols(
##   variavel = col_character(),
##   width = col_double(),
##   char = col_logical()
## )
```

```{r, eval = FALSE}
col_width
```

```
## # A tibble: 217 x 3
##    variavel  width char 
##    <chr>     <dbl> <lgl>
##  1 Ano           4 TRUE 
##  2 Trimestre     1 TRUE 
##  3 UF            2 TRUE 
##  4 Capital       2 TRUE 
##  5 RM_RIDE       2 TRUE 
##  6 UPA           9 TRUE 
##  7 Estrato       7 TRUE 
##  8 V1008         2 TRUE 
##  9 V1014         2 TRUE 
## 10 V1016         1 TRUE 
## # ... with 207 more rows
```
…
```{r, eval = FALSE}
problemas <- problems(
  read_fwf(
    "C:/Users/Pedro/Downloads/PNADC_012020/PNADC_012020.txt",
    col_positions = fwf_widths(col_width$width, col_names = col_width$variavel), 
    col_types = tipos
  )
)

problemas
```

```
## # A tibble: 2,032,039 x 5
##      row col    expected   actual file
##    <int> <chr>  <chr>      <chr>  <chr>        
##  1     1 VD4032 a double   .      'C:/Users/Pedro/Downloads/PNADC_012020/PNAD~
##  2     1 VD4033 a double   .      'C:/Users/Pedro/Downloads/PNADC_012020/PNAD~
##  3     1 VD4034 a double   .      'C:/Users/Pedro/Downloads/PNADC_012020/PNAD~
##  4     2 VD4031 a double   .      'C:/Users/Pedro/Downloads/PNADC_012020/PNAD~
##  5     2 VD4032 a double   .      'C:/Users/Pedro/Downloads/PNADC_012020/PNAD~
##  6     2 VD4033 a double   .      'C:/Users/Pedro/Downloads/PNADC_012020/PNAD~
##  7     2 VD4034 a double   .      'C:/Users/Pedro/Downloads/PNADC_012020/PNAD~
##  8     2 VD4035 a double   .      'C:/Users/Pedro/Downloads/PNADC_012020/PNAD~
##  9     3 VD4031 a double   .      'C:/Users/Pedro/Downloads/PNADC_012020/PNAD~
## 10     3 VD4032 a double   .      'C:/Users/Pedro/Downloads/PNADC_012020/PNAD~
## # ... with 2,032,029 more rows
```
…
Logo abaixo, temos o resultado do intervalo que selecionamos do arquivo, em que podemos ver o grupo de pontos finais que estão causando o problema. Agora, temos que identificar o motivo desses pontos estarem aí. Se nós retornarmos às especificações dessas colunas apresentadas na tabela `col_width`, nós sabemos que essas colunas são colunas numéricas. Será que esses pontos estão aí, para marcar as casas decimais dos números dessa coluna?

Talvez não seja esse o caso. Pois se esses pontos estivessem de fato, marcando as casas decimais, porque eles não aparecem na primeira linha das colunas VD4031 e VD4035? Isto é, por que o valor 040 que aparece nessas colunas, não se apresenta como 0.40, ou 04.0, ou 40.0 na tabela `conferir`? Lembre-se que os valores da tabela `conferir`, são apresentados exatamente da forma como eles se apresentam no arquivo dos microdados, pois todas essas colunas estão sendo interpretadas como `character`. Ou seja, esses valores que eram meros textos no arquivo dos microdados, continuam sendo textos no R, de forma que não houve nenhuma conversão desses valores.

```{r, eval = FALSE}
conferir
```
```
## # A tibble: 487,937 x 5
##    VD4031 VD4032 VD4033 VD4034 VD4035
##    <chr>  <chr>  <chr>  <chr>  <chr> 
##  1 040    .      .      .      040   
##  2 .      .      .      .      .     
##  3 .      .      .      .      .     
##  4 .      .      .      .      .     
##  5 .      .      .      .      .     
##  6 040    .      .      .      040   
##  7 .      .      .      .      .     
##  8 .      .      .      .      .     
##  9 .      .      .      .      .     
## 10 040    .      .      .      040   
## # ... with 487,927 more rows
```
…
```{r, eval = FALSE}
read_excel("datasets.xlsx", range = "mtcars!A1:C150") 
```
```{r, echo = FALSE}
read_excel("Dados/datasets.xlsx", range = "mtcars!A1:C150") 
```


Apesar de sua flexibilidade, o argumento `range` pressupõe que você conheça exatamente as células que compõe os limites de sua tabela, ou então, que você pelo menos tenha uma boa compreensão de onde eles se encontram. Por isso, você também possui na função `read_excel()` os argumentos `skip` e `n_max`, que funcionam exatamente da mesma forma empregada pelas funções do pacote `readr`. Logo, esses argumentos representam uma alternativa menos flexível, mas, talvez sejam mais ideais para as suas necessidades, especialmente se você deseja apenas pular algumas linhas de metadados que se encontram no início de sua planilha.

```{r, eval = FALSE}
read_excel("datasets.xlsx", sheet = 2, n_max = 50, skip = 10, col_names = FALSE) 
```
```
## # A tibble: 23 x 11
##     ...1  ...2  ...3  ...4  ...5  ...6  ...7  ...8  ...9 ...10 ...11
##    <dbl> <dbl> <dbl> <dbl> <dbl> <dbl> <dbl> <dbl> <dbl> <dbl> <dbl>
##  1  19.2     6 168.    123  3.92  3.44  18.3     1     0     4     4
##  2  17.8     6 168.    123  3.92  3.44  18.9     1     0     4     4
##  3  16.4     8 276.    180  3.07  4.07  17.4     0     0     3     3
##  4  17.3     8 276.    180  3.07  3.73  17.6     0     0     3     3
##  5  15.2     8 276.    180  3.07  3.78  18       0     0     3     3
##  6  10.4     8 472     205  2.93  5.25  18.0     0     0     3     4
##  7  10.4     8 460     215  3     5.42  17.8     0     0     3     4
##  8  14.7     8 440     230  3.23  5.34  17.4     0     0     3     4
##  9  32.4     4  78.7    66  4.08  2.2   19.5     1     1     4     1
## 10  30.4     4  75.7    52  4.93  1.62  18.5     1     1     4     2
## # ... with 13 more rows
```
…
