…
  return(vendas_produto)
}

produtos_vendas(savassi) %>% print(n = 10)
```

```
## # A tibble: 20 x 4
##      dia produtoid receita n_vendas
##    <int> <chr>       <dbl>    <int>
##  1     1 10014        339.       43
##  2     1 10115        680.       44
##  3     1 23010        152.       37
##  4     1 53200        338.       30
##  5     2 10014        284.       36
##  6     2 10115        865.       56
##  7     2 23010        160.       39
##  8     2 53200        405        36
##  9     3 10014        252.       32
## 10     3 10115        525.       34
## # ... with 10 more rows
```
…
