…
## `Região metropolitana` = col_character(),
## `População residente` = col_double(),
## `População em área urbana` = col_double(),
## `População em área não urbanizada` = col_double(),
## `População em área isolada` = col_double(),
## `Área rural` = col_double(),
## `Aglomerado urbano` = col_double(),
## Povoado = col_double(),
## Núcleo = col_double(),
## `Outros aglomerados` = col_double(),
## `Código unidade` = col_double()
## )
### Definindo os tipos de dados em cada coluna
### Compreendendo o argumento `locale` {#sec:readr_locale}
## # A tibble: 853 x 7
##  IBGE2   IBGE `Munic\xedpio`        `Popula\xe7\xe3o`   Ano PIB
##  <dbl>  <dbl> <chr>                             <dbl> <dbl> <chr>
## 1   10 310010 "Abadia dos Dourados"              6972  2017 33.389.769,00
## 2   20 310020 "Abaet\xe9"                       23223  2017 96.201.158,00
## 3   30 310030 "Abre Campo"                      13465  2017 29.149.429,00
## 4   40 310040 "Acaiaca"                          3994  2017 2.521.892,00
## 5   50 310050 "A\xe7ucena"                       9575  2017 15.250.077,00
## 6   60 310060 "\xc1gua Boa"                     13600  2017 29.988.906,00
## 7   70 310070 "\xc1gua Comprida"                 2005  2017 74.771.408,00
## 8   80 310080 "Aguanil"                          4448  2017 15.444.038,00
## 9   90 310090 "\xc1guas Formosas"               19166  2017 11.236.696,00
## 10 100 310100 "\xc1guas Vermelhas"              13477  2017 48.088.397,00
## # ... with 843 more rows, and 1 more variable: PIB per capita <chr>
## # A tibble: 853 x 7
##  IBGE2   IBGE `Munic\xedpio`        `Popula\xe7\xe3o`   Ano      PIB
##  <dbl>  <dbl> <chr>                             <dbl> <dbl>    <dbl>
## 1   10 310010 "Abadia dos Dourados"              6972  2017 33389769
## 2   20 310020 "Abaet\xe9"                       23223  2017 96201158
## 3   30 310030 "Abre Campo"                      13465  2017 29149429
## 4   40 310040 "Acaiaca"                          3994  2017  2521892
## 5   50 310050 "A\xe7ucena"                       9575  2017 15250077
## 6   60 310060 "\xc1gua Boa"                     13600  2017 29988906
## 7   70 310070 "\xc1gua Comprida"                 2005  2017 74771408
## 8   80 310080 "Aguanil"                          4448  2017 15444038
## 9   90 310090 "\xc1guas Formosas"               19166  2017 11236696
## 10 100 310100 "\xc1guas Vermelhas"              13477  2017 48088397
## # ... with 843 more rows, and 1 more variable: PIB per capita <dbl>
…
##   `202011111  11000001611100110107511000098.75663631000139.734222300005349~
##   <chr>                                              
## 1 202011111  11000001611100110107511000098.75663631000139.7342223000053491~
## 2 202011111  11000001611100110107511000098.75663631000139.7342223000053491~
## 3 202011111  11000001611100110107511000098.75663631000139.7342223000053491~
## 4 202011111  11000001611100110307511000098.75663631000139.7342223000053491~
## 5 202011111  11000001611100110307511000098.75663631000139.7342223000053491~
### Extraindo especificações de um *script* SAS
## -- Column specification --------------------------------
## cols(
##   variavel = col_character(),
##   width = col_double(),
##   char = col_logical()
## )
## # A tibble: 217 x 3
##    variavel  width char 
##    <chr>     <dbl> <lgl>
##  1 Ano           4 TRUE 
##  2 Trimestre     1 TRUE 
##  3 UF            2 TRUE 
##  4 Capital       2 TRUE 
##  5 RM_RIDE       2 TRUE 
##  6 UPA           9 TRUE 
##  7 Estrato       7 TRUE 
##  8 V1008         2 TRUE 
##  9 V1014         2 TRUE 
## 10 V1016         1 TRUE 
## # ... with 207 more rows
…
## 2194 V405812 1/0/T/F/TRUE/FALSE 00001200 'C:/Users/Pedro/Downloads/PNADC~'
## 2194 V405912 1/0/T/F/TRUE/FALSE 00000000 'C:/Users/Pedro/Downloads/PNADC~'
## .... ....... .................. ........ .........................
## See problems(...) for more details.
## Warning: 2032039 parsing failures.
## row    col expected actual                                              file
##   1 VD4032 a double      . 'C:/Users/Pedro/Downloads/PNADC_012020/PNADC_01~'
##   1 VD4033 a double      . 'C:/Users/Pedro/Downloads/PNADC_012020/PNADC_01~'
##   1 VD4034 a double      . 'C:/Users/Pedro/Downloads/PNADC_012020/PNADC_01~'
##   2 VD4031 a double      . 'C:/Users/Pedro/Downloads/PNADC_012020/PNADC_01~'
##   2 VD4032 a double      . 'C:/Users/Pedro/Downloads/PNADC_012020/PNADC_01~'
## ... ...... ........ ...... ................................................
## See problems(...) for more details.
### Analisando erros de importação
## # A tibble: 2,032,039 x 5
##      row col    expected   actual file
##    <int> <chr>  <chr>      <chr>  <chr>        
##  1     1 VD4032 a double   .      'C:/Users/Pedro/Downloads/PNADC_012020/PNAD~
##  2     1 VD4033 a double   .      'C:/Users/Pedro/Downloads/PNADC_012020/PNAD~
##  3     1 VD4034 a double   .      'C:/Users/Pedro/Downloads/PNADC_012020/PNAD~
##  4     2 VD4031 a double   .      'C:/Users/Pedro/Downloads/PNADC_012020/PNAD~
##  5     2 VD4032 a double   .      'C:/Users/Pedro/Downloads/PNADC_012020/PNAD~
##  6     2 VD4033 a double   .      'C:/Users/Pedro/Downloads/PNADC_012020/PNAD~
##  7     2 VD4034 a double   .      'C:/Users/Pedro/Downloads/PNADC_012020/PNAD~
##  8     2 VD4035 a double   .      'C:/Users/Pedro/Downloads/PNADC_012020/PNAD~
##  9     3 VD4031 a double   .      'C:/Users/Pedro/Downloads/PNADC_012020/PNAD~
## 10     3 VD4032 a double   .      'C:/Users/Pedro/Downloads/PNADC_012020/PNAD~
## # ... with 2,032,029 more rows
## [1] "."
## [1] "VD4032" "VD4033" "VD4034" "VD4031" "VD4035"
## -- Column specification ------------------------------------
## cols(
##   VD4031 = col_character(),
##   VD4032 = col_character(),
##   VD4033 = col_character(),
##   VD4034 = col_character(),
##   VD4035 = col_character()
## )
## # A tibble: 487,937 x 5
##    VD4031 VD4032 VD4033 VD4034 VD4035
##    <chr>  <chr>  <chr>  <chr>  <chr> 
##  1 040    .      .      .      040   
##  2 .      .      .      .      .     
##  3 .      .      .      .      .     
##  4 .      .      .      .      .     
##  5 .      .      .      .      .     
##  6 040    .      .      .      040   
##  7 .      .      .      .      .     
##  8 .      .      .      .      .     
##  9 .      .      .      .      .     
## 10 040    .      .      .      040   
## # ... with 487,927 more rows
## [1] "."
## [1] "."
## [1] "."
## Exportando os seus dados com o pacote `readr`
## Importando planilhas do Excel com `readxl` {#sec:read_excel}
### Delimitando a parte de seu arquivo `.xlsx`
## # A tibble: 23 x 11
##     ...1  ...2  ...3  ...4  ...5  ...6  ...7  ...8  ...9 ...10 ...11
##    <dbl> <dbl> <dbl> <dbl> <dbl> <dbl> <dbl> <dbl> <dbl> <dbl> <dbl>
##  1  19.2     6 168.    123  3.92  3.44  18.3     1     0     4     4
##  2  17.8     6 168.    123  3.92  3.44  18.9     1     0     4     4
##  3  16.4     8 276.    180  3.07  4.07  17.4     0     0     3     3
##  4  17.3     8 276.    180  3.07  3.73  17.6     0     0     3     3
##  5  15.2     8 276.    180  3.07  3.78  18       0     0     3     3
##  6  10.4     8 472     205  2.93  5.25  18.0     0     0     3     4
##  7  10.4     8 460     215  3     5.42  17.8     0     0     3     4
##  8  14.7     8 440     230  3.23  5.34  17.4     0     0     3     4
##  9  32.4     4  78.7    66  4.08  2.2   19.5     1     1     4     1
## 10  30.4     4  75.7    52  4.93  1.62  18.5     1     1     4     2
## # ... with 13 more rows
…
