Capítulo 6 Introdução a base de dados relacionais no R | Introdução à Linguagem R: seus fundamentos e sua prática
…
Nessa tabela, as colunas dia, mes, ano, valor, unidades e descricao, sozinhas, são insuficientes para identificarmos cada carga registrada na tabela. Mesmo que, atualmente, cada valor presente na coluna descricao seja único, essa característica provavelmente não vai resistir por muito tempo. Pois o supermercado pode muito bem receber amanhã, por exemplo, uma outra carga de refrigerantes de 2 litros da Mate Couro.

Por outro lado, a combinação dos valores presentes nas colunas dia, mes, ano, valor, unidades e descricao, pode ser o suficiente para criarmos um código de identificação único para cada carga. Por exemplo, ao voltarmos à tabela registro, podemos encontrar duas cargas que chegaram no mesmo dia 18, no mesmo mês 2, no mesmo ano de 2020, e trazendo as mesmas 325 unidades. Todavia, essas duas cargas, possuem descrições diferentes: uma delas incluía garrafas preenchidas com Coca Cola, enquanto a outra, continha Mate Couro. Concluindo, ao aliarmos as informações referentes a data de entrada (18/02/2020), as quantidades inclusas nas cargas (325 unidades), e as suas descrições (Coca Cola 2L e Mate Couro 2L), podemos enfim diferenciar essas duas cargas:

Uma carga que entrou no dia 18/02/2020, incluía 325 unidades de 2 litros de Coca Cola.

Uma carga que entrou no dia 18/02/2020, incluía 325 unidades de 2 litros de Mate Couro.

Como um outro exemplo, podemos utilizar as bases flights e weather, provenientes do pacote nycflights13. Perceba abaixo, que a base flights já possui um número grande colunas. Essa tabela apresenta dados diários, referentes a diversos voôs que partiram da cidade de Nova York (EUA) durante o ano de 2013. Já a tabela weather, contém dados meteorológicos em uma dada hora, e em diversas datas do mesmo ano, e que foram especificamente coletados nos aeroportos da mesma cidade de Nova York.

library(nycflights13)

flights

## # A tibble: 336,776 x 19
##     year month   day dep_time sched_dep_time dep_delay arr_time
##    <int> <int> <int>    <dbl>          <dbl>     <dbl>    <dbl>
##  1  2013     1     1      517            515         2      830
##  2  2013     1     1      533            529         4      850
##  3  2013     1     1      542            540         2      923
##  4  2013     1     1      544            545        -1     1004
##  5  2013     1     1      554            600        -6      812
##  6  2013     1     1      554            558        -4      740
##  7  2013     1     1      555            600        -5      913
##  8  2013     1     1      557            600        -3      709
##  9  2013     1     1      557            600        -3      838
## 10  2013     1     1      558            600        -2      753
## # ... with 336,766 more rows, and 12 more variables: sched_arr_time <dbl>,
## #   arr_delay <dbl>, carrier <chr>, flight <dbl>, tailnum <chr>,
## #   origin <chr>, dest <chr>, air_time <dbl>, distance <dbl>, hour <dbl>,
## #   minute <dbl>, time_hour <dttm>

weather

## # A tibble: 26,115 x 15
##    origin  year month   day  hour  temp  dewp humid wind_dir wind_speed
##    <chr>  <int> <int> <int> <int> <dbl> <dbl> <dbl>    <dbl>      <dbl>
##  1 EWR     2013     1     1     1  39.0  26.1  59.4      270      10.4 
##  2 EWR     2013     1     1     2  39.0  27.0  61.6      250       8.06
##  3 EWR     2013     1     1     3  39.0  28.0  64.4      240      11.5 
##  4 EWR     2013     1     1     4  39.9  28.0  62.2      250      12.7 
##  5 EWR     2013     1     1     5  39.0  28.0  64.4      260      12.7 
##  6 EWR     2013     1     1     6  37.9  28.0  67.2      240      11.5 
##  7 EWR     2013     1     1     7  39.0  28.0  64.4      240      15.0 
##  8 EWR     2013     1     1     8  39.9  28.0  62.2      250      10.4 
##  9 EWR     2013     1     1     9  39.9  28.0  62.2      260      15.0 
## 10 EWR     2013     1     1    10  41    28.0  59.6      260      13.8 
## # ... with 26,105 more rows, and 5 more variables: wind_gust <dbl>,
## #   precip <dbl>, pressure <dbl>, visib <dbl>, time_hour <dttm>

Ao aplicarmos um join entre essas tabelas, poderíamos analisar as características meterológicas que um determinado avião enfrentou ao levantar voô. Entretanto, necessitaríamos empregar ao menos cinco colunas diferentes para formarmos uma key adequada entre essas tabelas. Pois cada situação meterológica descrita na tabela weather, ocorre em um uma dada localidade, e em um horário específico de um determinado dia. Com isso, teríamos de utilizar as colunas: year, month e day para identificarmos a data correspondente a cada situação; mais a coluna hour para determinarmos o momento do dia em que essa situação ocorreu; além da coluna origin, que marca o aeroporto de onde cada voô partiu e, portanto, nos fornece uma localização no espaço geográfico para cada situação meteorológica.

Portanto, em todos os momentos em que você precisar utilizar um conjunto de colunas para formar uma key, como o caso das tabelas weather e flights acima, você deve fornecer um vetor contendo o nome dessas colunas para o argumento by da função de join que está utilizando, assim como no exemplo abaixo.

inner_join(
  flights,
  weather,
  by = c("year", "month", "day", "hour", "origin")
)

## # A tibble: 335,220 x 29
##     year month   day dep_time sched_dep_time dep_delay arr_time
##    <int> <int> <int>    <dbl>          <dbl>     <dbl>    <dbl>
##  1  2013     1     1      517            515         2      830
##  2  2013     1     1      533            529         4      850
##  3  2013     1     1      542            540         2      923
##  4  2013     1     1      544            545        -1     1004
##  5  2013     1     1      554            600        -6      812
##  6  2013     1     1      554            558        -4      740
##  7  2013     1     1      555            600        -5      913
##  8  2013     1     1      557            600        -3      709
##  9  2013     1     1      557            600        -3      838
## 10  2013     1     1      558            600        -2      753
## # ... with 335,210 more rows, and 22 more variables: sched_arr_time <dbl>,
## #   arr_delay <dbl>, carrier <chr>, flight <dbl>, tailnum <chr>,
## #   origin <chr>, dest <chr>, air_time <dbl>, distance <dbl>, hour <dbl>,
## #   minute <dbl>, time_hour.x <dttm>, temp <dbl>, dewp <dbl>, humid <dbl>,
## #   wind_dir <dbl>, wind_speed <dbl>, wind_gust <dbl>, precip <dbl>,
## #   pressure <dbl>, visib <dbl>, time_hour.y <dttm>
…
cols_desejadas <- c("dep_time", "dep_delay")

cols_c <- c(cols_para_key, cols_desejadas)

inner_join(
  flights %>% select(all_of(cols_c)),
  weather,
  by = cols_para_key
)

## # A tibble: 335,220 x 17
##     year month   day  hour origin dep_time dep_delay  temp  dewp humid
##    <int> <int> <int> <dbl> <chr>     <dbl>     <dbl> <dbl> <dbl> <dbl>
##  1  2013     1     1     5 EWR         517         2  39.0  28.0  64.4
##  2  2013     1     1     5 LGA         533         4  39.9  25.0  54.8
##  3  2013     1     1     5 JFK         542         2  39.0  27.0  61.6
##  4  2013     1     1     5 JFK         544        -1  39.0  27.0  61.6
##  5  2013     1     1     6 LGA         554        -6  39.9  25.0  54.8
##  6  2013     1     1     5 EWR         554        -4  39.0  28.0  64.4
##  7  2013     1     1     6 EWR         555        -5  37.9  28.0  67.2
##  8  2013     1     1     6 LGA         557        -3  39.9  25.0  54.8
##  9  2013     1     1     6 JFK         557        -3  37.9  27.0  64.3
## 10  2013     1     1     6 LGA         558        -2  39.9  25.0  54.8
## # ... with 335,210 more rows, and 7 more variables: wind_dir <dbl>,
## #   wind_speed <dbl>, wind_gust <dbl>, precip <dbl>, pressure <dbl>,
## #   visib <dbl>, time_hour <dttm>
…
Como o primeiro data.frame fornecido à função *_join(), será na maioria das situações, a sua principal tabela de trabalho, o ideal é que você adote o left_join() como o seu padrão de join (Wickham and Grolemund 2017). Pois dessa maneira, você evita uma possível perda de observações em sua tabela mais importante.

6.6 Relações entre keys: primary keys são menos comuns do que você pensa

Na seção Dados relacionais e o conceito de key, nós estabelecemos que variáveis com a capacidade de identificar unicamente cada observação de sua base, podem ser caracterizadas como primary keys. Mas para que essa característica seja verdadeira para uma dada variável, os seus valores não podem se repetir ao longo da base, e isso não acontece com tanta frequência na realidade.

Como exemplo, podemos voltar ao join entre as tabelas flights e weather que mostramos na seção Configurações sobre as colunas e keys utilizadas no join. Para realizarmos o join entre essas tabelas, nós utilizamos as colunas year, month, day, hour e origin como key. Porém, a forma como descrevemos essas colunas na seção passada, ficou subentendido que a combinação entre elas foi capaz de formar uma primary key. Bem, porque não conferimos se essas colunas assumem de fato esse atributo:

flights %>% 
  count(year, month, day, hour, origin) %>% 
  filter(n > 1)

## # A tibble: 18,906 x 6
##     year month   day  hour origin     n
##    <int> <int> <int> <dbl> <chr>  <int>
##  1  2013     1     1     5 EWR        2
##  2  2013     1     1     5 JFK        3
##  3  2013     1     1     6 EWR       18
##  4  2013     1     1     6 JFK       17
##  5  2013     1     1     6 LGA       17
##  6  2013     1     1     7 EWR       12
##  7  2013     1     1     7 JFK       16
##  8  2013     1     1     7 LGA       21
##  9  2013     1     1     8 EWR       20
## 10  2013     1     1     8 JFK       23
## # ... with 18,896 more rows
…
