…
**2.4.A)** Perceba que as duas condições descritas no enunciado são dependentes, logo, elas precisam ser atendidas ao mesmo tempo. Por isso, os dois componentes do teste lógico são conectados pelo operador `&`.

```{r, eval = FALSE}
library(nycflights13)

teste <- flights$month == 5 & flights$carrier == "B6"

flights[teste, ]
```

\begin{Verbatim}[fontsize = \small]
## # A tibble: 4,576 x 19
##     year month   day dep_time sched_dep_time dep_delay arr_time sched_arr_time
##    <int> <int> <int>    <dbl>          <dbl>     <dbl>    <dbl>          <dbl>
##  1  2013     5     1      548            600       -12      831            854
##  2  2013     5     1      556            600        -4      818            835
##  3  2013     5     1      557            600        -3      934            942
##  4  2013     5     1      602            602         0      657            710
##  5  2013     5     1      603            610        -7      844            906
##  6  2013     5     1      621            627        -6      834            900
##  7  2013     5     1      624            630        -6      736            747
##  8  2013     5     1      624            630        -6      854            906
##  9  2013     5     1      627            630        -3      900            916
## 10  2013     5     1      639            645        -6      838            853
## # ... with 4,566 more rows, and 11 more variables: arr_delay <dbl>,
## #   carrier <chr>, flight <dbl>, tailnum <chr>, origin <chr>, dest <chr>,
## #   air_time <dbl>, distance <dbl>, hour <dbl>, minute <dbl>, time_hour <dttm>
…
**2.4.B)** Primeiro, temos que calcular o tempo de atraso total de cada voô, ao somar os tempos de atraso no momento de partida (`dep_delay`) e no momento de chegada (`arr_delay`). Com isso, podemos apenas utilizar o operador `>` ("maior que") para comparar o tempo de atraso total de cada voô com o resultado da função `mean()`. Como podemos ver abaixo, 95.685 voôs obtiveram um atraso acima da média.

```{r, eval = FALSE}
library(nycflights13)
### Primeiro, vamos calcular o atraso total
### de cada voô
atraso_total <- flights$dep_delay + flights$arr_delay

teste <- atraso_total > mean(atraso_total, na.rm = TRUE)

flights[teste, ]
```

\begin{Verbatim}[fontsize = \small]
## # A tibble: 95,685 x 19
##     year month   day dep_time sched_dep_time dep_delay arr_time sched_arr_time
##    <int> <int> <int>    <dbl>          <dbl>     <dbl>    <dbl>          <dbl>
##  1  2013     1     1      533            529         4      850            830
##  2  2013     1     1      542            540         2      923            850
##  3  2013     1     1      559            600        -1      941            910
##  4  2013     1     1      608            600         8      807            735
##  5  2013     1     1      611            600        11      945            931
##  6  2013     1     1      624            630        -6      909            840
##  7  2013     1     1      628            630        -2     1016            947
##  8  2013     1     1      632            608        24      740            728
##  9  2013     1     1      635            635         0     1028            940
## 10  2013     1     1      702            700         2     1058           1014
## # ... with 95,675 more rows, and 11 more variables: arr_delay <dbl>,
## #   carrier <chr>, flight <dbl>, tailnum <chr>, origin <chr>, dest <chr>,
## #   air_time <dbl>, distance <dbl>, hour <dbl>, minute <dbl>, time_hour <dttm>
…
**2.4.C)** Perceba que ao todo, foram descritas 4 condições no enunciado da questão. 1) `arr_delay` menor que 2; 2) `dest` igual a `"BOS"`; 3) `month` igual a 1; 4) `sched_dep_time` igual a 600.

```{r, eval = FALSE}
library(nycflights13)

teste <- (flights$arr_delay < 2 & flights$dest == "BOS") |
  (flights$month == 1 & flights$sched_dep_time == 600)

flights[teste, ]
```

\begin{Verbatim}[fontsize = \small]
## # A tibble: 11,500 x 19
##     year month   day dep_time sched_dep_time dep_delay arr_time sched_arr_time
##    <int> <int> <int>    <dbl>          <dbl>     <dbl>    <dbl>          <dbl>
##  1  2013     1     1      554            600        -6      812            837
##  2  2013     1     1      555            600        -5      913            854
##  3  2013     1     1      557            600        -3      709            723
##  4  2013     1     1      557            600        -3      838            846
##  5  2013     1     1      558            600        -2      753            745
##  6  2013     1     1      558            600        -2      849            851
##  7  2013     1     1      558            600        -2      853            856
##  8  2013     1     1      558            600        -2      924            917
##  9  2013     1     1      558            600        -2      923            937
## 10  2013     1     1      559            600        -1      941            910
## # ... with 11,490 more rows, and 11 more variables: arr_delay <dbl>,
## #   carrier <chr>, flight <dbl>, tailnum <chr>, origin <chr>, dest <chr>,
## #   air_time <dbl>, distance <dbl>, hour <dbl>, minute <dbl>,
## #   time_hour <dttm>
…
### Lembre-se que o caminho até o arquivo
### será diferente em sua máquina.
### Pois muito provavelmente você não possui um
### um usuário chamado Pedro.
readxl::read_excel(
  "C:/Users/Pedro/Downloads/emater_icms_solidario.xlsx",
  range = "A6:P858", 
  col_names = nomes
)
```


\begin{Verbatim}[fontsize = \small]
## # A tibble: 853 x 16
##    Semestre      Ano Municipio         Cod_IBGE Area_2017 Area_2018 Area_Media
##    <chr>       <dbl> <chr>             <chr>        <dbl>     <dbl>      <dbl>
##  1 1° semestre  2020 Abadia dos Doura~ 3100104      5192.     3612.      4402.
##  2 1° semestre  2020 Abaeté            3100203      4800      2042       3421 
##  3 1° semestre  2020 Abre Campo        3100302      7116      4744       5930
##  4 1° semestre  2020 Acaiaca           3100401       104.      109.       107.
##  5 1° semestre  2020 Açucena           3100500     12525     12028.     12277.
##  6 1° semestre  2020 Água Boa          3100609      5185      4860.      5022.
##  7 1° semestre  2020 Água Comprida     3100708     36750     47020      41885 
##  8 1° semestre  2020 Aguanil           3100807      4492.     4728.      4610.
##  9 1° semestre  2020 Águas Formosas    3100906       893       904        898.
## 10 1° semestre  2020 Águas Vermelhas   3101003      3242      3487       3364.
## # ... with 843 more rows, and 8 more variables: Pastagens_2006 <dbl>, 
## #   Area_Total <dbl>, N_pequeno_prod <dbl>, Extensao_Rural <dbl>, 
## #   PM_Fundo_Rotativo <dbl>, PM_Mecanizacao_Agr <dbl>, PM_Sementes_Mudas <dbl>, 
## #   PM_Calcario_Fertilizante <dbl>, PM_Apoio_Comercializacao <dbl>
…
