…
**2.4.A)** Perceba que as duas condições descritas no enunciado são dependentes, logo, elas precisam ser atendidas ao mesmo tempo. Por isso, os dois componentes do teste lógico são conectados pelo operador `&`.


```r
library(nycflights13)

teste <- flights$month == 5 & flights$carrier == "B6"

flights[teste, ]
```

```
## # A tibble: 4,576 x 19
##     year month   day dep_time sched_dep_time dep_delay arr_time sched_arr_time
##    <int> <int> <int>    <dbl>          <dbl>     <dbl>    <dbl>          <dbl>
##  1  2013     5     1      548            600       -12      831            854
##  2  2013     5     1      556            600        -4      818            835
##  3  2013     5     1      557            600        -3      934            942
##  4  2013     5     1      602            602         0      657            710
##  5  2013     5     1      603            610        -7      844            906
##  6  2013     5     1      621            627        -6      834            900
##  7  2013     5     1      624            630        -6      736            747
##  8  2013     5     1      624            630        -6      854            906
##  9  2013     5     1      627            630        -3      900            916
## 10  2013     5     1      639            645        -6      838            853
## # ... with 4,566 more rows, and 11 more variables: arr_delay <dbl>,
## #   carrier <chr>, flight <dbl>, tailnum <chr>, origin <chr>, dest <chr>,
## #   air_time <dbl>, distance <dbl>, hour <dbl>, minute <dbl>, time_hour <dttm>
```
…
```r
library(nycflights13)
### Primeiro, vamos calcular o atraso total
### de cada voô
atraso_total <- flights$dep_delay + flights$arr_delay

teste <- atraso_total > mean(atraso_total, na.rm = TRUE)

flights[teste, ]
```

```
## # A tibble: 95,685 x 19
##     year month   day dep_time sched_dep_time dep_delay arr_time sched_arr_time
##    <int> <int> <int>    <dbl>          <dbl>     <dbl>    <dbl>          <dbl>
##  1  2013     1     1      533            529         4      850            830
##  2  2013     1     1      542            540         2      923            850
##  3  2013     1     1      559            600        -1      941            910
##  4  2013     1     1      608            600         8      807            735
##  5  2013     1     1      611            600        11      945            931
##  6  2013     1     1      624            630        -6      909            840
##  7  2013     1     1      628            630        -2     1016            947
##  8  2013     1     1      632            608        24      740            728
##  9  2013     1     1      635            635         0     1028            940
## 10  2013     1     1      702            700         2     1058           1014
## # ... with 95,675 more rows, and 11 more variables: arr_delay <dbl>,
## #   carrier <chr>, flight <dbl>, tailnum <chr>, origin <chr>, dest <chr>,
## #   air_time <dbl>, distance <dbl>, hour <dbl>, minute <dbl>, time_hour <dttm>
```

**2.4.C)** Perceba que ao todo, foram descritas 4 condições no enunciado da questão. 1) `arr_delay` menor que 2; 2) `dest` igual a `"BOS"`; 3) `month` igual a 1; 4) `sched_dep_time` igual a 600.


```r
library(nycflights13)

teste <- (flights$arr_delay < 2 & flights$dest == "BOS") |
  (flights$month == 1 & flights$sched_dep_time == 600)

flights[teste, ]
```

```
## # A tibble: 11,500 x 19
##     year month   day dep_time sched_dep_time dep_delay arr_time sched_arr_time
##    <int> <int> <int>    <dbl>          <dbl>     <dbl>    <dbl>          <dbl>
##  1  2013     1     1      554            600        -6      812            837
##  2  2013     1     1      555            600        -5      913            854
##  3  2013     1     1      557            600        -3      709            723
##  4  2013     1     1      557            600        -3      838            846
##  5  2013     1     1      558            600        -2      753            745
##  6  2013     1     1      558            600        -2      849            851
##  7  2013     1     1      558            600        -2      853            856
##  8  2013     1     1      558            600        -2      924            917
##  9  2013     1     1      558            600        -2      923            937
## 10  2013     1     1      559            600        -1      941            910
## # ... with 11,490 more rows, and 11 more variables: arr_delay <dbl>,
## #   carrier <chr>, flight <dbl>, tailnum <chr>, origin <chr>, dest <chr>,
## #   air_time <dbl>, distance <dbl>, hour <dbl>, minute <dbl>,
## #   time_hour <dttm>
```
…
Lembre-se que, as funções do pacote `readr` vão, por definição, utilizar as 1000 primeiras linhas do arquivo para advinhar o tipo de dado contido em cada coluna do arquivo. Devido ao fato de que a mudança drástica nos dados armazenados em `challenge.csv`, ocorre após essas 1000 primeiras linhas, a função `read_csv()` acaba não percebendo o seu erro. Por esses motivos, precisamos sobrepor essa decisão, ao definirmos explicitamente os tipos desejados para cada coluna no argumento `col_types`.


```r
read_csv(
  readr_example("challenge.csv"),
  col_types = cols(
    x = col_double(),
    y = col_date()
  )
)
```

```
## # A tibble: 2,000 x 2
##        x y     
##    <dbl> <date>
##  1   404 NA    
##  2  4172 NA    
##  3  3004 NA    
##  4   787 NA    
##  5    37 NA    
##  6  2332 NA    
##  7  2489 NA    
##  8  1449 NA    
##  9  3665 NA    
## 10  3863 NA    
## # ... with 1,990 more rows
```
…
### Lembre-se que o caminho até o arquivo
### será diferente em sua máquina.
### Pois muito provavelmente você não possui um
### um usuário chamado Pedro.
readxl::read_excel(
  "C:/Users/Pedro/Downloads/emater_icms_solidario.xlsx",
  range = "A6:P858", 
  col_names = nomes
)
```


```
## # A tibble: 853 x 16
##    Semestre      Ano Municipio         Cod_IBGE Area_2017 Area_2018 Area_Media
##    <chr>       <dbl> <chr>             <chr>        <dbl>     <dbl>      <dbl>
##  1 1° semestre  2020 Abadia dos Doura~ 3100104      5192.     3612.      4402.
##  2 1° semestre  2020 Abaeté            3100203      4800      2042       3421 
##  3 1° semestre  2020 Abre Campo        3100302      7116      4744       5930
##  4 1° semestre  2020 Acaiaca           3100401       104.      109.       107.
##  5 1° semestre  2020 Açucena           3100500     12525     12028.     12277.
##  6 1° semestre  2020 Água Boa          3100609      5185      4860.      5022.
##  7 1° semestre  2020 Água Comprida     3100708     36750     47020      41885 
##  8 1° semestre  2020 Aguanil           3100807      4492.     4728.      4610.
##  9 1° semestre  2020 Águas Formosas    3100906       893       904        898.
## 10 1° semestre  2020 Águas Vermelhas   3101003      3242      3487       3364.
## # ... with 843 more rows, and 8 more variables: Pastagens_2006 <dbl>, 
## #   Area_Total <dbl>, N_pequeno_prod <dbl>, Extensao_Rural <dbl>, 
## #   PM_Fundo_Rotativo <dbl>, PM_Mecanizacao_Agr <dbl>, PM_Sementes_Mudas <dbl>, 
## #   PM_Calcario_Fertilizante <dbl>, PM_Apoio_Comercializacao <dbl>
```
…
**4.2.A)** Primeiro, identifique as principais colunas que são de seu interesse para responder a pergunta estipulada na questão. Para responder a pergunta, precisamos medir em quanto os preços cobrados por cada universidade aumentou e, para isso, não precisaremos das colunas `net_cost`, `income_lvl` e `campus`. Por isso, podemos rapidamente eliminar essas colunas com um `select()`. 


```r
custos <- dados %>%
  select(-net_cost, -income_lvl, -campus)

custos
```

```
## # A tibble: 209,012 x 4
##    name                              state total_price  year
##    <chr>                             <chr>       <dbl> <dbl>
##  1 Piedmont International University NC          20174  2016
##  2 Piedmont International University NC          20174  2016
##  3 Piedmont International University NC          20174  2016
##  4 Piedmont International University NC          20174  2016
##  5 Piedmont International University NC          20514  2017
##  6 Piedmont International University NC          20514  2017
##  7 Piedmont International University NC          20514  2017
##  8 Piedmont International University NC          20514  2017
##  9 Piedmont International University NC          20514  2017
## 10 Piedmont International University NC          20829  2018
## # ... with 209,002 more rows
```

Agora, temos um problema importante a ser analisado: é possível que haja observações repetidas? Ou, será que há várias linhas descrevendo uma mesma universidade em um mesmo ano? As primeiras linhas da tabela acima já nos mostram que sim, há repetição de observações ao longo da base. Para corrigir essa repetição podemos aplicar a função `distinct()` sobre a base.


```r
custos <- custos %>% 
  distinct()

custos
```

```
## # A tibble: 40,991 x 4
##    name                              state total_price  year
##    <chr>                             <chr>       <dbl> <dbl>
##  1 Piedmont International University NC          20174  2016
##  2 Piedmont International University NC          20514  2017
##  3 Piedmont International University NC          20829  2018
##  4 Piedmont International University NC          23000  2016
##  5 Piedmont International University NC          26430  2017
##  6 Piedmont International University NC          26870  2018
##  7 Kaplan University-Milwaukee       WI          22413  2017
##  8 Kaplan University-Milwaukee       WI          22492  2018
##  9 Kaplan University-Indianapolis    IN          22413  2017
## 10 Kaplan University-Indianapolis    IN          22492  2018
## # ... with 40,981 more rows
```
…
```
## `summarise()` has grouped output by 'name'. You can override using the `.groups` argument.
```

```r
custos
```

```
## # A tibble: 30,066 x 3
## # Groups:   name [3,664]
##    name                          year mean_price
##    <chr>                        <dbl>      <dbl>
##  1 Aaniiih Nakoda College        2010      17030
##  2 Aaniiih Nakoda College        2011      17030
##  3 Aaniiih Nakoda College        2012      17030
##  4 Aaniiih Nakoda College        2013      17030
##  5 Aaniiih Nakoda College        2014      17030
##  6 Aaniiih Nakoda College        2015      17030
##  7 Aaniiih Nakoda College        2016      17030
##  8 Aaniiih Nakoda College        2017      17030
##  9 Aaniiih Nakoda College        2018      17030
## 10 Abilene Christian University  2011      38250
## # ... with 30,056 more rows
```
…
```r
custos <- custos %>% 
  arrange(name, year) %>% 
  mutate(
    var_price = mean_price - lag(mean_price)
  ) %>% 
  ungroup()

custos
```

```
## # A tibble: 30,066 x 4
##    name                          year mean_price var_price
##    <chr>                        <dbl>      <dbl>     <dbl>
##  1 Aaniiih Nakoda College        2010      17030        NA
##  2 Aaniiih Nakoda College        2011      17030         0
##  3 Aaniiih Nakoda College        2012      17030         0
##  4 Aaniiih Nakoda College        2013      17030         0
##  5 Aaniiih Nakoda College        2014      17030         0
##  6 Aaniiih Nakoda College        2015      17030         0
##  7 Aaniiih Nakoda College        2016      17030         0
##  8 Aaniiih Nakoda College        2017      17030         0
##  9 Aaniiih Nakoda College        2018      17030         0
## 10 Abilene Christian University  2011      38250        NA
## # ... with 30,056 more rows
```
…
```r
colnames(custo)[1:2] <- c(
  "nome_universidade", "custo_anual"
)

custo
```

```
## # A tibble: 2,973 x 4
##    nome_universidade                    custo_anual  anos custo_total
##    <chr>                                      <dbl> <dbl>       <dbl>
##  1 Aaniiih Nakoda College                      2380     2        4760
##  2 Abilene Christian University               45200     4      180800
##  3 Abraham Baldwin Agricultural College       21024     2       42048
##  4 Academy College                            17661     2       35322
##  5 Academy of Art University                  44458     4      177832
##  6 Adams State University                     29238     4      116952
##  7 Adelphi University                         54690     4      218760
##  8 Adirondack Community College               21595     2       43190
##  9 Adrian College                             48405     4      193620
## 10 Advanced Technology Institute              13680     2       27360
## # ... with 2,963 more rows
```
…
```r
custo %>% 
  inner_join(
    salario,
    by = "nome_universidade"
  ) %>% 
  mutate(
    anos_necessarios = custo_total / salario_inicio_carreira
  )
```

```
## # A tibble: 728 x 6
##    nome_universidade        custo_anual  anos custo_total salario_inicio_c~
##    <chr>                          <dbl> <dbl>       <dbl>             <dbl>
##  1 Adams State University         29238     4      116952             44400
##  2 Adventist University of~       19350     4       77400             51600
##  3 Agnes Scott College            53490     4      213960             46000
##  4 Alabama State University       24818     4       99272             39800
##  5 Alaska Pacific Universi~       28130     4      112520             50300
##  6 Albany College of Pharm~       46025     4      184100             81000
##  7 Albertus Magnus College        45260     4      181040             49700
##  8 Albion College                 58155     4      232620             52100
##  9 Alcorn State University        16752     4       67008             40900
## 10 Allen College                  27252     4      109008             51600
## # ... with 718 more rows, and 1 more variable: anos_necessarios <dbl>
```
…
tab_tidy
```

```
## # A tibble: 4,752 x 6
##    country ano   SP.URB.TOTL SP.URB.GROW SP.POP.TOTL SP.POP.GROW
##    <chr>   <chr>       <dbl>       <dbl>       <dbl>       <dbl>
##  1 ABW     2000        42444      1.18         90853      2.06  
##  2 ABW     2001        43048      1.41         92898      2.23  
##  3 ABW     2002        43670      1.43         94992      2.23  
##  4 ABW     2003        44246      1.31         97017      2.11  
##  5 ABW     2004        44669      0.951        98737      1.76  
##  6 ABW     2005        44889      0.491       100031      1.30  
##  7 ABW     2006        44881     -0.0178      100832      0.798 
##  8 ABW     2007        44686     -0.435       101220      0.384 
##  9 ABW     2008        44375     -0.698       101353      0.131 
## 10 ABW     2009        44052     -0.731       101453      0.0986
## # ... with 4,742 more rows
```
**7.1.C)** Realizar o primeiro passo descrito no enunciado do item é muito simples com a função `filter()`. Porém, ainda assim, o formato no qual a base se encontra, torna o cálculo da variação muito trabalhoso. Porque nós teríamos que calcular a variação entre cada uma das colunas anuais. Como temos 18 anos diferentes em cada série histórica, precisaríamos calcular 17 variações diferentes. Isso significa que teríamos de construir 17 colunas diferentes com `mutate()` para chegarmos a esses números.



```r
pop_total <- world_bank_pop %>% 
  filter(
    indicator == "SP.POP.TOTL"
  )

pop_total
```

```
## # A tibble: 264 x 20
##    country indicator      `2000`  `2001` `2002` `2003` `2004` `2005` `2006`
##    <chr>   <chr>           <dbl>   <dbl>  <dbl>  <dbl>  <dbl>  <dbl>  <dbl>
##  1 ABW     SP.POP.TOTL     90853  9.29e4 9.50e4 9.70e4 9.87e4 1.00e5 1.01e5
##  2 AFG     SP.POP.TOTL  20093756  2.10e7 2.20e7 2.31e7 2.41e7 2.51e7 2.59e7
##  3 AGO     SP.POP.TOTL  16440924  1.70e7 1.76e7 1.82e7 1.89e7 1.96e7 2.03e7
##  4 ALB     SP.POP.TOTL   3089027  3.06e6 3.05e6 3.04e6 3.03e6 3.01e6 2.99e6
##  5 AND     SP.POP.TOTL     65390  6.73e4 7.00e4 7.32e4 7.62e4 7.89e4 8.10e4
##  6 ARB     SP.POP.TOTL 283832016  2.90e8 2.96e8 3.02e8 3.09e8 3.16e8 3.24e8
##  7 ARE     SP.POP.TOTL   3154925  3.33e6 3.51e6 3.74e6 4.09e6 4.58e6 5.24e6
##  8 ARG     SP.POP.TOTL  37057452  3.75e7 3.79e7 3.83e7 3.87e7 3.91e7 3.96e7
##  9 ARM     SP.POP.TOTL   3069588  3.05e6 3.03e6 3.02e6 3.00e6 2.98e6 2.96e6
## 10 ASM     SP.POP.TOTL     57521  5.82e4 5.87e4 5.91e4 5.93e4 5.91e4 5.86e4
## # ... with 254 more rows, and 11 more variables: 2007 <dbl>, 2008 <dbl>,
## #   2009 <dbl>, 2010 <dbl>, 2011 <dbl>, 2012 <dbl>, 2013 <dbl>,
## #   2014 <dbl>, 2015 <dbl>, 2016 <dbl>, 2017 <dbl>
```
…
pop_total
```

```
## # A tibble: 4,752 x 5
## # Groups:   country [264]
##    country indicator   ano    valor variacao
##    <chr>   <chr>       <chr>  <dbl>    <dbl>
##  1 ABW     SP.POP.TOTL 2000   90853       NA
##  2 ABW     SP.POP.TOTL 2001   92898     2045
##  3 ABW     SP.POP.TOTL 2002   94992     2094
##  4 ABW     SP.POP.TOTL 2003   97017     2025
##  5 ABW     SP.POP.TOTL 2004   98737     1720
##  6 ABW     SP.POP.TOTL 2005  100031     1294
##  7 ABW     SP.POP.TOTL 2006  100832      801
##  8 ABW     SP.POP.TOTL 2007  101220      388
##  9 ABW     SP.POP.TOTL 2008  101353      133
## 10 ABW     SP.POP.TOTL 2009  101453      100
## # ... with 4,742 more rows
```
…
*Exercício  1*
</center>


**16.1.A)** Como desejamos calcular a média apenas das colunas númericas da tabela `diamonds`, podemos primeiro selecionar essas colunas específicas, antes de executar a função `map_dbl()`. Para isso, podemos utilizar a função `select()` que introduzimos no capítulo 5. Para selecionarmos todas as colunas numéricas, utilizamos a função `where()` dentro de `select()`, como demonstrado abaixo:


```r
ggplot2::diamonds %>% 
  select(where(is.numeric))
```

```
## # A tibble: 53,940 x 7
##    carat depth table price     x     y     z
##    <dbl> <dbl> <dbl> <int> <dbl> <dbl> <dbl>
##  1  0.23  61.5    55   326  3.95  3.98  2.43
##  2  0.21  59.8    61   326  3.89  3.84  2.31
##  3  0.23  56.9    65   327  4.05  4.07  2.31
##  4  0.29  62.4    58   334  4.2   4.23  2.63
##  5  0.31  63.3    58   335  4.34  4.35  2.75
##  6  0.24  62.8    57   336  3.94  3.96  2.48
##  7  0.24  62.3    57   336  3.95  3.98  2.47
##  8  0.26  61.9    55   337  4.07  4.11  2.53
##  9  0.22  65.1    61   337  3.87  3.78  2.49
## 10  0.23  59.4    61   338  4     4.05  2.39
## # ... with 53,930 more rows
```
…
**16.1.B)** Podemos utilizar basicamente o mesmo processo do item anterior para responder esta questão. Basta selecionarmos todas as colunas não numéricas da tabela `diamonds` e, repassarmos o resultado para uma função `map`. 

Para selecionarmos todas as colunas não numéricas, podemos apenas inverter o teste lógico (com o operador `!`) que utilizamos dentro da função `where()` para descobrirmos todas as colunas não numéricas.


```r
ggplot2::diamonds %>% 
  select(where(~!is.numeric(.)))
```

```
## # A tibble: 53,940 x 3
##    cut       color clarity
##    <ord>     <ord> <ord>  
##  1 Ideal     E     SI2    
##  2 Premium   E     SI1    
##  3 Good      E     VS1    
##  4 Premium   I     VS2    
##  5 Good      J     SI2    
##  6 Very Good J     VVS2   
##  7 Very Good I     VVS1   
##  8 Very Good H     SI1    
##  9 Fair      E     VS2    
## 10 Very Good H     VS1    
## # ... with 53,930 more rows
```
…
