Capítulo 16 Functional programming com purrr | Introdução à Linguagem R: seus fundamentos e sua prática
…
alunos %>% 
  map_dbl("idade")

##     Ana   Bruno  Amanda Eduardo 
##      15      17      21      14

16.3 Um estudo de caso: aplicando um modelo econométrico sobre diferentes países

Nessa seção, vamos reproduzir o famoso exemplo dado por Hadley Wickham em sua palestra “Managing many models with R”. Pois esse exemplo demonstra bem, como as funções map ampliam as nossas capacidades com a linguagem R. Tal exemplo, começa pelo dataset gapminder, disponível através do pacote gapminder. Esse dataset contém dados de expectativa de vida (lifeExp), população (pop) e PIB per capita (gdpPercap) de diversos países do mundo (country), ao longo de vários anos (year).

library(gapminder)

gapminder

## # A tibble: 1,704 × 6
##    country     continent  year lifeExp      pop gdpPercap
##    <fct>       <fct>     <int>   <dbl>    <int>     <dbl>
##  1 Afghanistan Asia       1952    28.8  8425333      779.
##  2 Afghanistan Asia       1957    30.3  9240934      821.
##  3 Afghanistan Asia       1962    32.0 10267083      853.
##  4 Afghanistan Asia       1967    34.0 11537966      836.
##  5 Afghanistan Asia       1972    36.1 13079460      740.
##  6 Afghanistan Asia       1977    38.4 14880372      786.
##  7 Afghanistan Asia       1982    39.9 12881816      978.
##  8 Afghanistan Asia       1987    40.8 13867957      852.
##  9 Afghanistan Asia       1992    41.7 16317921      649.
## 10 Afghanistan Asia       1997    41.8 22227415      635.
## # … with 1,694 more rows
…
Apesar da função split() já nos oferecer uma ótima solução, também podemos muito bem adotar a solução mostrada por Wickham, que utiliza a função nest() para criar um “data.frame de data.frame’s”.

No momento, cada linha da tabela gapminder descreve os dados de um país em um determinado ano. Entretanto, a nossa intenção com essa solução, é transformar a tabela gapminder, de modo que cada linha da tabela contenha todos os dados de um determinado país para todos os anos. Podemos realizar essa transformação, ao agruparmos à tabela pela coluna country (com a função group_by()) e, em seguida, aplicarmos a função nest() do pacote tidyr, como demonstrado abaixo:

library(tidyr)
library(magrittr)
library(dplyr)

dados_por_pais <- gapminder %>%
  group_by(country, continent) %>% 
  nest()

dados_por_pais

## # A tibble: 142 × 3
## # Groups:   country, continent [142]
##    country     continent data             
##    <fct>       <fct>     <list>           
##  1 Afghanistan Asia      <tibble [12 × 4]>
##  2 Albania     Europe    <tibble [12 × 4]>
##  3 Algeria     Africa    <tibble [12 × 4]>
##  4 Angola      Africa    <tibble [12 × 4]>
##  5 Argentina   Americas  <tibble [12 × 4]>
##  6 Australia   Oceania   <tibble [12 × 4]>
##  7 Austria     Europe    <tibble [12 × 4]>
##  8 Bahrain     Asia      <tibble [12 × 4]>
##  9 Bangladesh  Asia      <tibble [12 × 4]>
## 10 Belgium     Europe    <tibble [12 × 4]>
## # … with 132 more rows
…
Agora, precisamos apenas aplicar a função aplicar_modelo() sobre cada elemento da coluna data. Para isso, podemos utilizar novamente a função map(), dessa vez, dentro da função mutate() que introduzimos no capítulo 4. Dessa maneira, map() vai executar a função aplicar_modelo() para cada elemento da coluna data, e retornar uma lista com os resultados, e a função mutate() vai adicionar essa lista como uma nova coluna do data.frame.

modelos <- dados_por_pais %>% 
  mutate(
    resultados = data %>% map(aplicar_modelo)
  )

modelos

## # A tibble: 142 × 4
## # Groups:   country, continent [142]
##    country     continent data              resultados
##    <fct>       <fct>     <list>            <list>    
##  1 Afghanistan Asia      <tibble [12 × 4]> <lm>      
##  2 Albania     Europe    <tibble [12 × 4]> <lm>      
##  3 Algeria     Africa    <tibble [12 × 4]> <lm>      
##  4 Angola      Africa    <tibble [12 × 4]> <lm>      
##  5 Argentina   Americas  <tibble [12 × 4]> <lm>      
##  6 Australia   Oceania   <tibble [12 × 4]> <lm>      
##  7 Austria     Europe    <tibble [12 × 4]> <lm>      
##  8 Bahrain     Asia      <tibble [12 × 4]> <lm>      
##  9 Bangladesh  Asia      <tibble [12 × 4]> <lm>      
## 10 Belgium     Europe    <tibble [12 × 4]> <lm>      
## # … with 132 more rows

Agora, cada elemento da coluna resultados contém todos os resultados do modelo para cada país da tabela gapminder. A partir daqui, podemos utilizar novamente as funções map para extrairmos as informações específicas dos modelos. Por exemplo, podemos extrair o beta estimado (\(\beta_1\)) e o coeficiente de determinação de cada país, e adicioná-los como novas colunas da tabela modelos.

modelos <- modelos %>% 
  mutate(
    glance = resultados %>% map(broom::glance),
    tidy = resultados %>% map(broom::tidy),
    beta_estimado = tidy %>% map_dbl(~.[["estimate"]][2]),
    r2 = glance %>% map_dbl("r.squared")
  ) %>% 
  select(-glance, -tidy)

modelos

## # A tibble: 142 × 6
## # Groups:   country, continent [142]
##    country     continent data              resultados beta_estimado      r2
##    <fct>       <fct>     <list>            <list>             <dbl>   <dbl>
##  1 Afghanistan Asia      <tibble [12 × 4]> <lm>           -0.00224  0.00226
##  2 Albania     Europe    <tibble [12 × 4]> <lm>            0.00444  0.701  
##  3 Algeria     Africa    <tibble [12 × 4]> <lm>            0.00714  0.818  
##  4 Angola      Africa    <tibble [12 × 4]> <lm>           -0.00103  0.0906 
##  5 Argentina   Americas  <tibble [12 × 4]> <lm>            0.00187  0.692  
##  6 Australia   Oceania   <tibble [12 × 4]> <lm>            0.000524 0.973  
##  7 Austria     Europe    <tibble [12 × 4]> <lm>            0.000450 0.986  
##  8 Bahrain     Asia      <tibble [12 × 4]> <lm>            0.00142  0.806  
##  9 Bangladesh  Asia      <tibble [12 × 4]> <lm>            0.0325   0.718  
## 10 Belgium     Europe    <tibble [12 × 4]> <lm>            0.000447 0.986  
## # … with 132 more rows
…
Figura 16.7: Lista de arquivos do Excel

Dando uma olhada mais de perto, cada uma dessas planilhas do Excel, assumem a estrutura abaixo. Onde cada linha da tabela, representa um município do estado de Minas Gerais, e cada coluna (ou pelo menos, grande parte dessas colunas), representa os valores de ICMS transferidos segundo os índices de um critério específico da lei. Ou seja, a coluna Educação, nos apresenta os valores de ICMS transferidos para cada município do estado, considerando-se o índice que cada um desses municípios adquiriram no critério de Educação, e também, considerando-se a parcela que o critério de Educação representa do total de ICMS distribuído.

library(readxl)
Abril_2019 <- read_excel("planilhas/Abril_2019.xlsx")
Abril_2019

## # A tibble: 853 × 27
##     IBGE1 IBGE2   SEF Municípios    Popul…¹ Popul…² Área …³ Educa…⁴ Patri…⁵
##     <dbl> <dbl> <dbl> <chr>           <dbl>   <dbl>   <dbl>   <dbl>   <dbl>
##  1 310010    10     1 ABADIA DOS D…   8847.       0  14884.      0    5309.
##  2 310020    20     2 ABAETÉ         29470.       0  30581.  29902.   7588.
##  3 310030    30     3 ABRE CAMPO     17087.       0   7927.      0   12200.
##  4 310040    40     4 ACAIACA         5068.       0   1724.  26722.  14681.
##  5 310050    50     5 AÇUCENA        12151.       0  13678.  29271.      0 
##  6 310060    60     6 ÁGUA BOA       17258.       0  22285.      0   14225.
##  7 310070    70     7 ÁGUA COMPRIDA   2544.       0   8301.      0    7402.
##  8 310080    80     8 AGUANIL         5644.       0   3920.  27662.      0 
##  9 310090    90     9 ÁGUAS FORMOS…  24321.       0  13784.      0   11780.
## 10 310100   100    10 ÁGUAS VERMEL…  17102.       0  21202.  33664.   5657.
## # … with 843 more rows, 18 more variables: `Receita Própria` <dbl>,
## #   `Cota Mínima` <dbl>, Mineradores <dbl>, `Saúde Per Capita` <dbl>,
## #   VAF <dbl>, Esportes <dbl>, Turismo <dbl>, Penitenciárias <dbl>,
## #   `Recursos Hídricos` <dbl>, `Produção de Alimentos 2º semestre` <dbl>,
## #   `Unidades de Conservação (IC i)` <dbl>, Saneamento <dbl>,
## #   `Mata Seca` <dbl>, `Meio Ambiente` <dbl>, PSF <dbl>,
## #   `ICMS Solidário` <dbl>, `Índice Mínimo per capita` <dbl>, …
…
Agora que temos os caminhos até todas essas planilhas, importá-las para dentro do R se torna algo extremamente simples. Podemos simplesmente utilizar a função map() para aplicar uma função (que seja capaz de ler esses arquivos) sobre cada um desses caminhos. Lembre-se que, podemos importar planilhas do Excel para dentro do R, através da função readxl::read_excel() que introduzimos no capítulo 4.

library(readxl)
library(purrr)

planilhas <- map(caminhos, read_excel)
planilhas[[1]]

## # A tibble: 853 × 27
##     IBGE1 IBGE2   SEF Municípios    Popul…¹ Popul…² Área …³ Educa…⁴ Patri…⁵
##     <dbl> <dbl> <dbl> <chr>           <dbl>   <dbl>   <dbl>   <dbl>   <dbl>
##  1 310010    10     1 ABADIA DOS D…   8847.       0  14884.      0    5309.
##  2 310020    20     2 ABAETÉ         29470.       0  30581.  29902.   7588.
##  3 310030    30     3 ABRE CAMPO     17087.       0   7927.      0   12200.
##  4 310040    40     4 ACAIACA         5068.       0   1724.  26722.  14681.
##  5 310050    50     5 AÇUCENA        12151.       0  13678.  29271.      0 
##  6 310060    60     6 ÁGUA BOA       17258.       0  22285.      0   14225.
##  7 310070    70     7 ÁGUA COMPRIDA   2544.       0   8301.      0    7402.
##  8 310080    80     8 AGUANIL         5644.       0   3920.  27662.      0 
##  9 310090    90     9 ÁGUAS FORMOS…  24321.       0  13784.      0   11780.
## 10 310100   100    10 ÁGUAS VERMEL…  17102.       0  21202.  33664.   5657.
## # … with 843 more rows, 18 more variables: `Receita Própria` <dbl>,
## #   `Cota Mínima` <dbl>, Mineradores <dbl>, `Saúde Per Capita` <dbl>,
## #   VAF <dbl>, Esportes <dbl>, Turismo <dbl>, Penitenciárias <dbl>,
## #   `Recursos Hídricos` <dbl>, `Produção de Alimentos 2º semestre` <dbl>,
## #   `Unidades de Conservação (IC i)` <dbl>, Saneamento <dbl>,
## #   `Mata Seca` <dbl>, `Meio Ambiente` <dbl>, PSF <dbl>,
## #   `ICMS Solidário` <dbl>, `Índice Mínimo per capita` <dbl>, …
…
## [1] "cota minima"

Pelos resultados acima, podemos observar que as duas planilhas possuem uma coluna chamada cota minima, a qual não está presente nas demais planilhas. Essa mesma coluna está nomeada como Cota Mínima, nas demais planilhas. Como resultado, caso você estivesse aplicando um loop sobre cada uma das 12 planilhas, e estivesse procurando por uma coluna chamada Cota Mínima em cada uma delas, o R não seria capaz de encontrar essa coluna nos arquivos Dezembro_2019.xlsx e Novembro_2019.xlsx.

Pelo fato de estarmos preocupados com a coluna de Meio Ambiente, essa diferença se torna um pouco irrelevante para nós. Entretanto, caso estivéssemos trabalhando com essa coluna de Cota Mínima em cada planilha, teríamos um grande problema a ser resolvido.

16.7.5 Adicionando colunas de referência

Apesar de já termos importado todas as 12 planilhas, temos um grande problema a ser solucionado. Os dados de cada planilha não possuem qualquer coluna ou metadado de referência que indique o período ao qual os dados se referem.

Dito de outra forma, ao olharmos para os dados da primeira planilha, podemos ver os valores monetários de cada município para cada critério. Porém, a que mês esses valores monetários se referem? Dezembro? Janeiro? Março? E de que ano? 2019? ou 2020?

planilhas[[1]]

## # A tibble: 853 × 27
##     IBGE1 IBGE2   SEF Municípios    Popul…¹ Popul…² Área …³ Educa…⁴ Patri…⁵
##     <dbl> <dbl> <dbl> <chr>           <dbl>   <dbl>   <dbl>   <dbl>   <dbl>
##  1 310010    10     1 ABADIA DOS D…   8847.       0  14884.      0    5309.
##  2 310020    20     2 ABAETÉ         29470.       0  30581.  29902.   7588.
##  3 310030    30     3 ABRE CAMPO     17087.       0   7927.      0   12200.
##  4 310040    40     4 ACAIACA         5068.       0   1724.  26722.  14681.
##  5 310050    50     5 AÇUCENA        12151.       0  13678.  29271.      0 
##  6 310060    60     6 ÁGUA BOA       17258.       0  22285.      0   14225.
##  7 310070    70     7 ÁGUA COMPRIDA   2544.       0   8301.      0    7402.
##  8 310080    80     8 AGUANIL         5644.       0   3920.  27662.      0 
##  9 310090    90     9 ÁGUAS FORMOS…  24321.       0  13784.      0   11780.
## 10 310100   100    10 ÁGUAS VERMEL…  17102.       0  21202.  33664.   5657.
## # … with 843 more rows, 18 more variables: `Receita Própria` <dbl>,
## #   `Cota Mínima` <dbl>, Mineradores <dbl>, `Saúde Per Capita` <dbl>,
## #   VAF <dbl>, Esportes <dbl>, Turismo <dbl>, Penitenciárias <dbl>,
## #   `Recursos Hídricos` <dbl>, `Produção de Alimentos 2º semestre` <dbl>,
## #   `Unidades de Conservação (IC i)` <dbl>, Saneamento <dbl>,
## #   `Mata Seca` <dbl>, `Meio Ambiente` <dbl>, PSF <dbl>,
## #   `ICMS Solidário` <dbl>, `Índice Mínimo per capita` <dbl>, …
…
### Um for loop para visitar cada uma das
### 12 planilhas e adicionar as colunas Ano e Mes:
for(i in seq_along(planilhas)){
  planilhas[[i]] <- planilhas[[i]] %>% 
    mutate(
      Ano = anos[i],
      Mes = meses[i]
    )
}

### Os dados de Abril de 2019:
planilhas[[1]] %>% select(Ano, Mes)

## # A tibble: 853 × 2
##      Ano Mes  
##    <int> <chr>
##  1  2019 Abril
##  2  2019 Abril
##  3  2019 Abril
##  4  2019 Abril
##  5  2019 Abril
##  6  2019 Abril
##  7  2019 Abril
##  8  2019 Abril
##  9  2019 Abril
## 10  2019 Abril
## # … with 843 more rows

### Os dados de Dezembro de 2019:
planilhas[[3]] %>% select(Ano, Mes)

## # A tibble: 853 × 2
##      Ano Mes     
##    <int> <chr>   
##  1  2019 Dezembro
##  2  2019 Dezembro
##  3  2019 Dezembro
##  4  2019 Dezembro
##  5  2019 Dezembro
##  6  2019 Dezembro
##  7  2019 Dezembro
##  8  2019 Dezembro
##  9  2019 Dezembro
## 10  2019 Dezembro
## # … with 843 more rows
…
Figura 16.8: Relembrando os argumentos de map()

Lembre-se também, que os argumentos repassados serão constantes ao longo de todo o loop. Em outras palavras, esses argumentos serão sempre os mesmos em cada chamada da função .f. Logo, quando você digita um comando como map(x, mean, na.rm = TRUE), a função map() vai sempre repassar o argumento na.rm com o valor TRUE em cada chamada à função mean().

Para compreender como você pode se aproveitar desse argumento, pense em como você aplicaria a função select() sobre apenas 1 das 12 planilhas. Perceba abaixo, que estamos repassando os argumentos Ano, Mes, IBGE1, Municípios e Meio Ambiente à função.

planilhas[[1]] %>% 
  select(Ano, Mes, IBGE1, Municípios, `Meio Ambiente`)

## # A tibble: 853 × 5
##      Ano Mes    IBGE1 Municípios          `Meio Ambiente`
##    <int> <chr>  <dbl> <chr>                         <dbl>
##  1  2019 Abril 310010 ABADIA DOS DOURADOS              0 
##  2  2019 Abril 310020 ABAETÉ                           0 
##  3  2019 Abril 310030 ABRE CAMPO                   10433.
##  4  2019 Abril 310040 ACAIACA                          0 
##  5  2019 Abril 310050 AÇUCENA                       7727.
##  6  2019 Abril 310060 ÁGUA BOA                     10433.
##  7  2019 Abril 310070 ÁGUA COMPRIDA                21909.
##  8  2019 Abril 310080 AGUANIL                          0 
##  9  2019 Abril 310090 ÁGUAS FORMOSAS                   0 
## 10  2019 Abril 310100 ÁGUAS VERMELHAS              14750.
## # … with 843 more rows
…
16.7.7 Unindo as 12 planilhas em uma só

Temos agora, uma lista contendo todas as 12 planilhas com apenas as colunas que a SEMAD necessita. Porém, lembre-se que cada planilha, está atualmente separada em um elemento diferente da lista. Nós estabelecemos anteriormente, que o ideal seria reunirmos todas essas 12 tabelas, em uma só.

Para executarmos esse passo, nós podemos simplesmente aplicar a função bind_rows() (que introduzimos no capítulo 4) sobre a lista planilhas. Se nós temos 12 planilhas diferentes, onde, cada linha de cada planilha representa um dos 853 municípios de Minas Gerais, ao unirmos todas essas tabelas, devemos ter como resultado, uma única tabela contendo 10.236 linhas (\(853 \times 12 = 10.236\)).

resultado <- bind_rows(planilhas)
resultado

## # A tibble: 10,236 × 5
##      Ano Mes    IBGE1 Municípios          `Meio Ambiente`
##    <int> <chr>  <dbl> <chr>                         <dbl>
##  1  2019 Abril 310010 ABADIA DOS DOURADOS              0 
##  2  2019 Abril 310020 ABAETÉ                           0 
##  3  2019 Abril 310030 ABRE CAMPO                   10433.
##  4  2019 Abril 310040 ACAIACA                          0 
##  5  2019 Abril 310050 AÇUCENA                       7727.
##  6  2019 Abril 310060 ÁGUA BOA                     10433.
##  7  2019 Abril 310070 ÁGUA COMPRIDA                21909.
##  8  2019 Abril 310080 AGUANIL                          0 
##  9  2019 Abril 310090 ÁGUAS FORMOSAS                   0 
## 10  2019 Abril 310100 ÁGUAS VERMELHAS              14750.
## # … with 10,226 more rows
…
