Capítulo 2 Fundamentos da Linguagem R | Introdução à Linguagem R: seus fundamentos e sua prática
…
Quando as suas tabelas são tibble’s, o console lhe retorna por padrão, apenas as 10 primeiras linhas da tabela (caso a tabela seja muito pequena, ele pode lhe retornar todas as linhas), o que já é o suficiente para vermos a sua estrutura. Além disso, caso as próximas colunas não caibam em uma mesma “linha”, ou ao lado das colunas anteriores, o tibble acaba omitindo essas colunas para não sobrecarregar o seu console de resultados. Lembre-se que você sempre pode ver toda a tabela, em uma janela separada através da função View().

View(flights)

Veja o exemplo abaixo, onde eu chamo novamente pela base flights. O primeiro detalhe que você percebe, é a dimensão da tabela (algo que não é informado, quando chamamos por um data.frame) no canto superior esquerdo da tabela (336.776 linhas e 19 colunas). O segundo detalhe, é que o tipo de dado contido em cada coluna, está descrito logo abaixo do nome da coluna, de acordo com a abreviação deste tipo. Por exemplo, nas três primeiras colunas estão contidos números inteiros (integer’s - int), enquanto na sexta coluna (dep_delay) temos números decimais (double’s - dbl).

Mesmo que em um tibble, você fique sem a possibilidade de visualizar todas as outras colunas da tabela, que não cabem na mesma linha junto com as colunas anteriores, um tibble sempre lhe retorna logo abaixo da tabela, uma lista contendo o nome de todas as colunas restantes, além do tipo de dado contido em cada coluna, através das mesmas abreviações que vimos nas colunas anteriores.

flights

## # A tibble: 336,776 × 19
##     year month   day dep_time sched_dep_time dep_delay arr_time
##    <int> <int> <int>    <dbl>          <dbl>     <dbl>    <dbl>
##  1  2013     1     1      517            515         2      830
##  2  2013     1     1      533            529         4      850
##  3  2013     1     1      542            540         2      923
##  4  2013     1     1      544            545        -1     1004
##  5  2013     1     1      554            600        -6      812
##  6  2013     1     1      554            558        -4      740
##  7  2013     1     1      555            600        -5      913
##  8  2013     1     1      557            600        -3      709
##  9  2013     1     1      557            600        -3      838
## 10  2013     1     1      558            600        -2      753
## # ℹ 336,766 more rows
## # ℹ 12 more variables: sched_arr_time <dbl>, arr_delay <dbl>,
## #   carrier <chr>, flight <dbl>, tailnum <chr>, origin <chr>, dest <chr>,
## #   air_time <dbl>, distance <dbl>, hour <dbl>, minute <dbl>,
## #   time_hour <dttm>
…
