Capítulo 5 Funções e Loops no R | Introdução à Linguagem R: seus fundamentos e sua prática
…
Pelo fato de que a função norm executa os seus cálculos, e portanto, cria os seus objetos em um ambiente separado, mesmo que eu tenha objetos em meu global environment que se chamam media, ou desvio_pad, ou normalizado, em nenhum momento a função norm irá afetá-los. A função norm pode até utilizar-se de objetos que estão guardados em meu global environment para realizar os seus cálculos, mas em nenhum momento ela irá alterar o valor dessas variáveis em meu global environment, a menos que eu peça explicitamente para que ela realize tal alteração. Isso algo que eu não pretendo mostrar aqui, pois exige de você leitor, um conhecimento e experiência maiores com os environments do R.

5.3 Uma introdução teórica às funções no R

As funções, lhe permitem automatizar tarefas, em uma forma mais intuitiva e poderosa, do que uma simples estratégia de copiar-colar (Wickham and Grolemund 2017). Portanto, sempre que houver algum tipo de repetição em seu trabalho, você pode utilizar uma função, em conjunto com um loop, para automatizar esse processo. Em outras palavras, uma função lhe permite com apenas um comando, aplicar várias outras funções e processos diferentes de uma vez só. Dessa forma, fica mais fácil aplicar repetidamente o mesmo conjunto de processos e comandos sobre os seus dados.

Vamos supor exemplo, que você seja o dono de 4 lojas de doces caseiros, e que essas lojas estão localizadas na cidade de Belo Horizonte, mais especificamente nos bairros Barro Preto, Savassi, Centro e Padre Eustáquio. Toda semana, o gerente de cada loja, te envia uma planilha contendo as vendas diárias de cada produto em sua loja. Você como dono dessas lojas, deseja sempre calcular algumas estatísticas para acompanhar as vendas de suas empresas.

Porém, são 4 planilhas enviadas toda semana, e se você tem que calcular as mesmas estatísticas toda semana, porque não criar uma função que já executa esses cálculos por você? Dessa forma, você consegue calcular todas as suas estatísticas com apenas um comando, economizando tempo e esforço na manutenção dessas estatísticas.

Vamos supor, que as planilhas de cada loja, assumem a seguinte estrutura abaixo. Como exemplo, vamos utilizar a planilha referente a loja localizada no bairro Savassi:

savassi

## # A tibble: 785 x 6
##      dia   mes   ano vendedor produtoid valor
##    <int> <int> <int> <chr>    <chr>     <dbl>
##  1     1     4  2020 Márcia   23010      4.1 
##  2     1     4  2020 Ana      10014      7.89
##  3     1     4  2020 Ana      10115     15.4 
##  4     1     4  2020 Márcia   53200     11.2 
##  5     1     4  2020 Ana      10014      7.89
##  6     1     4  2020 Nathália 53200     11.2 
##  7     1     4  2020 Nathália 10014      7.89
##  8     1     4  2020 Márcia   10014      7.89
##  9     1     4  2020 Nathália 53200     11.2 
## 10     1     4  2020 Ana      10115     15.4 
## # ... with 775 more rows
…
  vendas_produto <- dados %>%
    group_by(dia, produtoid) %>% 
    summarise(
      receita = sum(valor),
      n_vendas = n()
    ) %>% 
    ungroup()
  
  return(vendas_produto)
}

produtos_vendas(savassi) %>% print(n = 10)

## # A tibble: 20 x 4
##      dia produtoid receita n_vendas
##    <int> <chr>       <dbl>    <int>
##  1     1 10014        339.       43
##  2     1 10115        680.       44
##  3     1 23010        152.       37
##  4     1 53200        338.       30
##  5     2 10014        284.       36
##  6     2 10115        865.       56
##  7     2 23010        160.       39
##  8     2 53200        405        36
##  9     3 10014        252.       32
## 10     3 10115        525.       34
## # ... with 10 more rows
…
Figure 5.5: Lista de arquivos do Excel

Dando uma olhada mais de perto, cada uma dessas planilhas do Excel, assumem a estrutura abaixo. Onde cada linha da tabela, representa um município do estado de Minas Gerais, e cada coluna (ou pelo menos, grande parte dessas colunas), representa os valores de ICMS transferidos segundo os índices de um critério específico da lei. Ou seja, a coluna Educação, nos apresenta os valores de ICMS transferidos para cada município do estado, considerando-se o índice que cada um desses municípios adquiriram no critério de Educação, e também, considerando-se a parcela que o critério de Educação representa do total de ICMS distribuído.

library(readxl)

Abril_2019 <- read_excel("planilhas/Abril_2019.xlsx")

Abril_2019

## # A tibble: 853 x 27
##     IBGE1 IBGE2   SEF Municípios        População `População dos 50 + Popu~
##     <dbl> <dbl> <dbl> <chr>                 <dbl>                     <dbl>
##  1 310010    10     1 ABADIA DOS DOURA~     8847.                         0
##  2 310020    20     2 ABAETÉ               29470.                         0
##  3 310030    30     3 ABRE CAMPO           17087.                         0
##  4 310040    40     4 ACAIACA               5068.                         0
##  5 310050    50     5 AÇUCENA              12151.                         0
##  6 310060    60     6 ÁGUA BOA             17258.                         0
##  7 310070    70     7 ÁGUA COMPRIDA         2544.                         0
##  8 310080    80     8 AGUANIL               5644.                         0
##  9 310090    90     9 ÁGUAS FORMOSAS       24321.                         0
## 10 310100   100    10 ÁGUAS VERMELHAS      17102.                         0
## # ... with 843 more rows, and 21 more variables: Área Geográfica <dbl>,
## #   Educação <dbl>, Patrimônio Cultural <dbl>, Receita Própria <dbl>,
## #   Cota Mínima <dbl>, Mineradores <dbl>, Saúde Per Capita <dbl>,
## #   VAF <dbl>, Esportes <dbl>, Turismo <dbl>, Penitenciárias <dbl>,
## #   Recursos Hídricos <dbl>, Produção de Alimentos 2º semestre <dbl>,
## #   Unidades de Conservação (IC i) <dbl>, Saneamento <dbl>,
## #   Mata Seca <dbl>, Meio Ambiente <dbl>, PSF <dbl>, ICMS Solidário <dbl>,
## #   Índice Mínimo per capita <dbl>, Total <dbl>
…
    return(planilha)
}

Com a nossa função ler_excel() construída, podemos aplicá-la sobre o primeiro nome contido em nosso objeto nomes_planilhas, como um teste. Pelo resultado abaixo, nós podemos confirmar que a função está funcionando exatamente como esperávamos.

ler_excel(nomes_planilhas[1])

## # A tibble: 853 x 6
##     IBGE1 Municípios          Origem            Ano Mês   `Meio Ambiente`
##     <dbl> <chr>               <chr>           <dbl> <chr>           <dbl>
##  1 310010 ABADIA DOS DOURADOS Abril_2019.xlsx  2019 Abril              0 
##  2 310020 ABAETÉ              Abril_2019.xlsx  2019 Abril              0 
##  3 310030 ABRE CAMPO          Abril_2019.xlsx  2019 Abril          10433.
##  4 310040 ACAIACA             Abril_2019.xlsx  2019 Abril              0 
##  5 310050 AÇUCENA             Abril_2019.xlsx  2019 Abril           7727.
##  6 310060 ÁGUA BOA            Abril_2019.xlsx  2019 Abril          10433.
##  7 310070 ÁGUA COMPRIDA       Abril_2019.xlsx  2019 Abril          21909.
##  8 310080 AGUANIL             Abril_2019.xlsx  2019 Abril              0 
##  9 310090 ÁGUAS FORMOSAS      Abril_2019.xlsx  2019 Abril              0 
## 10 310100 ÁGUAS VERMELHAS     Abril_2019.xlsx  2019 Abril          14750.
## # ... with 843 more rows
…
Perceba também abaixo, que dentro da definição do loop, eu utilizo a função seq_along() sobre o objeto nomes_planilhas. Essa função é um atalho útil, para criarmos uma sequência que vai de 1 até o número total de elementos presentes no objeto nomes_planilhas. Ou seja, a função seq_along() gera exatamente o mesmo resultado do que o comando 1:length(nomes_planilhas). Porém, a função seq_along(x) (ao contrário do comando 1:length(x)) se comporta de maneira adequada em situações extremas15, e por isso, representa uma forma mais segura de criarmos uma sequência numérica que irá servir como o conjunto de valores sobre o qual o índice do loop vai atuar.

planilhas <- vector(mode = "list", length = length(nomes_planilhas))

for(i in seq_along(nomes_planilhas)){
  
  planilhas[[i]] <- ler_excel(nomes_planilhas[i])
  
}

Após executarmos o loop, cada uma das 12 planilhas foram guardadas em cada elemento da lista planilhas. Perceba abaixo, que cada uma das planilhas se encontram agora no formato que esperávamos, após aplicarmos a função ler_excel(), pois temos apenas as colunas que a SEMAD necessita.

planilhas[[3]]

## # A tibble: 853 x 6
##     IBGE1 Municípios         Origem             Ano Mês     `Meio Ambiente`
##     <dbl> <chr>              <chr>            <dbl> <chr>             <dbl>
##  1 310010 ABADIA DOS DOURAD~ Dezembro_2019.x~  2019 Dezemb~              0 
##  2 310020 ABAETÉ             Dezembro_2019.x~  2019 Dezemb~              0 
##  3 310030 ABRE CAMPO         Dezembro_2019.x~  2019 Dezemb~              0 
##  4 310040 ACAIACA            Dezembro_2019.x~  2019 Dezemb~              0 
##  5 310050 AÇUCENA            Dezembro_2019.x~  2019 Dezemb~           2617.
##  6 310060 ÁGUA BOA           Dezembro_2019.x~  2019 Dezemb~              0 
##  7 310070 ÁGUA COMPRIDA      Dezembro_2019.x~  2019 Dezemb~              0 
##  8 310080 AGUANIL            Dezembro_2019.x~  2019 Dezemb~          16776.
##  9 310090 ÁGUAS FORMOSAS     Dezembro_2019.x~  2019 Dezemb~              0 
## 10 310100 ÁGUAS VERMELHAS    Dezembro_2019.x~  2019 Dezemb~          21705.
## # ... with 843 more rows

Porém, ainda não atingimos o resultado desejado. Lembre-se que cada uma das 12 planilhas, se encontram no momento, separadas em cada elemento de uma lista. Nós estabelecemos anteriormente, que o ideal seria reunirmos todas essas 12 tabelas, em uma só. Para executarmos esse passo, nós podemos simplesmente aplicar a função bind_rows() sobre a lista planilhas. Como o próprio nome da função dá a entender, ela busca unir, ou colar linhas de diferentes tabelas. Em uma outra perspectiva, é como se a função bind_rows() estivesse “empilhando” as tabelas, uma em cima da outra. Portanto, se nós temos 12 tabelas diferentes, onde cada linha de cada uma dessas tabelas representa um dos 853 municípios de Minas Gerais, ao unirmos todas essas tabelas, deveríamos ter como resultado, uma única tabela contendo 10.236 linhas (\(853 \times 12 = 10.236\)).

planilhas <- bind_rows(planilhas)

planilhas

## # A tibble: 10,236 x 6
##     IBGE1 Municípios          Origem            Ano Mês   `Meio Ambiente`
##     <dbl> <chr>               <chr>           <dbl> <chr>           <dbl>
##  1 310010 ABADIA DOS DOURADOS Abril_2019.xlsx  2019 Abril              0 
##  2 310020 ABAETÉ              Abril_2019.xlsx  2019 Abril              0 
##  3 310030 ABRE CAMPO          Abril_2019.xlsx  2019 Abril          10433.
##  4 310040 ACAIACA             Abril_2019.xlsx  2019 Abril              0 
##  5 310050 AÇUCENA             Abril_2019.xlsx  2019 Abril           7727.
##  6 310060 ÁGUA BOA            Abril_2019.xlsx  2019 Abril          10433.
##  7 310070 ÁGUA COMPRIDA       Abril_2019.xlsx  2019 Abril          21909.
##  8 310080 AGUANIL             Abril_2019.xlsx  2019 Abril              0 
##  9 310090 ÁGUAS FORMOSAS      Abril_2019.xlsx  2019 Abril              0 
## 10 310100 ÁGUAS VERMELHAS     Abril_2019.xlsx  2019 Abril          14750.
## # ... with 10,226 more rows
…
