Capítulo 3 Importando e exportando dados com o R | Introdução à Linguagem R: seus fundamentos e sua prática
…
Perceba também no exemplo acima, que eu salvo o resultado da função read_csv2() em um objeto chamado Censo_2010. Isso é muito importante! Lembre-se sempre de salvar o resultado das funções read_* em algum objeto. Pois a função read_csv2() busca apenas ler o arquivo Censo_2010.csv e encaixar o seu conteúdo em uma tabela (ou um data.frame) do R. Ou seja, em nenhum momento, a função read_csv2() se preocupa em salvar os dados que ela coletou do arquivo Censo_2010.csv, em algum lugar que podemos acessar futuramente. É por essa razão, que eu salvo a tabela gerada pela função read_csv2() em um objeto. Pois dessa forma, eu posso acessar novamente os dados que coletamos do arquivo Censo_2010.csv, através do objeto Censo_2010.

Censo_2010

## # A tibble: 2,013 x 11
##    `Região metropol~ `População resid~ `População em ár~ `População em áre~
##    <chr>                         <dbl>             <dbl>              <dbl>
##  1 Manaus  AM                  2106322           1972885               3011
##  2 Homens                      1036676            964041               2018
##  3 Mulheres                    1069646           1008844                993
##  4 Careiro da Várzea             23930              1000                 NA
##  5 Homens                        12688               481                 NA
##  6 Mulheres                      11242               519                 NA
##  7 Iranduba                      40781             28979                 NA
##  8 Homens                        20996             14662                 NA
##  9 Mulheres                      19785             14317                 NA
## 10 Itacoatiara                   86839             57863                294
## # ... with 2,003 more rows, and 7 more variables:
## #   População em área isolada <dbl>, Área rural <dbl>,
## #   Aglomerado urbano <dbl>, Povoado <dbl>, Núcleo <dbl>,
## #   Outros aglomerados <dbl>, Código unidade <dbl>
…
flights <- read_csv2(
  "flights.csv",
  col_types = tipos_col
)

flights

## # A tibble: 336,776 x 19
##     year month   day dep_time sched_dep_time dep_delay arr_time
##    <int> <int> <int>    <dbl>          <dbl>     <dbl>    <dbl>
##  1  2013     1     1      517            515         2      830
##  2  2013     1     1      533            529         4      850
##  3  2013     1     1      542            540         2      923
##  4  2013     1     1      544            545        -1     1004
##  5  2013     1     1      554            600        -6      812
##  6  2013     1     1      554            558        -4      740
##  7  2013     1     1      555            600        -5      913
##  8  2013     1     1      557            600        -3      709
##  9  2013     1     1      557            600        -3      838
## 10  2013     1     1      558            600        -2      753
## # ... with 336,766 more rows, and 12 more variables: sched_arr_time <dbl>,
## #   arr_delay <dbl>, carrier <chr>, flight <dbl>, tailnum <chr>,
## #   origin <chr>, dest <chr>, air_time <dbl>, distance <dbl>, hour <dbl>,
## #   minute <dbl>, time_hour <dttm>

3.6.2 Compreendendo o argumento locale

O argumento locale está presente em todas as funções read_*, e é responsável por definir as especificações do arquivo de texto que mudam de país para país. No Brasil, por exemplo, datas são definidas no formato “Dia/Mês/Ano,” enquanto nos EUA, datas se encontram no formato “Ano-Mês-Dia.” No Brasil, utilizamos vírgulas para separar a parte decimal de um número, enquanto nos EUA, essa separação é definida por um ponto final. Uma diferença ainda mais importante, se encontra no sistema de encoding adotado, que varia de maneira muito violenta ao longo dos países.

O R, é uma linguagem centrada nos padrões americanos, por isso, sempre que você estiver tentando ler algum arquivo de texto que não se encaixa de alguma forma neste padrão, você terá que ajustar o locale da função read_* que você está utilizando. Algumas funções já preveêm e adotam essas diferenças, um exemplo disso, é a função read_csv2(), que é na verdade um atalho para o padrão adotado por nós brasileiros, e por alguns países europeus.

Como exemplo inicial, vamos tentar ler o arquivo pib_per_capita.csv, que novamente se encontra dentro da pasta 6 - Importacao. Dessa vez, vamos utilizar a função geral do pacote, a read_delim(). Lembre-se que nessa função, você deve sempre indicar qual o caractere separador do arquivo, através do argumento delim.

pib <- read_delim("Parte 1/6 - Importacao/pib_per_capita.csv", delim = ";")

pib

## # A tibble: 853 x 7
##    IBGE2   IBGE `Munic\xedpio`        `Popula\xe7\xe3o`   Ano PIB          
##    <dbl>  <dbl> <chr>                             <dbl> <dbl> <chr>        
##  1    10 310010 "Abadia dos Dourados"              6972  2017 33.389.769,00
##  2    20 310020 "Abaet\xe9"                       23223  2017 96.201.158,00
##  3    30 310030 "Abre Campo"                      13465  2017 29.149.429,00
##  4    40 310040 "Acaiaca"                          3994  2017 2.521.892,00 
##  5    50 310050 "A\xe7ucena"                       9575  2017 15.250.077,00
##  6    60 310060 "\xc1gua Boa"                     13600  2017 29.988.906,00
##  7    70 310070 "\xc1gua Comprida"                 2005  2017 74.771.408,00
##  8    80 310080 "Aguanil"                          4448  2017 15.444.038,00
##  9    90 310090 "\xc1guas Formosas"               19166  2017 11.236.696,00
## 10   100 310100 "\xc1guas Vermelhas"              13477  2017 48.088.397,00
## # ... with 843 more rows, and 1 more variable: PIB per capita <chr>
…
O motivo para tal conflito, se encontra justamente no uso do ponto final como separador de milhares, e da vírgula para marcar a parte decimal dos números dispostos nas colunas PIB e PIB_per_capita. Ou seja, como não informamos nada sobre as particularidades do arquivo, a função read_delim() está imaginando que o arquivo pib_per_capita.csv se encontra no padrão americano. Por isso, nós precisamos fornecer essas informações à função read_delim() para que esse problema seja corrigido, através do argumento locale.

Na verdade, tais informações são fornecidas através da função locale(), como no exemplo abaixo. No nosso caso, precisamos ajustar o caractere responsável por separar os milhares, que corresponde ao argumento grouping_mark, e o caractere que defini a parte decimal dos nossos números, que corresponde ao argumento decimal_mark da função locale(). Perceba no exemplo abaixo, que ao provermos essas informações à função read_delim() através da função locale(), as colunas PIB e PIB per capita foram corretamente interpretadas como colunas numéricas (double).

pib <- read_delim(
  "Parte 1/6 - Importacao/pib_per_capita.csv",
  delim = ";",
  locale = locale(decimal_mark = ",", grouping_mark = ".")
)

pib

## # A tibble: 853 x 7
##    IBGE2   IBGE `Munic\xedpio`        `Popula\xe7\xe3o`   Ano      PIB
##    <dbl>  <dbl> <chr>                             <dbl> <dbl>    <dbl>
##  1    10 310010 "Abadia dos Dourados"              6972  2017 33389769
##  2    20 310020 "Abaet\xe9"                       23223  2017 96201158
##  3    30 310030 "Abre Campo"                      13465  2017 29149429
##  4    40 310040 "Acaiaca"                          3994  2017  2521892
##  5    50 310050 "A\xe7ucena"                       9575  2017 15250077
##  6    60 310060 "\xc1gua Boa"                     13600  2017 29988906
##  7    70 310070 "\xc1gua Comprida"                 2005  2017 74771408
##  8    80 310080 "Aguanil"                          4448  2017 15444038
##  9    90 310090 "\xc1guas Formosas"               19166  2017 11236696
## 10   100 310100 "\xc1guas Vermelhas"              13477  2017 48088397
## # ... with 843 more rows, and 1 more variable: PIB per capita <dbl>
…
Nas funções do pacote readr, nós podemos definir o encoding de leitura, através do argumento encoding presente na função locale(). Nesse argumento, você pode fornecer tanto o nome oficial do sistema (ISO-8859-1) quanto o seu apelido (Latin1). Repare no exemplo abaixo, que ao definirmos o encoding correto de leitura, os problemas em elementos textuais foram resolvidos. Para ter uma melhor compreensão desse problema, por favor leia a seção Encoding de caracteres.

pib <- read_delim(
  "Parte 1/6 - Importacao/pib_per_capita.csv",
  delim = ";",
  locale = locale(
    decimal_mark = ",",
    grouping_mark = ".",
    encoding = "Latin1"
  )
)

pib

## # A tibble: 853 x 7
##    IBGE2   IBGE Município          População   Ano     PIB `PIB per capita`
##    <dbl>  <dbl> <chr>                  <dbl> <dbl>   <dbl>            <dbl>
##  1    10 310010 Abadia dos Dourad~      6972  2017  3.34e7            4789.
##  2    20 310020 Abaeté                 23223  2017  9.62e7            4142.
##  3    30 310030 Abre Campo             13465  2017  2.91e7            2165.
##  4    40 310040 Acaiaca                 3994  2017  2.52e6             631.
##  5    50 310050 Açucena                 9575  2017  1.53e7            1593.
##  6    60 310060 Água Boa               13600  2017  3.00e7            2205.
##  7    70 310070 Água Comprida           2005  2017  7.48e7           37292.
##  8    80 310080 Aguanil                 4448  2017  1.54e7            3472.
##  9    90 310090 Águas Formosas         19166  2017  1.12e7             586.
## 10   100 310100 Águas Vermelhas        13477  2017  4.81e7            3568.
## # ... with 843 more rows
…
col_width <- read_csv(
  "C:/Users/Pedro/Downloads/PNADC_012020/widths.txt", 
  col_names = c("variavel", "width", "char")
)

## -- Column specification --------------------------------
## cols(
##   variavel = col_character(),
##   width = col_double(),
##   char = col_logical()
## )

col_width

## # A tibble: 217 x 3
##    variavel  width char 
##    <chr>     <dbl> <lgl>
##  1 Ano           4 TRUE 
##  2 Trimestre     1 TRUE 
##  3 UF            2 TRUE 
##  4 Capital       2 TRUE 
##  5 RM_RIDE       2 TRUE 
##  6 UPA           9 TRUE 
##  7 Estrato       7 TRUE 
##  8 V1008         2 TRUE 
##  9 V1014         2 TRUE 
## 10 V1016         1 TRUE 
## # ... with 207 more rows
…
Figure 3.10: Início do script de importação

Com essas informações em mente, eu poderia gerar a tabela col_width, através dos seguintes comandos:

library(SAScii)
library(tibble)

col_width <- parse.SAScii(
  "C:/Users/Pedro/Downloads/PNADC_012020/input_PNADC_trimestral.txt",
  beginline = 18
)

as_tibble(col_width)

## # A tibble: 217 x 4
##    varname   width char  divisor
##    <chr>     <dbl> <lgl>   <dbl>
##  1 ANO           4 TRUE        1
##  2 TRIMESTRE     1 TRUE        1
##  3 UF            2 TRUE        1
##  4 CAPITAL       2 TRUE        1
##  5 RM_RIDE       2 TRUE        1
##  6 UPA           9 TRUE        1
##  7 ESTRATO       7 TRUE        1
##  8 V1008         2 TRUE        1
##  9 V1014         2 TRUE        1
## 10 V1016         1 TRUE        1
## # ... with 207 more rows
…
3.7.5 Analisando erros de importação

Nós podemos obter através da função problems(), uma tabela contendo todos os erros que ocorreram durante esse processo de importação. Precisamos apenas fornecer a essa função, os comandos que geraram esses problemas, como no exemplo abaixo.

problemas <- problems(
  read_fwf(
    "C:/Users/Pedro/Downloads/PNADC_012020/PNADC_012020.txt",
    col_positions = fwf_widths(col_width$width, col_names = col_width$variavel), 
    col_types = tipos
  )
)

problemas

## # A tibble: 2,032,039 x 5
##      row col    expected   actual file
##    <int> <chr>  <chr>      <chr>  <chr>        
##  1     1 VD4032 a double   .      'C:/Users/Pedro/Downloads/PNADC_012020/PNAD~
##  2     1 VD4033 a double   .      'C:/Users/Pedro/Downloads/PNADC_012020/PNAD~
##  3     1 VD4034 a double   .      'C:/Users/Pedro/Downloads/PNADC_012020/PNAD~
##  4     2 VD4031 a double   .      'C:/Users/Pedro/Downloads/PNADC_012020/PNAD~
##  5     2 VD4032 a double   .      'C:/Users/Pedro/Downloads/PNADC_012020/PNAD~
##  6     2 VD4033 a double   .      'C:/Users/Pedro/Downloads/PNADC_012020/PNAD~
##  7     2 VD4034 a double   .      'C:/Users/Pedro/Downloads/PNADC_012020/PNAD~
##  8     2 VD4035 a double   .      'C:/Users/Pedro/Downloads/PNADC_012020/PNAD~
##  9     3 VD4031 a double   .      'C:/Users/Pedro/Downloads/PNADC_012020/PNAD~
## 10     3 VD4032 a double   .      'C:/Users/Pedro/Downloads/PNADC_012020/PNAD~
## # ... with 2,032,029 more rows
…
Logo abaixo, temos o resultado do intervalo que selecionamos do arquivo, em que podemos ver o grupo de pontos finais que estão causando o problema. Agora, temos que identificar o motivo desses pontos estarem aí. Se nós retornarmos às especificações dessas colunas apresentadas na tabela col_width, nós sabemos que essas colunas são colunas numéricas. Será que esses pontos estão aí, para marcar as casas decimais dos números dessa coluna?

Talvez não seja esse o caso. Pois se esses pontos estivessem de fato, marcando as casas decimais, porque eles não aparecem na primeira linha das colunas VD4031 e VD4035? Isto é, por que o valor 040 que aparece nessas colunas, não se apresenta como 0.40, ou 04.0, ou 40.0 na tabela conferir? Lembre-se que os valores da tabela conferir, são apresentados exatamente da forma como eles se apresentam no arquivo dos microdados, pois todas essas colunas estão sendo interpretadas como character. Ou seja, esses valores que eram meros textos no arquivo dos microdados, continuam sendo textos no R, de forma que não houve nenhuma conversão desses valores.

conferir

## # A tibble: 487,937 x 5
##    VD4031 VD4032 VD4033 VD4034 VD4035
##    <chr>  <chr>  <chr>  <chr>  <chr> 
##  1 040    .      .      .      040   
##  2 .      .      .      .      .     
##  3 .      .      .      .      .     
##  4 .      .      .      .      .     
##  5 .      .      .      .      .     
##  6 040    .      .      .      040   
##  7 .      .      .      .      .     
##  8 .      .      .      .      .     
##  9 .      .      .      .      .     
## 10 040    .      .      .      040   
## # ... with 487,927 more rows
…
write_csv2(Censo_2010, file = "C:/Users/Pedro/Desktop/Censo_2010.csv")

3.9 Importando planilhas do Excel com readxl

O Excel continua sendo um dos programas mais populares no mundo e, por essa razão, muitas pessoas ainda o utilizam para analisar dados e gerar gráficos. Tendo isso em vista, nessa seção, vamos aprender como podemos importar para o R, dados que se encontram em planilhas do Excel (.xlsx), através da função read_excel() que pertence ao pacote readxl.

O principal argumento da função read_excel() corresponde novamente ao endereço até o arquivo que você deseja ler, ou apenas o seu nome caso esse arquivo se encontre em seu diretório de trabalho atual.

library(readxl)

codigos <- read_excel("codigos.xlsx")

codigos

## # A tibble: 853 x 4
##     IBGE1 IBGE2   SEF Municípios         
##     <dbl> <dbl> <dbl> <chr>              
##  1 310010    10     1 ABADIA DOS DOURADOS
##  2 310020    20     2 ABAETÉ             
##  3 310030    30     3 ABRE CAMPO         
##  4 310040    40     4 ACAIACA            
##  5 310050    50     5 AÇUCENA            
##  6 310060    60     6 ÁGUA BOA           
##  7 310070    70     7 ÁGUA COMPRIDA      
##  8 310080    80     8 AGUANIL            
##  9 310090    90     9 ÁGUAS FORMOSAS     
## 10 310100   100    10 ÁGUAS VERMELHAS    
## # ... with 843 more rows

3.9.1 Delimitando a parte de seu arquivo .xlsx

Um único arquivo .xlsx pode conter várias planilhas, ou várias abas (sheet’s) diferentes. Por padrão, a função read_excel() sempre lê a primeira planilha de seu arquivo .xlsx. Porém, você pode ler diferentes planilhas de seu arquivo por meio do argumento sheet. Somos capazes de selecionar a planilha desejada de acordo com a sua ordem (1, 2, 3, …), ou de acordo com o nome dado à aba que a contém.

## Lê a terceira planilha do arquivo
read_excel("datasets.xlsx", sheet = 3)

## # A tibble: 71 x 2
##    weight feed     
##     <dbl> <chr>    
##  1    179 horsebean
##  2    160 horsebean
##  3    136 horsebean
##  4    227 horsebean
##  5    217 horsebean
##  6    168 horsebean
##  7    108 horsebean
##  8    124 horsebean
##  9    143 horsebean
## 10    140 horsebean
## # ... with 61 more rows

## Lê a planilha presente na aba denominada mtcars
read_excel("datasets.xlsx", sheet = "mtcars")

## # A tibble: 32 x 11
##      mpg   cyl  disp    hp  drat    wt  qsec    vs    am  gear  carb
##    <dbl> <dbl> <dbl> <dbl> <dbl> <dbl> <dbl> <dbl> <dbl> <dbl> <dbl>
##  1  21       6  160    110  3.9   2.62  16.5     0     1     4     4
##  2  21       6  160    110  3.9   2.88  17.0     0     1     4     4
##  3  22.8     4  108     93  3.85  2.32  18.6     1     1     4     1
##  4  21.4     6  258    110  3.08  3.22  19.4     1     0     3     1
##  5  18.7     8  360    175  3.15  3.44  17.0     0     0     3     2
##  6  18.1     6  225    105  2.76  3.46  20.2     1     0     3     1
##  7  14.3     8  360    245  3.21  3.57  15.8     0     0     3     4
##  8  24.4     4  147.    62  3.69  3.19  20       1     0     4     2
##  9  22.8     4  141.    95  3.92  3.15  22.9     1     0     4     2
## 10  19.2     6  168.   123  3.92  3.44  18.3     1     0     4     4
## # ... with 22 more rows

Além dessas configurações, conseguimos delimitar o intervalo de células a serem lidas pela função, através do argumento range. Podemos fornecer esse intervalo em dois estilos diferentes. Nós podemos utilizar o sistema tradicional do Excel (CL:CL), como no exemplo abaixo, em que estamos lendo da célula A1 à célula C150 através da notação A1:C150.

read_excel("datasets.xlsx", range = "A1:C150")

## # A tibble: 149 x 3
##    Sepal.Length Sepal.Width Petal.Length
##           <dbl>       <dbl>        <dbl>
##  1          5.1         3.5          1.4
##  2          4.9         3            1.4
##  3          4.7         3.2          1.3
##  4          4.6         3.1          1.5
##  5          5           3.6          1.4
##  6          5.4         3.9          1.7
##  7          4.6         3.4          1.4
##  8          5           3.4          1.5
##  9          4.4         2.9          1.4
## 10          4.9         3.1          1.5
## # ... with 139 more rows
…
Por outro lado, para delimitarmos o intervalo de linhas em cell_rows() precisamos apenas fornecer um vetor de dois elementos, contendo os limites superior e inferior do intervalo, ou então, uma sequência que cobre esses limites.

## Da 1° até a 140° linha
read_excel("datasets.xlsx", range = cell_rows(1:140))

## Da 10° até a 400° linha
read_excel("datasets.xlsx", range = cell_rows(c(10, 400)))

O argumento range é tão flexível que nós podemos utilizá-lo para executar o trabalho do argumento sheet. Isto é, além do intervalo de células, nós também podemos selecionar a aba do arquivo .xlsx a ser lida pela função, através do argumento range. No Excel, quando você está utilizando em sua planilha, algum valor que é proveniente de uma outra planilha do mesmo arquivo .xlsx, o Excel cria uma referência até esse valor. Essa referência possui o nome da planilha em conjunto com a referência da célula onde o valor se encontra, separados por um ponto de exclamação (!). Logo, se eu quisesse ler da célula A1 até a célula C150, da planilha denominada mtcars, do arquivo datasets.xlsx, eu precisaria criar a seguinte referência no argumento range:

read_excel("datasets.xlsx", range = "mtcars!A1:C150") 

## # A tibble: 149 x 3
##      mpg   cyl  disp
##    <dbl> <dbl> <dbl>
##  1  21       6  160 
##  2  21       6  160 
##  3  22.8     4  108 
##  4  21.4     6  258 
##  5  18.7     8  360 
##  6  18.1     6  225 
##  7  14.3     8  360 
##  8  24.4     4  147.
##  9  22.8     4  141.
## 10  19.2     6  168.
## # ... with 139 more rows
…
