Capítulo 12 Introdução à variáveis de tempo com lubridate | Introdução à Linguagem R: seus fundamentos e sua prática
…
library(readr)
transf <- read_csv2(paste0(github, pasta, arquivo))

transf <- transf %>% 
  select(-Descricao) %>% 
  mutate(
    hora = hour(Data),
    minuto = minute(Data),
    segundo = second(Data)
  )

transf

## # A tibble: 20,006 x 8
##    Data                Usuario  Valor TransferID Pais   hora minuto segundo
##    <dttm>              <chr>    <dbl>      <dbl> <chr> <int>  <int>   <dbl>
##  1 2018-12-06 22:19:19 Eduardo   599.  116241629 Alem~    22     19      19
##  2 2018-12-06 22:10:34 Júlio    4611.  115586504 Alem~    22     10      34
##  3 2018-12-06 21:59:50 Nathál~  4418.  115079280 Alem~    21     59      50
##  4 2018-12-06 21:54:13 Júlio    2740.  114972398 Alem~    21     54      13
##  5 2018-12-06 21:41:27 Ana      1408.  116262934 Alem~    21     41      27
##  6 2018-12-06 21:18:40 Nathál~  5052.  115710402 Alem~    21     18      40
##  7 2018-12-06 20:54:32 Eduardo  5665.  114830203 Alem~    20     54      32
##  8 2018-12-06 20:15:46 Sandra   1474.  116323455 Alem~    20     15      46
##  9 2018-12-06 20:04:35 Armando  8906.  115304382 Alem~    20      4      35
## 10 2018-12-22 20:00:56 Armando 18521.  114513684 Alem~    20      0      56
## # ... with 19,996 more rows
…
