Capítulo 11 Introduzindo fatores (factor’s) com forcats | Introdução à Linguagem R: seus fundamentos e sua prática
…
Como exemplo, suponha que você possua a seguinte tabela contendo receitas mensais de algums lojas:

unidades <- c("Savassi", "Centro", "Gameleira", "Pampulha")
set.seed(3)
tab <- tibble(
  ano = 2021,
  mes = rep(1:12, each = 4),
  unidade = rep(unidades, times = 12),
  receita = rnorm(48, 17000, 4800)
)
tab <- arrange(tab, mes, unidade)
tab

## # A tibble: 48 x 4
##      ano   mes unidade   receita
##    <dbl> <int> <chr>       <dbl>
##  1  2021     1 Centro     15596.
##  2  2021     1 Gameleira  18242.
##  3  2021     1 Pampulha   11470.
##  4  2021     1 Savassi    12383.
##  5  2021     2 Centro     17145.
##  6  2021     2 Gameleira  17410.
##  7  2021     2 Pampulha   22360.
##  8  2021     2 Savassi    17940.
##  9  2021     3 Centro     23083.
## 10  2021     3 Gameleira  13425.
## # ... with 38 more rows
…
Assim como nas seções anteriores, o pacote forcats também oferece algumas funções muito úteis para esse procedimento. Veja o exemplo abaixo, em que eu utilizo a função fct_recode() para reconfigurar todos os níveis (ou valores) presentes coluna Cor em nossa tabela datasus.

datasus %>% 
  mutate(
    Cor = fct_recode(
      Cor,
      "Carmim" = "Parda",
      "Azul" = "Amarela",
      "Bronze" = "Branca",
      "Roxo" = "Indígena"
    )
  )

## # A tibble: 1,836 x 6
##    `Faixa etaria` Genero    Cor    `Nome UF` UF    Contagem
##    <chr>          <chr>     <fct>  <chr>     <chr>    <dbl>
##  1 10 a 14        Feminino  Carmim Acre      AC           4
##  2 10 a 14        Masculino Carmim Acre      AC           4
##  3 15 a 19        Feminino  Bronze Acre      AC           2
##  4 15 a 19        Feminino  Carmim Acre      AC           4
##  5 15 a 19        Masculino Bronze Acre      AC           6
##  6 15 a 19        Masculino Carmim Acre      AC          65
##  7 15 a 19        Masculino Preta  Acre      AC           1
##  8 20 a 24        Feminino  Roxo   Acre      AC           1
##  9 20 a 24        Feminino  Carmim Acre      AC           4
## 10 20 a 24        Masculino Bronze Acre      AC           7
## # ... with 1,826 more rows
Caso você precise unir diversos níveis em um só, ou, em outras palavras, se você precisa agregar vários níveis, a função fct_collapse() é uma melhor escolha. Pois ela lhe permite fornecer um vetor contendo todos os níveis antigos a serem agregados em um só. Veja o exemplo abaixo, em que eu agrego diversas faixas etárias, gerando assim, uma descrição etária menos detalhada:

datasus %>% 
  mutate(
    `Faixa etaria` = fct_collapse(
      `Faixa etaria`,
      "Menos de 19 anos" = c("Menos de 10", "10 a 14", "15 a 19"),
      "Entre 20 e 64 anos" = c("20 a 24", "25 a 29", "30 a 34",
                               "35 a 39", "40 a 44", "45 a 49",
                               "50 a 54", "55 a 59", "60 a 64"),
      "Acima de 64 anos" = c("65 a 69", "Mais de 70")
    )
  )

## # A tibble: 1,836 x 6
##    `Faixa etaria`     Genero    Cor      `Nome UF` UF    Contagem
##    <fct>              <chr>     <chr>    <chr>     <chr>    <dbl>
##  1 Menos de 19 anos   Feminino  Parda    Acre      AC           4
##  2 Menos de 19 anos   Masculino Parda    Acre      AC           4
##  3 Menos de 19 anos   Feminino  Branca   Acre      AC           2
##  4 Menos de 19 anos   Feminino  Parda    Acre      AC           4
##  5 Menos de 19 anos   Masculino Branca   Acre      AC           6
##  6 Menos de 19 anos   Masculino Parda    Acre      AC          65
##  7 Menos de 19 anos   Masculino Preta    Acre      AC           1
##  8 Entre 20 e 64 anos Feminino  Indígena Acre      AC           1
##  9 Entre 20 e 64 anos Feminino  Parda    Acre      AC           4
## 10 Entre 20 e 64 anos Masculino Branca   Acre      AC           7
## # ... with 1,826 more rows
…
