Capítulo 10 Manipulação e transformação de strings com stringr | Introdução à Linguagem R: seus fundamentos e sua prática
…
Portanto, ao final da coleta desses nomes, inseríamos esses nomes em uma coluna de nosso data.frame, tendo como resultado algo parecido com a coluna origem, que se encontra na tabela periodo, e que pode ser recriada através dos comandos abaixo.

meses <- c("Janeiro", "Fevereiro", "Março", "Abril",
           "Maio", "Junho", "Julho", "Agosto",
           "Setembro", "Outubro", "Novembro", "Dezembro")
meses <- rep(meses, times = 6)
anos <- rep(2015:2020, each = 12)

periodo <- tibble(
  origem = str_c(str_c(meses, anos, sep = "_"), ".xslx")
)

periodo

## # A tibble: 72 x 1
##    origem             
##    <chr>              
##  1 Janeiro_2015.xslx  
##  2 Fevereiro_2015.xslx
##  3 Março_2015.xslx    
##  4 Abril_2015.xslx    
##  5 Maio_2015.xslx     
##  6 Junho_2015.xslx    
##  7 Julho_2015.xslx    
##  8 Agosto_2015.xslx   
##  9 Setembro_2015.xslx 
## 10 Outubro_2015.xslx  
## # ... with 62 more rows
…
Em momentos como esse, você pode tentar identificar se a parte final ou a parte inicial dos textos inclusos em sua coluna, são de alguma maneira, constantes. Ou seja, mesmo que o número de caracteres varie muito ao longo da coluna, talvez exista uma parte específica desses textos que sempre possui a mesma quantidade de caracteres.

No caso da coluna origem, temos três partes que são sempre constantes, que são a parte dos anos (mesmo que os anos variem, eles sempre são formados por 4 números, ou 4 caracteres), a parte da extensão do arquivo (.xlsx), e o underscore (_), que sempre separa as duas partes anteriores do mês em cada nome. Somando os caracteres dessas três partes, temos sempre 10 caracteres ao final do nome do arquivo, ao qual podemos eliminar para chegarmos a seção do texto que contém o nome do mês. Com isso, podemos utilizar a função str_length() para calcular o número total de caracteres de cada texto, e subtrair 10 desse valor, para chegarmos ao caractere que delimita o fim do mês em cada texto.

Podemos empregar a mesma linha de raciocínio, para chegarmos aos limites do intervalo que contém o ano em cada texto. Contudo, tanto o limite inicial quanto o limite final desse intervalo, variam. Logo, teremos de utilizar o resultado de str_length() para descobrirmos os dois limites dessa seção. Como estamos empregando os valores produzidos por str_length() em três locais diferentes, eu guardo o resultado dessa função em uma coluna denominada num, para não ter o trabalho de digitar repetidamente a função str_length().

periodo %>% 
  mutate(
    num = str_length(origem),
    mes = str_sub(origem, start = 1, end = num - 10),
    ano = str_sub(origem, start = num - 8, end = num - 5) %>% as.integer()
  )

## # A tibble: 72 x 4
##    origem                num mes         ano
##    <chr>               <int> <chr>     <int>
##  1 Janeiro_2015.xslx      17 Janeiro    2015
##  2 Fevereiro_2015.xslx    19 Fevereiro  2015
##  3 Março_2015.xslx        15 Março      2015
##  4 Abril_2015.xslx        15 Abril      2015
##  5 Maio_2015.xslx         14 Maio       2015
##  6 Junho_2015.xslx        15 Junho      2015
##  7 Julho_2015.xslx        15 Julho      2015
##  8 Agosto_2015.xslx       16 Agosto     2015
##  9 Setembro_2015.xslx     18 Setembro   2015
## 10 Outubro_2015.xslx      17 Outubro    2015
## # ... with 62 more rows
…
