Referências | Introdução à Linguagem R: seus fundamentos e sua prática
…
tab_tidy <- world_bank_pop %>% 
  pivot_longer(
    cols = matches("[0-9]{4}"),
    names_to = "ano",
    values_to = "valor"
  ) %>% 
  pivot_wider(
    id_cols = c("country", "ano"),
    names_from = "indicator",
    values_from = "valor"
  )

tab_tidy

## # A tibble: 4,752 x 6
##    country ano   SP.URB.TOTL SP.URB.GROW SP.POP.TOTL SP.POP.GROW
##    <chr>   <chr>       <dbl>       <dbl>       <dbl>       <dbl>
##  1 ABW     2000        42444      1.18         90853      2.06  
##  2 ABW     2001        43048      1.41         92898      2.23  
##  3 ABW     2002        43670      1.43         94992      2.23  
##  4 ABW     2003        44246      1.31         97017      2.11  
##  5 ABW     2004        44669      0.951        98737      1.76  
##  6 ABW     2005        44889      0.491       100031      1.30  
##  7 ABW     2006        44881     -0.0178      100832      0.798 
##  8 ABW     2007        44686     -0.435       101220      0.384 
##  9 ABW     2008        44375     -0.698       101353      0.131 
## 10 ABW     2009        44052     -0.731       101453      0.0986
## # ... with 4,742 more rows

7.1.C) Realizar o primeiro passo descrito no enunciado do item é muito simples com a função filter(). Porém, ainda assim, o formato no qual a base se encontra, torna o cálculo da variação muito trabalhoso. Porque nós teríamos que calcular a variação entre cada uma das colunas anuais. Como temos 18 anos diferentes em cada série histórica, precisaríamos calcular 17 variações diferentes. Isso significa que teríamos de construir 17 colunas diferentes com mutate() para chegarmos a esses números.

pop_total <- world_bank_pop %>% 
  filter(
    indicator == "SP.POP.TOTL"
  )

pop_total

## # A tibble: 264 x 20
##    country indicator      `2000`  `2001` `2002` `2003` `2004` `2005` `2006`
##    <chr>   <chr>           <dbl>   <dbl>  <dbl>  <dbl>  <dbl>  <dbl>  <dbl>
##  1 ABW     SP.POP.TOTL     90853  9.29e4 9.50e4 9.70e4 9.87e4 1.00e5 1.01e5
##  2 AFG     SP.POP.TOTL  20093756  2.10e7 2.20e7 2.31e7 2.41e7 2.51e7 2.59e7
##  3 AGO     SP.POP.TOTL  16440924  1.70e7 1.76e7 1.82e7 1.89e7 1.96e7 2.03e7
##  4 ALB     SP.POP.TOTL   3089027  3.06e6 3.05e6 3.04e6 3.03e6 3.01e6 2.99e6
##  5 AND     SP.POP.TOTL     65390  6.73e4 7.00e4 7.32e4 7.62e4 7.89e4 8.10e4
##  6 ARB     SP.POP.TOTL 283832016  2.90e8 2.96e8 3.02e8 3.09e8 3.16e8 3.24e8
##  7 ARE     SP.POP.TOTL   3154925  3.33e6 3.51e6 3.74e6 4.09e6 4.58e6 5.24e6
##  8 ARG     SP.POP.TOTL  37057452  3.75e7 3.79e7 3.83e7 3.87e7 3.91e7 3.96e7
##  9 ARM     SP.POP.TOTL   3069588  3.05e6 3.03e6 3.02e6 3.00e6 2.98e6 2.96e6
## 10 ASM     SP.POP.TOTL     57521  5.82e4 5.87e4 5.91e4 5.93e4 5.91e4 5.86e4
## # ... with 254 more rows, and 11 more variables: 2007 <dbl>, 2008 <dbl>,
## #   2009 <dbl>, 2010 <dbl>, 2011 <dbl>, 2012 <dbl>, 2013 <dbl>,
## #   2014 <dbl>, 2015 <dbl>, 2016 <dbl>, 2017 <dbl>
…
pop_total <- pop_total %>% 
  pivot_longer(
    cols = matches("[0-9]{4}"),
    names_to = "ano",
    values_to = "valor"
  ) %>% 
  group_by(country) %>% 
  mutate(
    variacao = valor - lag(valor)
  )

pop_total

## # A tibble: 4,752 x 5
## # Groups:   country [264]
##    country indicator   ano    valor variacao
##    <chr>   <chr>       <chr>  <dbl>    <dbl>
##  1 ABW     SP.POP.TOTL 2000   90853       NA
##  2 ABW     SP.POP.TOTL 2001   92898     2045
##  3 ABW     SP.POP.TOTL 2002   94992     2094
##  4 ABW     SP.POP.TOTL 2003   97017     2025
##  5 ABW     SP.POP.TOTL 2004   98737     1720
##  6 ABW     SP.POP.TOTL 2005  100031     1294
##  7 ABW     SP.POP.TOTL 2006  100832      801
##  8 ABW     SP.POP.TOTL 2007  101220      388
##  9 ABW     SP.POP.TOTL 2008  101353      133
## 10 ABW     SP.POP.TOTL 2009  101453      100
## # ... with 4,742 more rows
…
