Referências | Introdução à Linguagem R: seus fundamentos e sua prática
…
Logo, podemos inferir que o problema gerado na importação, se trata novamente de um chute errado da função read_csv(). Pois a função interpretou que as duas colunas do arquivo, pertencem aos tipos double e logical, respectivamente, sendo que a segunda coluna é, de forma clara, do tipo Date, ao observarmos a sua porção à frente da linha 1001.

Lembre-se que, as funções do pacote readr vão, por definição, utilizar as 1000 primeiras linhas do arquivo para advinhar o tipo de dado contido em cada coluna do arquivo. Devido ao fato de que a mudança drástica nos dados armazenados em challenge.csv, ocorre após essas 1000 primeiras linhas, a função read_csv() acaba não percebendo o seu erro. Por esses motivos, precisamos sobrepor essa decisão, ao definirmos explicitamente os tipos desejados para cada coluna no argumento col_types.

read_csv(
  readr_example("challenge.csv"),
  col_types = cols(
    x = col_double(),
    y = col_date()
  )
)

## # A tibble: 2,000 x 2
##        x y     
##    <dbl> <date>
##  1   404 NA    
##  2  4172 NA    
##  3  3004 NA    
##  4   787 NA    
##  5    37 NA    
##  6  2332 NA    
##  7  2489 NA    
##  8  1449 NA    
##  9  3665 NA    
## 10  3863 NA    
## # ... with 1,990 more rows
…
### Lembre-se que o caminho até o arquivo
### será diferente em sua máquina.
### Pois muito provavelmente você não possui um
### um usuário chamado Pedro.
readxl::read_excel(
  "C:/Users/Pedro/Downloads/emater_icms_solidario.xlsx",
  range = "A6:P858", 
  col_names = nomes
)

## # A tibble: 853 x 16
##    Semestre      Ano Municipio         Cod_IBGE Area_2017 Area_2018 Area_Media
##    <chr>       <dbl> <chr>             <chr>        <dbl>     <dbl>      <dbl>
##  1 1° semestre  2020 Abadia dos Doura~ 3100104      5192.     3612.      4402.
##  2 1° semestre  2020 Abaeté            3100203      4800      2042       3421 
##  3 1° semestre  2020 Abre Campo        3100302      7116      4744       5930
##  4 1° semestre  2020 Acaiaca           3100401       104.      109.       107.
##  5 1° semestre  2020 Açucena           3100500     12525     12028.     12277.
##  6 1° semestre  2020 Água Boa          3100609      5185      4860.      5022.
##  7 1° semestre  2020 Água Comprida     3100708     36750     47020      41885 
##  8 1° semestre  2020 Aguanil           3100807      4492.     4728.      4610.
##  9 1° semestre  2020 Águas Formosas    3100906       893       904        898.
## 10 1° semestre  2020 Águas Vermelhas   3101003      3242      3487       3364.
## # ... with 843 more rows, and 8 more variables: Pastagens_2006 <dbl>, 
## #   Area_Total <dbl>, N_pequeno_prod <dbl>, Extensao_Rural <dbl>, 
## #   PM_Fundo_Rotativo <dbl>, PM_Mecanizacao_Agr <dbl>, PM_Sementes_Mudas <dbl>, 
## #   PM_Calcario_Fertilizante <dbl>, PM_Apoio_Comercializacao <dbl>
…
