Referências | Introdução à Linguagem R: seus fundamentos e sua prática
…
      Show table of contents

Referências

Capítulo 16 - Functional programming com purrr

Exercício 1

16.1.A) Como desejamos calcular a média apenas das colunas númericas da tabela diamonds, podemos primeiro selecionar essas colunas específicas, antes de executar a função map_dbl(). Para isso, podemos utilizar a função select() que introduzimos no capítulo 5. Para selecionarmos todas as colunas numéricas, utilizamos a função where() dentro de select(), como demonstrado abaixo:

ggplot2::diamonds %>% 
  select(where(is.numeric))

## # A tibble: 53,940 x 7
##    carat depth table price     x     y     z
##    <dbl> <dbl> <dbl> <int> <dbl> <dbl> <dbl>
##  1  0.23  61.5    55   326  3.95  3.98  2.43
##  2  0.21  59.8    61   326  3.89  3.84  2.31
##  3  0.23  56.9    65   327  4.05  4.07  2.31
##  4  0.29  62.4    58   334  4.2   4.23  2.63
##  5  0.31  63.3    58   335  4.34  4.35  2.75
##  6  0.24  62.8    57   336  3.94  3.96  2.48
##  7  0.24  62.3    57   336  3.95  3.98  2.47
##  8  0.26  61.9    55   337  4.07  4.11  2.53
##  9  0.22  65.1    61   337  3.87  3.78  2.49
## 10  0.23  59.4    61   338  4     4.05  2.39
## # ... with 53,930 more rows
…
##        carat        depth        table        price            x 
##    0.7979397   61.7494049   57.4571839 3932.7997219    5.7311572 
##            y            z 
##    5.7345260    3.5387338

16.1.B) Podemos utilizar basicamente o mesmo processo do item anterior para responder esta questão. Basta selecionarmos todas as colunas não numéricas da tabela diamonds e, repassarmos o resultado para uma função map.

Para selecionarmos todas as colunas não numéricas, podemos apenas inverter o teste lógico (com o operador !) que utilizamos dentro da função where() para descobrirmos todas as colunas não numéricas.

ggplot2::diamonds %>% 
  select(where(~!is.numeric(.)))

## # A tibble: 53,940 x 3
##    cut       color clarity
##    <ord>     <ord> <ord>  
##  1 Ideal     E     SI2    
##  2 Premium   E     SI1    
##  3 Good      E     VS1    
##  4 Premium   I     VS2    
##  5 Good      J     SI2    
##  6 Very Good J     VVS2   
##  7 Very Good I     VVS1   
##  8 Very Good H     SI1    
##  9 Fair      E     VS2    
## 10 Very Good H     VS1    
## # ... with 53,930 more rows
…
