Referências | Introdução à Linguagem R: seus fundamentos e sua prática
…
## Warning: 1 parsing failure.
##  row col expected actual
## 2632  -- a number  Other

colnames(custo)[1:2] <- c(
  "nome_universidade", "custo_anual"
)

custo

## # A tibble: 2,973 x 4
##    nome_universidade                    custo_anual  anos custo_total
##    <chr>                                      <dbl> <dbl>       <dbl>
##  1 Aaniiih Nakoda College                      2380     2        4760
##  2 Abilene Christian University               45200     4      180800
##  3 Abraham Baldwin Agricultural College       21024     2       42048
##  4 Academy College                            17661     2       35322
##  5 Academy of Art University                  44458     4      177832
##  6 Adams State University                     29238     4      116952
##  7 Adelphi University                         54690     4      218760
##  8 Adirondack Community College               21595     2       43190
##  9 Adrian College                             48405     4      193620
## 10 Advanced Technology Institute              13680     2       27360
## # ... with 2,963 more rows
…
Com essas informações em mãos, podemos utilizar a função inner_join() para unir as duas tabelas criadas (salario e custo) em uma só. Em seguida, precisamos apenas dividir o custo total do curso pela renda esperada para adquirir uma estimativa dos anos de trabalho necessários para repor o investimento aplicado no curso. Como você pode ver abaixo, um aluno formado na Adams State University levaria em torno de 2,63 anos (isto é, \(2,63 \times 365 \approx 960\) dias) de trabalho para recompor os valores dispendidos em sua graduação.

custo %>% 
  inner_join(
    salario,
    by = "nome_universidade"
  ) %>% 
  mutate(
    anos_necessarios = custo_total / salario_inicio_carreira
  )

## # A tibble: 728 x 6
##    nome_universidade        custo_anual  anos custo_total salario_inicio_c~
##    <chr>                          <dbl> <dbl>       <dbl>             <dbl>
##  1 Adams State University         29238     4      116952             44400
##  2 Adventist University of~       19350     4       77400             51600
##  3 Agnes Scott College            53490     4      213960             46000
##  4 Alabama State University       24818     4       99272             39800
##  5 Alaska Pacific Universi~       28130     4      112520             50300
##  6 Albany College of Pharm~       46025     4      184100             81000
##  7 Albertus Magnus College        45260     4      181040             49700
##  8 Albion College                 58155     4      232620             52100
##  9 Alcorn State University        16752     4       67008             40900
## 10 Allen College                  27252     4      109008             51600
## # ... with 718 more rows, and 1 more variable: anos_necessarios <dbl>
…
