Referências | Introdução à Linguagem R: seus fundamentos e sua prática
…
Exercício 2

4.2.A) Primeiro, identifique as principais colunas que são de seu interesse para responder a pergunta estipulada na questão. Para responder a pergunta, precisamos medir em quanto os preços cobrados por cada universidade aumentou e, para isso, não precisaremos das colunas net_cost, income_lvl e campus. Por isso, podemos rapidamente eliminar essas colunas com um select().

custos <- dados %>%
  select(-net_cost, -income_lvl, -campus)

custos

## # A tibble: 209,012 x 4
##    name                              state total_price  year
##    <chr>                             <chr>       <dbl> <dbl>
##  1 Piedmont International University NC          20174  2016
##  2 Piedmont International University NC          20174  2016
##  3 Piedmont International University NC          20174  2016
##  4 Piedmont International University NC          20174  2016
##  5 Piedmont International University NC          20514  2017
##  6 Piedmont International University NC          20514  2017
##  7 Piedmont International University NC          20514  2017
##  8 Piedmont International University NC          20514  2017
##  9 Piedmont International University NC          20514  2017
## 10 Piedmont International University NC          20829  2018
## # ... with 209,002 more rows

Agora, temos um problema importante a ser analisado: é possível que haja observações repetidas? Ou, será que há várias linhas descrevendo uma mesma universidade em um mesmo ano? As primeiras linhas da tabela acima já nos mostram que sim, há repetição de observações ao longo da base. Para corrigir essa repetição podemos aplicar a função distinct() sobre a base.

custos <- custos %>% 
  distinct()

custos

## # A tibble: 40,991 x 4
##    name                              state total_price  year
##    <chr>                             <chr>       <dbl> <dbl>
##  1 Piedmont International University NC          20174  2016
##  2 Piedmont International University NC          20514  2017
##  3 Piedmont International University NC          20829  2018
##  4 Piedmont International University NC          23000  2016
##  5 Piedmont International University NC          26430  2017
##  6 Piedmont International University NC          26870  2018
##  7 Kaplan University-Milwaukee       WI          22413  2017
##  8 Kaplan University-Milwaukee       WI          22492  2018
##  9 Kaplan University-Indianapolis    IN          22413  2017
## 10 Kaplan University-Indianapolis    IN          22492  2018
## # ... with 40,981 more rows
…
São poucas as universidades que possuem mais de um preço para um mesmo ano. Contudo, precisamos que cada ano de cada universidade possua um único preço. Logo, temos que encontrar um método que combine esses dois valores em um só. Calcular a média desses dois valores é uma solução razoável. Repare abaixo, que aplicamos um group_by() sobre custos, antes do summarise(), pois desejamos aplicar a média sobre total_price, dentro de cada ano (year) de cada universidade (name):

custos <- custos %>% 
  group_by(name, year) %>% 
  summarise(mean_price = mean(total_price))

## `summarise()` has grouped output by 'name'. You can override using the `.groups` argument.

custos

## # A tibble: 30,066 x 3
## # Groups:   name [3,664]
##    name                          year mean_price
##    <chr>                        <dbl>      <dbl>
##  1 Aaniiih Nakoda College        2010      17030
##  2 Aaniiih Nakoda College        2011      17030
##  3 Aaniiih Nakoda College        2012      17030
##  4 Aaniiih Nakoda College        2013      17030
##  5 Aaniiih Nakoda College        2014      17030
##  6 Aaniiih Nakoda College        2015      17030
##  7 Aaniiih Nakoda College        2016      17030
##  8 Aaniiih Nakoda College        2017      17030
##  9 Aaniiih Nakoda College        2018      17030
## 10 Abilene Christian University  2011      38250
## # ... with 30,056 more rows

Resolvido esse problema, podemos nos preocupar em calcular a variação anual do preço de cada universidade. As funções lead() e lag() são muito úteis para compararmos o valor de um determinado ano ao seu par do ano anterior. Porém, para que lag() capture corretamente o valor do ano anterior, é fundamental que esses anos estejam organizados dentro de cada universidade, em uma ordem crescente, ao longo de toda a base. Por esse motivo, um arrange() é aplicado sobre a base antes do mutate().

custos <- custos %>% 
  arrange(name, year) %>% 
  mutate(
    var_price = mean_price - lag(mean_price)
  ) %>% 
  ungroup()

custos

## # A tibble: 30,066 x 4
##    name                          year mean_price var_price
##    <chr>                        <dbl>      <dbl>     <dbl>
##  1 Aaniiih Nakoda College        2010      17030        NA
##  2 Aaniiih Nakoda College        2011      17030         0
##  3 Aaniiih Nakoda College        2012      17030         0
##  4 Aaniiih Nakoda College        2013      17030         0
##  5 Aaniiih Nakoda College        2014      17030         0
##  6 Aaniiih Nakoda College        2015      17030         0
##  7 Aaniiih Nakoda College        2016      17030         0
##  8 Aaniiih Nakoda College        2017      17030         0
##  9 Aaniiih Nakoda College        2018      17030         0
## 10 Abilene Christian University  2011      38250        NA
## # ... with 30,056 more rows
…
