Respostas dos exercícios de cada capítulo | Introdução à Linguagem R: seus fundamentos e sua prática
…
Logo, podemos inferir que o problema gerado na importação, se trata novamente de um chute errado da função read_csv(). Pois a função interpretou que as duas colunas do arquivo, pertencem aos tipos double e logical, respectivamente, sendo que a segunda coluna é, de forma clara, do tipo Date, ao observarmos a sua porção à frente da linha 1001.

Lembre-se que, as funções do pacote readr vão, por definição, utilizar as 1000 primeiras linhas do arquivo para advinhar o tipo de dado contido em cada coluna do arquivo. Devido ao fato de que a mudança drástica nos dados armazenados em challenge.csv, ocorre após essas 1000 primeiras linhas, a função read_csv() acaba não percebendo o seu erro. Por esses motivos, precisamos sobrepor essa decisão, ao definirmos explicitamente os tipos desejados para cada coluna no argumento col_types.

read_csv(
  readr_example("challenge.csv"),
  col_types = cols(
    x = col_double(),
    y = col_date()
  )
)

## # A tibble: 2,000 x 2
##        x y         
##    <dbl> <date>    
##  1   404 NA        
##  2  4172 NA        
##  3  3004 NA        
##  4   787 NA        
##  5    37 NA        
##  6  2332 NA        
##  7  2489 NA        
##  8  1449 NA        
##  9  3665 NA        
## 10  3863 NA        
## # ... with 1,990 more rows
…
4.2.A) Primeiro, identifique as principais colunas que são de seu interesse para responder a pergunta estipulada na questão. Para responder a pergunta, precisamos medir em quanto os preços cobrados por cada universidade aumentou e, para isso, não precisaremos das colunas net_cost, income_lvl e campus. Por isso, podemos rapidamente eliminar essas colunas com um select().

custos <- dados %>%
  select(-net_cost, -income_lvl, -campus)

custos

## # A tibble: 209,012 x 4
##    name                              state total_price  year
##    <chr>                             <chr>       <dbl> <dbl>
##  1 Piedmont International University NC          20174  2016
##  2 Piedmont International University NC          20174  2016
##  3 Piedmont International University NC          20174  2016
##  4 Piedmont International University NC          20174  2016
##  5 Piedmont International University NC          20514  2017
##  6 Piedmont International University NC          20514  2017
##  7 Piedmont International University NC          20514  2017
##  8 Piedmont International University NC          20514  2017
##  9 Piedmont International University NC          20514  2017
## 10 Piedmont International University NC          20829  2018
## # ... with 209,002 more rows

Agora, temos um problema importante a ser analisado: é possível que haja observações repetidas? Ou, será que há várias linhas descrevendo uma mesma universidade em um mesmo ano? As primeiras linhas da tabela acima já nos mostram que sim, há repetição de observações ao longo da base. Para corrigir essa repetição podemos aplicar a função distinct() sobre a base.

custos <- custos %>% 
  distinct()

custos

## # A tibble: 40,991 x 4
##    name                              state total_price  year
##    <chr>                             <chr>       <dbl> <dbl>
##  1 Piedmont International University NC          20174  2016
##  2 Piedmont International University NC          20514  2017
##  3 Piedmont International University NC          20829  2018
##  4 Piedmont International University NC          23000  2016
##  5 Piedmont International University NC          26430  2017
##  6 Piedmont International University NC          26870  2018
##  7 Kaplan University-Milwaukee       WI          22413  2017
##  8 Kaplan University-Milwaukee       WI          22492  2018
##  9 Kaplan University-Indianapolis    IN          22413  2017
## 10 Kaplan University-Indianapolis    IN          22492  2018
## # ... with 40,981 more rows
…
São poucas as universidades que possuem mais de um preço para um mesmo ano. Contudo, precisamos que cada ano de cada universidade possua um único preço. Logo, temos que encontrar um método que combine esses dois valores em um só. Calcular a média desses dois valores é uma solução razoável. Repare abaixo, que aplicamos um group_by() sobre custos, antes do summarise(), pois desejamos aplicar a média sobre total_price, dentro de cada ano (year) de cada universidade (name):

custos <- custos %>% 
  group_by(name, year) %>% 
  summarise(mean_price = mean(total_price))

## `summarise()` has grouped output by 'name'. You can override using the `.groups` argument.

custos

## # A tibble: 30,066 x 3
## # Groups:   name [3,664]
##    name                          year mean_price
##    <chr>                        <dbl>      <dbl>
##  1 Aaniiih Nakoda College        2010      17030
##  2 Aaniiih Nakoda College        2011      17030
##  3 Aaniiih Nakoda College        2012      17030
##  4 Aaniiih Nakoda College        2013      17030
##  5 Aaniiih Nakoda College        2014      17030
##  6 Aaniiih Nakoda College        2015      17030
##  7 Aaniiih Nakoda College        2016      17030
##  8 Aaniiih Nakoda College        2017      17030
##  9 Aaniiih Nakoda College        2018      17030
## 10 Abilene Christian University  2011      38250
## # ... with 30,056 more rows

Resolvido esse problema, podemos nos preocupar em calcular a variação anual do preço de cada universidade. As funções lead() e lag() são muito úteis para compararmos o valor de um determinado ano ao seu par do ano anterior. Porém, para que lag() capture corretamente o valor do ano anterior, é fundamental que esses anos estejam organizados dentro de cada universidade, em uma ordem crescente, ao longo de toda a base. Por esse motivo, um arrange() é aplicado sobre a base antes do mutate().

custos <- custos %>% 
  arrange(name, year) %>% 
  mutate(
    var_price = mean_price - lag(mean_price)
  ) %>% 
  ungroup()

custos

## # A tibble: 30,066 x 4
##    name                          year mean_price var_price
##    <chr>                        <dbl>      <dbl>     <dbl>
##  1 Aaniiih Nakoda College        2010      17030        NA
##  2 Aaniiih Nakoda College        2011      17030         0
##  3 Aaniiih Nakoda College        2012      17030         0
##  4 Aaniiih Nakoda College        2013      17030         0
##  5 Aaniiih Nakoda College        2014      17030         0
##  6 Aaniiih Nakoda College        2015      17030         0
##  7 Aaniiih Nakoda College        2016      17030         0
##  8 Aaniiih Nakoda College        2017      17030         0
##  9 Aaniiih Nakoda College        2018      17030         0
## 10 Abilene Christian University  2011      38250        NA
## # ... with 30,056 more rows
…
## Warning: 1 parsing failure.
##  row col expected actual
## 2632  -- a number  Other

colnames(custo)[1:2] <- c(
  "nome_universidade", "custo_anual"
)

custo

## # A tibble: 2,973 x 4
##    nome_universidade                    custo_anual  anos custo_total
##    <chr>                                      <dbl> <dbl>       <dbl>
##  1 Aaniiih Nakoda College                      2380     2        4760
##  2 Abilene Christian University               45200     4      180800
##  3 Abraham Baldwin Agricultural College       21024     2       42048
##  4 Academy College                            17661     2       35322
##  5 Academy of Art University                  44458     4      177832
##  6 Adams State University                     29238     4      116952
##  7 Adelphi University                         54690     4      218760
##  8 Adirondack Community College               21595     2       43190
##  9 Adrian College                             48405     4      193620
## 10 Advanced Technology Institute              13680     2       27360
## # ... with 2,963 more rows
…
Com essas informações em mãos, podemos utilizar a função inner_join() para unir as duas tabelas criadas (salario e custo) em uma só. Em seguida, precisamos apenas dividir o custo total do curso pela renda esperada para adquirir uma estimativa dos anos de trabalho necessários para repor o investimento aplicado no curso. Como você pode ver abaixo, um aluno formado na Adams State University levaria em torno de 2,63 anos (isto é, \(2,63 \times 365 \approx 960\) dias) de trabalho para recompor os valores dispendidos em sua graduação.

custo %>% 
  inner_join(
    salario,
    by = "nome_universidade"
  ) %>% 
  mutate(
    anos_necessarios = custo_total / salario_inicio_carreira
  )

## # A tibble: 728 x 6
##    nome_universidade        custo_anual  anos custo_total salario_inicio_c~
##    <chr>                          <dbl> <dbl>       <dbl>             <dbl>
##  1 Adams State University         29238     4      116952             44400
##  2 Adventist University of~       19350     4       77400             51600
##  3 Agnes Scott College            53490     4      213960             46000
##  4 Alabama State University       24818     4       99272             39800
##  5 Alaska Pacific Universi~       28130     4      112520             50300
##  6 Albany College of Pharm~       46025     4      184100             81000
##  7 Albertus Magnus College        45260     4      181040             49700
##  8 Albion College                 58155     4      232620             52100
##  9 Alcorn State University        16752     4       67008             40900
## 10 Allen College                  27252     4      109008             51600
## # ... with 718 more rows, and 1 more variable: anos_necessarios <dbl>
…
tab_tidy <- world_bank_pop %>% 
  pivot_longer(
    cols = matches("[0-9]{4}"),
    names_to = "ano",
    values_to = "valor"
  ) %>% 
  pivot_wider(
    id_cols = c("country", "ano"),
    names_from = "indicator",
    values_from = "valor"
  )

tab_tidy

## # A tibble: 4,752 x 6
##    country ano   SP.URB.TOTL SP.URB.GROW SP.POP.TOTL SP.POP.GROW
##    <chr>   <chr>       <dbl>       <dbl>       <dbl>       <dbl>
##  1 ABW     2000        42444      1.18         90853      2.06  
##  2 ABW     2001        43048      1.41         92898      2.23  
##  3 ABW     2002        43670      1.43         94992      2.23  
##  4 ABW     2003        44246      1.31         97017      2.11  
##  5 ABW     2004        44669      0.951        98737      1.76  
##  6 ABW     2005        44889      0.491       100031      1.30  
##  7 ABW     2006        44881     -0.0178      100832      0.798 
##  8 ABW     2007        44686     -0.435       101220      0.384 
##  9 ABW     2008        44375     -0.698       101353      0.131 
## 10 ABW     2009        44052     -0.731       101453      0.0986
## # ... with 4,742 more rows

7.1.C) Realizar o primeiro passo descrito no enunciado do item é muito simples com a função filter(). Porém, ainda assim, o formato no qual a base se encontra, torna o cálculo da variação muito trabalhoso. Porque nós teríamos que calcular a variação entre cada uma das colunas anuais. Como temos 18 anos diferentes em cada série histórica, precisaríamos calcular 17 variações diferentes. Isso significa que teríamos de construir 17 colunas diferentes com mutate() para chegarmos a esses números.

pop_total <- world_bank_pop %>% 
  filter(
    indicator == "SP.POP.TOTL"
  )

pop_total

## # A tibble: 264 x 20
##    country indicator   `2000`  `2001`  `2002`  `2003`  `2004` `2005` `2006`
##    <chr>   <chr>        <dbl>   <dbl>   <dbl>   <dbl>   <dbl>  <dbl>  <dbl>
##  1 ABW     SP.POP.TO~  9.09e4  9.29e4  9.50e4  9.70e4  9.87e4 1.00e5 1.01e5
##  2 AFG     SP.POP.TO~  2.01e7  2.10e7  2.20e7  2.31e7  2.41e7 2.51e7 2.59e7
##  3 AGO     SP.POP.TO~  1.64e7  1.70e7  1.76e7  1.82e7  1.89e7 1.96e7 2.03e7
##  4 ALB     SP.POP.TO~  3.09e6  3.06e6  3.05e6  3.04e6  3.03e6 3.01e6 2.99e6
##  5 AND     SP.POP.TO~  6.54e4  6.73e4  7.00e4  7.32e4  7.62e4 7.89e4 8.10e4
##  6 ARB     SP.POP.TO~  2.84e8  2.90e8  2.96e8  3.02e8  3.09e8 3.16e8 3.24e8
##  7 ARE     SP.POP.TO~  3.15e6  3.33e6  3.51e6  3.74e6  4.09e6 4.58e6 5.24e6
##  8 ARG     SP.POP.TO~  3.71e7  3.75e7  3.79e7  3.83e7  3.87e7 3.91e7 3.96e7
##  9 ARM     SP.POP.TO~  3.07e6  3.05e6  3.03e6  3.02e6  3.00e6 2.98e6 2.96e6
## 10 ASM     SP.POP.TO~  5.75e4  5.82e4  5.87e4  5.91e4  5.93e4 5.91e4 5.86e4
## # ... with 254 more rows, and 11 more variables: 2007 <dbl>, 2008 <dbl>,
## #   2009 <dbl>, 2010 <dbl>, 2011 <dbl>, 2012 <dbl>, 2013 <dbl>,
## #   2014 <dbl>, 2015 <dbl>, 2016 <dbl>, 2017 <dbl>
…
pop_total <- pop_total %>% 
  pivot_longer(
    cols = matches("[0-9]{4}"),
    names_to = "ano",
    values_to = "valor"
  ) %>% 
  group_by(country) %>% 
  mutate(
    variacao = valor - lag(valor)
  )

pop_total

## # A tibble: 4,752 x 5
## # Groups:   country [264]
##    country indicator   ano    valor variacao
##    <chr>   <chr>       <chr>  <dbl>    <dbl>
##  1 ABW     SP.POP.TOTL 2000   90853       NA
##  2 ABW     SP.POP.TOTL 2001   92898     2045
##  3 ABW     SP.POP.TOTL 2002   94992     2094
##  4 ABW     SP.POP.TOTL 2003   97017     2025
##  5 ABW     SP.POP.TOTL 2004   98737     1720
##  6 ABW     SP.POP.TOTL 2005  100031     1294
##  7 ABW     SP.POP.TOTL 2006  100832      801
##  8 ABW     SP.POP.TOTL 2007  101220      388
##  9 ABW     SP.POP.TOTL 2008  101353      133
## 10 ABW     SP.POP.TOTL 2009  101453      100
## # ... with 4,742 more rows
…
