Capítulo 7 Tidy Data: Uma abordagem para organizar os seus dados | Introdução à Linguagem R: seus fundamentos e sua prática
…
7.3.1 Adicionando linhas à sua tabela com pivot_longer()

Atualmente, a tabela relig_income possui poucas linhas e muitas colunas, e por isso, ela adquire um aspecto visual de “larga.” Como eu disse, seria muito interessante para você, que transformasse essa tabela, de modo a agrupar as diferentes faixas de níveis salarias em menos colunas. Logo, se estamos falando em reduzir o número de colunas, estamos querendo alongar a base, ou dito de outra forma, aumentar o número de linhas da base. Para fazermos isso, devemos utilizar a função pivot_longer().

Essa função possui três argumentos principais: 1) cols, os nomes das colunas que você deseja transformar em linhas; 2) names_to, o nome da nova coluna onde serão alocados os nomes, ou os rótulos das colunas que você definiu em cols; 3) values_to, o nome da nova coluna onde serão alocados os valores da sua tabela, que se encontram nas colunas que você definiu em cols. Como nós queremos transformar todas as colunas da tabela relig_income, que contém faixas salariais, eu posso simplesmente colocar no argumento cols, um símbolo de menos antes do nome da coluna religion, que é a única coluna da tabela, que não possui esse tipo de informação. Ou seja, dessa forma, eu estou dizendo à pivot_longer(), para transformar todas as colunas (exceto a coluna religion).

relig_income %>% 
  pivot_longer(
    cols = -religion,
    names_to = "income",
    values_to = "values"
  )

## # A tibble: 180 x 3
##    religion income             values
##    <chr>    <chr>               <dbl>
##  1 Agnostic <$10k                  27
##  2 Agnostic $10-20k                34
##  3 Agnostic $20-30k                60
##  4 Agnostic $30-40k                81
##  5 Agnostic $40-50k                76
##  6 Agnostic $50-75k               137
##  7 Agnostic $75-100k              122
##  8 Agnostic $100-150k             109
##  9 Agnostic >150k                  84
## 10 Agnostic Don't know/refused     96
## # ... with 170 more rows
…
relig_income %>% 
  pivot_longer(
    cols = matches("\\d"),
    names_to = "income",
    values_to = "values"
  )

Portanto, sempre que utilizar a função pivot_longer(), duas novas colunas serão criadas. Em uma dessas colunas (values_to), a função irá guardar os valores que se encontravam nas colunas que você transformou em linhas. Já na outra coluna (names_to), a função irá criar rótulos em cada linha, que lhe informam de qual coluna (que você transformou em linhas) veio o valor disposto na coluna anterior (values_to). Você sempre deve definir o nome dessas duas novas colunas, como texto, isto é, sempre forneça os nomes dessas colunas, entre aspas duplas ou simples.

Um outro exemplo, seria a tabela billboard, que também está disponível no pacote tidyr. Nessa tabela, temos a posição que diversas músicas ocuparam na lista da Billboard das 100 músicas mais populares no mundo, durante o ano de 2000. Portanto a posição que cada uma dessas músicas ocuparam nessa lista, ao longo do tempo, é a unidade básica que está sendo tratada nessa tabela. Agora, repare que a tabela possui muitas colunas (79 no total), onde em cada uma delas, temos a posição de uma música em uma dada semana desde a sua entrada na lista.

billboard

## # A tibble: 317 x 79
##    artist   track    date.entered   wk1   wk2   wk3   wk4   wk5   wk6   wk7
##    <chr>    <chr>    <date>       <dbl> <dbl> <dbl> <dbl> <dbl> <dbl> <dbl>
##  1 2 Pac    Baby Do~ 2000-02-26      87    82    72    77    87    94    99
##  2 2Ge+her  The Har~ 2000-09-02      91    87    92    NA    NA    NA    NA
##  3 3 Doors~ Krypton~ 2000-04-08      81    70    68    67    66    57    54
##  4 3 Doors~ Loser    2000-10-21      76    76    72    69    67    65    55
##  5 504 Boyz Wobble ~ 2000-04-15      57    34    25    17    17    31    36
##  6 98^0     Give Me~ 2000-08-19      51    39    34    26    26    19     2
##  7 A*Teens  Dancing~ 2000-07-08      97    97    96    95   100    NA    NA
##  8 Aaliyah  I Don't~ 2000-01-29      84    62    51    41    38    35    35
##  9 Aaliyah  Try Aga~ 2000-03-18      59    53    38    28    21    18    16
## 10 Adams, ~ Open My~ 2000-08-26      76    76    74    69    68    67    61
## # ... with 307 more rows, and 69 more variables: wk8 <dbl>, wk9 <dbl>,
## #   wk10 <dbl>, wk11 <dbl>, wk12 <dbl>, wk13 <dbl>, wk14 <dbl>,
## #   wk15 <dbl>, wk16 <dbl>, wk17 <dbl>, wk18 <dbl>, wk19 <dbl>,
## #   wk20 <dbl>, wk21 <dbl>, wk22 <dbl>, wk23 <dbl>, wk24 <dbl>,
## #   wk25 <dbl>, wk26 <dbl>, wk27 <dbl>, wk28 <dbl>, wk29 <dbl>,
## #   wk30 <dbl>, wk31 <dbl>, wk32 <dbl>, wk33 <dbl>, wk34 <dbl>,
## #   wk35 <dbl>, wk36 <dbl>, wk37 <dbl>, wk38 <dbl>, wk39 <dbl>,
## #   wk40 <dbl>, wk41 <dbl>, wk42 <dbl>, wk43 <dbl>, wk44 <dbl>,
## #   wk45 <dbl>, wk46 <dbl>, wk47 <dbl>, wk48 <dbl>, wk49 <dbl>,
…
billboard_long <- billboard %>% 
  pivot_longer(
    cols = starts_with("wk"),
    names_to = "week",
    values_to = "position"
  )

billboard_long

## # A tibble: 24,092 x 5
##    artist track                   date.entered week  position
##    <chr>  <chr>                   <date>       <chr>    <dbl>
##  1 2 Pac  Baby Don't Cry (Keep... 2000-02-26   wk1         87
##  2 2 Pac  Baby Don't Cry (Keep... 2000-02-26   wk2         82
##  3 2 Pac  Baby Don't Cry (Keep... 2000-02-26   wk3         72
##  4 2 Pac  Baby Don't Cry (Keep... 2000-02-26   wk4         77
##  5 2 Pac  Baby Don't Cry (Keep... 2000-02-26   wk5         87
##  6 2 Pac  Baby Don't Cry (Keep... 2000-02-26   wk6         94
##  7 2 Pac  Baby Don't Cry (Keep... 2000-02-26   wk7         99
##  8 2 Pac  Baby Don't Cry (Keep... 2000-02-26   wk8         NA
##  9 2 Pac  Baby Don't Cry (Keep... 2000-02-26   wk9         NA
## 10 2 Pac  Baby Don't Cry (Keep... 2000-02-26   wk10        NA
## # ... with 24,082 more rows
…
set.seed(1)
vendas <- tibble(
    ano = sample(2010:2020, size = 10000, replace = TRUE),
    mes = sample(1:12, size = 10000, replace = TRUE),
    dia = sample(1:31, size = 10000, replace = TRUE),
    usuario = sample(nomes, size = 10000, replace = TRUE),
    valor = rnorm(10000, mean = 5000, sd = 1600),
    produtoid = sample(produto, size = 10000, replace = TRUE)
  ) %>% 
  arrange(ano, mes, dia, usuario)

vendas

## # A tibble: 10,000 x 6
##      ano   mes   dia usuario  valor produtoid
##    <int> <int> <int> <chr>    <dbl> <chr>    
##  1  2010     1     1 Ana      3907. 10104    
##  2  2010     1     1 Henrique 6139. 10104    
##  3  2010     1     2 Henrique 5510. 10013    
##  4  2010     1     3 Ana      5296. 10555    
##  5  2010     1     3 Letícia  3525. 10555    
##  6  2010     1     4 Ana      5102. 10555    
##  7  2010     1     4 Eduardo  6051. 10013    
##  8  2010     1     4 Letícia  4600. 10032    
##  9  2010     1     5 Paulo    5869. 10104    
## 10  2010     1     6 Ana      7188. 10013    
## # ... with 9,990 more rows
…
vendas_wide <- vendas %>% 
  pivot_wider(
    id_cols = c("ano", "mes", "dia", "produtoid"),
    names_from = usuario,
    values_from = valor
  )

## Warning: Values are not uniquely identified; output will contain list-cols.
## * Use `values_fn = list` to suppress this warning.
## * Use `values_fn = length` to identify where the duplicates arise
## * Use `values_fn = {summary_fun}` to summarise duplicates

vendas_wide

## # A tibble: 7,845 x 9
##      ano   mes   dia produtoid Ana      Henrique  Letícia  Eduardo  Paulo  
##    <int> <int> <int> <chr>     <list>   <list>    <list>   <list>   <list> 
##  1  2010     1     1 10104     <dbl [1~ <dbl [1]> <NULL>   <NULL>   <NULL> 
##  2  2010     1     2 10013     <NULL>   <dbl [1]> <NULL>   <NULL>   <NULL> 
##  3  2010     1     3 10555     <dbl [1~ <NULL>    <dbl [1~ <NULL>   <NULL> 
##  4  2010     1     4 10555     <dbl [1~ <NULL>    <NULL>   <NULL>   <NULL> 
##  5  2010     1     4 10013     <NULL>   <NULL>    <NULL>   <dbl [1~ <NULL> 
##  6  2010     1     4 10032     <NULL>   <NULL>    <dbl [1~ <NULL>   <NULL> 
##  7  2010     1     5 10104     <NULL>   <NULL>    <NULL>   <NULL>   <dbl [~
##  8  2010     1     6 10013     <dbl [1~ <NULL>    <NULL>   <NULL>   <NULL> 
##  9  2010     1     6 10901     <NULL>   <NULL>    <dbl [1~ <NULL>   <NULL> 
## 10  2010     1     7 10013     <NULL>   <dbl [1]> <NULL>   <NULL>   <dbl [~
## # ... with 7,835 more rows
…
Dito de outra forma, temos uma única célula na tabela (localizada na primeira linha, e quinta coluna da tabela), que deve conter o valor arrecadado na venda do produto 10104, realizada pela vendedora Ana no dia 01/01/2010. Você poderia pensar: “Bem, por que não somar os valores dessas duas vendas? Dessa forma, temos apenas um valor para encaixar nessa célula.” Essa é uma alternativa possível, porém, ela gera perda de informação, especialmente se o valor arrecadado nas duas operações forem diferentes. Por exemplo, se a receita da primeira venda foi de 3907, e da segunda, de 4530. Com essa alternativa, nós sabemos que a soma das duas vendas ocorridas naquele dia, geraram 8437 reais de receita, mas nós não sabemos mais, qual foi o menor valor arrecadado nas duas operações.

Isso é particularmente importante, pois podemos gerar o mesmo valor (8437 reais) de múltiplas formas. Pode ser que a Ana tenha vendido cinco unidades do produto 10104, tendo arrecadado em cada venda, o valor de 1687,4 reais. Mas ela poderia atingir o mesmo valor, ao vender dez unidades do produto 10104, dessa vez, arrecandando um valor médio bem menor, de 843,7 reais. Portanto, se utilizarmos a soma desses valores, como forma de contornarmos o problema posto anteriormente, os administradores da loja não poderão mais inferir da tabela vendas, se as suas vendas tem se reduzido em quantidade, ou se o valor arrecadado em cada venda, tem caído ao longo dos últimos anos.

Apesar de ser uma alternativa ruim para muitos casos, pode ser desejável agregar as informações dessas vendas em uma só para o seu caso. Nesta situação, as versões mais recentes do pacote tidyr, oferecem na função pivot_wider() o argumento values_fn, onde você pode fornecer o nome de uma função a ser aplicada sobre os valores dispostos em cada célula. Logo, se quiséssemos somar os valores de vendas dispostos em cada célula criadas na tabela vendas_wide, poderíamos realizar os comandos abaixo:

vendas %>% 
  pivot_wider(
    id_cols = c("ano", "mes", "dia", "produtoid"),
    names_from = usuario,
    values_from = valor,
    values_fn = sum
  )

## # A tibble: 7,845 x 9
##      ano   mes   dia produtoid   Ana Henrique Letícia Eduardo Paulo
##    <int> <int> <int> <chr>     <dbl>    <dbl>   <dbl>   <dbl> <dbl>
##  1  2010     1     1 10104     3907.    6139.     NA      NA    NA 
##  2  2010     1     2 10013       NA     5510.     NA      NA    NA 
##  3  2010     1     3 10555     5296.      NA    3525.     NA    NA 
##  4  2010     1     4 10555     5102.      NA      NA      NA    NA 
##  5  2010     1     4 10013       NA       NA      NA    6051.   NA 
##  6  2010     1     4 10032       NA       NA    4600.     NA    NA 
##  7  2010     1     5 10104       NA       NA      NA      NA  5869.
##  8  2010     1     6 10013     7188.      NA      NA      NA    NA 
##  9  2010     1     6 10901       NA       NA    4491.     NA    NA 
## 10  2010     1     7 10013       NA     4407.     NA      NA  2292.
## # ... with 7,835 more rows
…
Portanto, expand() irá criar uma nova tabela, contendo todas as possíveis combinações entre os valores das colunas datas e nomes da tabela vendas. Incluindo aquelas combinações que não aparecem na tabela inicial. Por exemplo, as combinações (2020-09-01, Julia), ou (2020-09-05, Joao) e (2020-09-10, Joao) não estão presentes na tabela vendas, e mesmo assim foram introduzidas no resultado de expand().

Porém, expand() não definiu novas combinações com as datas que estão faltando na tabela vendas (por exemplo, os dias 02, 03, 04 e 08 de Setembro de 2020). Ou seja, em nenhum momento expand() irá adicionar algum dado à sua tabela, seja antes ou depois de encontrar todas as combinações únicas. Em outras palavras, expand() irá sempre encontrar todas as combinações possíveis, se baseando nos valores que já se encontram nas variáveis que você forneceu a ela. Por isso, mesmo que a combinação (2020-09-01, Julia) não esteja definida na tabela vendas, ela é uma combinação possível, pois os valores 2020-09-01 e Julia estão presentes na tabela vendas.

Vale destacar, que você pode combinar as variáveis de sua tabela, com vetores externos. Por exemplo, eu posso utilizar seq.Date() para gerar todas as datas que estão entre o dia 01 e 10 de Setembro de 2020. No exemplo abaixo, perceba que expand() pega cada um dos 3 nomes únicos definidos na coluna nome de vendas, e combina eles com cada uma das 10 datas guardadas no vetor vec_d, gerando assim, uma nova tabela com 30 linhas (\(3\) nomes \(\times 10\) datas \(= 30\) combinações).

vec_d <- seq.Date(min(vendas$datas), max(vendas$datas), by = "day")

expand(vendas, nome, vec_d)

## # A tibble: 30 x 2
##    nome  vec_d     
##    <chr> <date>    
##  1 Ana   2020-09-01
##  2 Ana   2020-09-02
##  3 Ana   2020-09-03
##  4 Ana   2020-09-04
##  5 Ana   2020-09-05
##  6 Ana   2020-09-06
##  7 Ana   2020-09-07
##  8 Ana   2020-09-08
##  9 Ana   2020-09-09
## 10 Ana   2020-09-10
## # ... with 20 more rows
…
set.seed(2)
funcionarios <- tibble(
  mes = rep(1:6, times = 4),
  vendas = floor(rnorm(24, mean = 60, sd = 24)),
  nome = NA_character_,
  salario = NA_real_,
  mes_ent = NA_real_,
  ano_ent = NA_real_,
  unidade = NA_character_
)

funcionarios

## # A tibble: 24 x 7
##      mes vendas nome  salario mes_ent ano_ent unidade
##    <int>  <dbl> <chr>   <dbl>   <dbl>   <dbl> <chr>  
##  1     1     38 <NA>       NA      NA      NA <NA>   
##  2     2     64 <NA>       NA      NA      NA <NA>   
##  3     3     98 <NA>       NA      NA      NA <NA>   
##  4     4     32 <NA>       NA      NA      NA <NA>   
##  5     5     58 <NA>       NA      NA      NA <NA>   
##  6     6     63 <NA>       NA      NA      NA <NA>   
##  7     1     76 <NA>       NA      NA      NA <NA>   
##  8     2     54 <NA>       NA      NA      NA <NA>   
##  9     3    107 <NA>       NA      NA      NA <NA>   
## 10     4     56 <NA>       NA      NA      NA <NA>   
## # ... with 14 more rows
…
colunas <- colnames(funcionarios)[3:7]

for(i in colunas){
  
  funcionarios[1:4 * 6, i] <- valores[[i]]
  
}

# Com isso, temos o seguinte resultado:
funcionarios %>% print(n = 12)

## # A tibble: 24 x 7
##      mes vendas nome     salario mes_ent ano_ent unidade    
##    <int>  <dbl> <chr>      <dbl>   <dbl>   <dbl> <chr>      
##  1     1     38 <NA>          NA      NA      NA <NA>       
##  2     2     64 <NA>          NA      NA      NA <NA>       
##  3     3     98 <NA>          NA      NA      NA <NA>       
##  4     4     32 <NA>          NA      NA      NA <NA>       
##  5     5     58 <NA>          NA      NA      NA <NA>       
##  6     6     63 Henrique    1560       2    2000 Afonso Pena
##  7     1     76 <NA>          NA      NA      NA <NA>       
##  8     2     54 <NA>          NA      NA      NA <NA>       
##  9     3    107 <NA>          NA      NA      NA <NA>       
## 10     4     56 <NA>          NA      NA      NA <NA>       
## 11     5     70 <NA>          NA      NA      NA <NA>       
## 12     6     83 Ana         2120      10    2001 Savassi    
## # ... with 12 more rows
…
funcionarios %>% 
  fill(
    all_of(colunas),
    .direction = "up"
  )

funcionarios %>% 
  fill(
    where(is.character),
    where(is.numeric),
    .direction = "up"
  )

## # A tibble: 24 x 7
##      mes vendas nome     salario mes_ent ano_ent unidade    
##    <int>  <dbl> <chr>      <dbl>   <dbl>   <dbl> <chr>      
##  1     1     38 Henrique    1560       2    2000 Afonso Pena
##  2     2     64 Henrique    1560       2    2000 Afonso Pena
##  3     3     98 Henrique    1560       2    2000 Afonso Pena
##  4     4     32 Henrique    1560       2    2000 Afonso Pena
##  5     5     58 Henrique    1560       2    2000 Afonso Pena
##  6     6     63 Henrique    1560       2    2000 Afonso Pena
##  7     1     76 Ana         2120      10    2001 Savassi    
##  8     2     54 Ana         2120      10    2001 Savassi    
##  9     3    107 Ana         2120      10    2001 Savassi    
## 10     4     56 Ana         2120      10    2001 Savassi    
## # ... with 14 more rows
…
Na época em que trabalhei com a base covid, ela possuía algumas barreiras, que superei com o uso de complete() e fill(). São essas barreiras, e suas resoluções que busco mostrar nessa seção, como um exemplo real de uso dessas funções. Porém, a base covid que está disponível hoje, e que você acaba de importar através dos comandos acima, é a base já corrigida e reformatada e, por isso, ela já se encontra em um formato ideal para o cálculo de uma média móvel. Portanto, antes de partirmos para a prática, vou aplicar algumas transformações, com o objetivo de “corromper” a base covid até o seu ponto inicial. Pois o foco nessa seção, se encontra na demonstração dos problemas de formatação da base, e em suas possíveis soluções.

O primeiro ponto a ser discutido, são as datas iniciais da pandemia em cada estado brasileiro. No Brasil, a pandemia de Covid-19 atingiu primeiramente o estado de São Paulo, e chegou posteriormente aos demais estados. Como podemos ver pelo resultado abaixo, a data inicial de cada estado, ao longo da base covid é difusa. Em alguns estados, os registros se iniciam a partir da data do primeiro registro de casos da doença (como os estados do Acre, Alagoas, Bahia, Amazonas e Espírito Santo). Alguns estados, registraram mais de um caso já no primeiro dia (como o Acre, que registrou três casos no dia 17 de Março, e o Ceará, que reportou nove casos no dia 16 de Março). Porém, outros estados (como a Paraíba) não seguem esse padrão, pois no seu primeiro dia de registro, o número de casos reportados foi igual a zero. Ou seja, a pandemia no estado da Paraíba não se iniciou oficialmente no dia 12 de Março, pois não havia casos reportados até este dia.

data_inicial <- covid %>% 
  group_by(estado) %>% 
  summarise(
    data_inicial = min(dia),
    casos_inicial = min(casos)
  )

data_inicial %>% print(n = 15)

## # A tibble: 27 x 3
##    estado data_inicial casos_inicial
##    <chr>  <date>               <dbl>
##  1 AC     2020-03-17               3
##  2 AL     2020-03-08               1
##  3 AM     2020-03-13               2
##  4 AP     2020-03-20               1
##  5 BA     2020-03-06               1
##  6 CE     2020-03-16               9
##  7 DF     2020-03-07               1
##  8 ES     2020-03-05               1
##  9 GO     2020-03-12               3
## 10 MA     2020-03-20               1
## 11 MG     2020-03-08               1
## 12 MS     2020-03-14               2
## 13 MT     2020-03-20               1
## 14 PA     2020-03-18               1
## 15 PB     2020-03-12               0
## # ... with 12 more rows
…
Portanto, temos agora a tabela abaixo, onde podemos perceber que no dia 21 de Março de 2020 não houve alteração no número de casos acumulados no estado do Acre. Pois esse dia (2020-03-21) não está mais presente na tabela covid. Dito de outra forma, o número de novos casos de Covid-19 que surgiram no dia 21 de Março, foi igual a zero. O mesmo ocorre com os dias 25 e 27 de Março no estado, que também não estão mais presentes na base.

covid

## # A tibble: 3,456 x 4
##    dia        estado casos mortes
##    <date>     <chr>  <dbl>  <dbl>
##  1 2020-03-18 AC         3      0
##  2 2020-03-19 AC         4      0
##  3 2020-03-20 AC         7      0
##  4 2020-03-22 AC        11      0
##  5 2020-03-23 AC        17      0
##  6 2020-03-24 AC        21      0
##  7 2020-03-26 AC        23      0
##  8 2020-03-28 AC        25      0
##  9 2020-03-29 AC        34      0
## 10 2020-03-30 AC        41      0
## # ... with 3,446 more rows
…
