Capítulo 5 Transformando dados com dplyr | Introdução à Linguagem R: seus fundamentos e sua prática
…
resultado <- mpg %>% 
  group_by(class) %>% 
  arrange(hwy) %>% 
  mutate(
    consumo_medio = mean(hwy),
    desvio_consumo = hwy - consumo_medio
  ) %>%
  select(
    manufacturer, model, class,
    consumo_medio, desvio_consumo
  )

resultado

## # A tibble: 234 × 5
## # Groups:   class [7]
##    manufacturer model               class  consumo_medio desvio_consumo
##    <chr>        <chr>               <chr>          <dbl>          <dbl>
##  1 dodge        dakota pickup 4wd   pickup          16.9          -4.88
##  2 dodge        durango 4wd         suv             18.1          -6.13
##  3 dodge        ram 1500 pickup 4wd pickup          16.9          -4.88
##  4 dodge        ram 1500 pickup 4wd pickup          16.9          -4.88
##  5 jeep         grand cherokee 4wd  suv             18.1          -6.13
##  6 chevrolet    k1500 tahoe 4wd     suv             18.1          -4.13
##  7 jeep         grand cherokee 4wd  suv             18.1          -4.13
##  8 chevrolet    c1500 suburban 2wd  suv             18.1          -3.13
##  9 chevrolet    k1500 tahoe 4wd     suv             18.1          -3.13
## 10 dodge        dakota pickup 4wd   pickup          16.9          -1.88
## # … with 224 more rows
…
resultado <- mpg |>
  group_by(class) |>
  arrange(hwy) |> 
  mutate(
    consumo_medio = mean(hwy),
    desvio_consumo = hwy - consumo_medio
  ) |>
  select(
    manufacturer, model, class,
    consumo_medio, desvio_consumo
  )

resultado

## # A tibble: 234 × 5
## # Groups:   class [7]
##    manufacturer model               class  consumo_medio desvio_consumo
##    <chr>        <chr>               <chr>          <dbl>          <dbl>
##  1 dodge        dakota pickup 4wd   pickup          16.9          -4.88
##  2 dodge        durango 4wd         suv             18.1          -6.13
##  3 dodge        ram 1500 pickup 4wd pickup          16.9          -4.88
##  4 dodge        ram 1500 pickup 4wd pickup          16.9          -4.88
##  5 jeep         grand cherokee 4wd  suv             18.1          -6.13
##  6 chevrolet    k1500 tahoe 4wd     suv             18.1          -4.13
##  7 jeep         grand cherokee 4wd  suv             18.1          -4.13
##  8 chevrolet    c1500 suburban 2wd  suv             18.1          -3.13
##  9 chevrolet    k1500 tahoe 4wd     suv             18.1          -3.13
## 10 dodge        dakota pickup 4wd   pickup          16.9          -1.88
## # … with 224 more rows
…
simplesmente listar o nome das colunas que desejamos;

fornecer um vetor externo, contendo os nomes das colunas a serem extraídas;

selecionar um conjunto de colunas com base em seu tipo (integer, double, character, logical);

selecionar um conjunto de colunas com base em padrões que aparecem nos nomes dessas colunas (nome começa por y, ou termina em z, ou contém x);

selecionar um conjunto de colunas com base em seus índices numéricos (1° colunas, 2° coluna, 3° coluna, etc.).

Como exemplo inicial, vamos utilizar a tabela billboard, que apresenta a posição de diversas músicas na lista Billboard Top 100, ao longo do ano de 2000. Se você chamou com sucesso pelo tidyverse, você tem acesso a essa tabela. Perceba que a posição de cada música descrita na tabela, é apresentada de forma semanal, onde cada semana possui a sua coluna própria. Por essa razão, temos uma quantidade exorbitante de colunas na tabela.

billboard

## # A tibble: 317 × 79
##    artist  track date.ent…¹   wk1   wk2   wk3   wk4   wk5   wk6   wk7   wk8
##    <chr>   <chr> <date>     <dbl> <dbl> <dbl> <dbl> <dbl> <dbl> <dbl> <dbl>
##  1 2 Pac   Baby… 2000-02-26    87    82    72    77    87    94    99    NA
##  2 2Ge+her The … 2000-09-02    91    87    92    NA    NA    NA    NA    NA
##  3 3 Door… Kryp… 2000-04-08    81    70    68    67    66    57    54    53
##  4 3 Door… Loser 2000-10-21    76    76    72    69    67    65    55    59
##  5 504 Bo… Wobb… 2000-04-15    57    34    25    17    17    31    36    49
##  6 98^0    Give… 2000-08-19    51    39    34    26    26    19     2     2
##  7 A*Teens Danc… 2000-07-08    97    97    96    95   100    NA    NA    NA
##  8 Aaliyah I Do… 2000-01-29    84    62    51    41    38    35    35    38
##  9 Aaliyah Try … 2000-03-18    59    53    38    28    21    18    16    14
## 10 Adams,… Open… 2000-08-26    76    76    74    69    68    67    61    58
## # … with 307 more rows, 68 more variables: wk9 <dbl>, wk10 <dbl>,
## #   wk11 <dbl>, wk12 <dbl>, wk13 <dbl>, wk14 <dbl>, wk15 <dbl>,
## #   wk16 <dbl>, wk17 <dbl>, wk18 <dbl>, wk19 <dbl>, wk20 <dbl>,
## #   wk21 <dbl>, wk22 <dbl>, wk23 <dbl>, wk24 <dbl>, wk25 <dbl>,
## #   wk26 <dbl>, wk27 <dbl>, wk28 <dbl>, wk29 <dbl>, wk30 <dbl>,
## #   wk31 <dbl>, wk32 <dbl>, wk33 <dbl>, wk34 <dbl>, wk35 <dbl>,
## #   wk36 <dbl>, wk37 <dbl>, wk38 <dbl>, wk39 <dbl>, wk40 <dbl>, …

O método 5 citado acima é um dos métodos mais práticos e eficientes de se utilizar a função select(). Por exemplo, se desejássemos extrair todas as colunas entre a 1° e 4° colunas da tabela, poderíamos fornecer um vetor à função, contendo uma sequência de 1 a 4, que representa os índices das colunas que desejamos, como no exemplo abaixo.

billboard_sel <- select(billboard, 1:4)

billboard_sel

## # A tibble: 317 × 4
##    artist         track                   date.entered   wk1
##    <chr>          <chr>                   <date>       <dbl>
##  1 2 Pac          Baby Don't Cry (Keep... 2000-02-26      87
##  2 2Ge+her        The Hardest Part Of ... 2000-09-02      91
##  3 3 Doors Down   Kryptonite              2000-04-08      81
##  4 3 Doors Down   Loser                   2000-10-21      76
##  5 504 Boyz       Wobble Wobble           2000-04-15      57
##  6 98^0           Give Me Just One Nig... 2000-08-19      51
##  7 A*Teens        Dancing Queen           2000-07-08      97
##  8 Aaliyah        I Don't Wanna           2000-01-29      84
##  9 Aaliyah        Try Again               2000-03-18      59
## 10 Adams, Yolanda Open My Heart           2000-08-26      76
## # … with 307 more rows

Agora, e se você precisasse selecionar todas as colunas que representam as semanas? Nesse caso, o método 5 ainda seria uma boa alternativa, pois você precisaria apenas fornecer uma sequência que represente a posição dessas colunas na tabela (de 4 a 79 para ser mais preciso).

Porém, todas essas colunas possuem um padrão em seus nomes. Elas se iniciam pelos caracteres "wk", acrescidos de um número que representa o índice da semana que essa coluna corresponde. Portanto, em todas as ocasiões que houver algum padrão presente nos nomes das colunas que você deseja selecionar, o método 4 que citamos configura-se como uma ótima solução. Nesse método, devemos utilizar as funções de suporte starts_with(), ends_with(), matches().

Como os seus próprios nomes dão a entender, as funções starts_with() e ends_with() vão selecionar qualquer coluna de sua tabela que comece (start) ou termine (end) por uma determinada cadeia de caracteres, respectivamente. Como exemplo, eu posso selecionar todas as colunas que apresentam as posições semanais na tabela billboard, ao encontrar todas as colunas que começam pelas letras "wk", com a função starts_with().

billboard_sel <- select(billboard, starts_with("wk"))

billboard_sel

## # A tibble: 317 × 76
##      wk1   wk2   wk3   wk4   wk5   wk6   wk7   wk8   wk9  wk10  wk11  wk12
##    <dbl> <dbl> <dbl> <dbl> <dbl> <dbl> <dbl> <dbl> <dbl> <dbl> <dbl> <dbl>
##  1    87    82    72    77    87    94    99    NA    NA    NA    NA    NA
##  2    91    87    92    NA    NA    NA    NA    NA    NA    NA    NA    NA
##  3    81    70    68    67    66    57    54    53    51    51    51    51
##  4    76    76    72    69    67    65    55    59    62    61    61    59
##  5    57    34    25    17    17    31    36    49    53    57    64    70
##  6    51    39    34    26    26    19     2     2     3     6     7    22
##  7    97    97    96    95   100    NA    NA    NA    NA    NA    NA    NA
##  8    84    62    51    41    38    35    35    38    38    36    37    37
##  9    59    53    38    28    21    18    16    14    12    10     9     8
## 10    76    76    74    69    68    67    61    58    57    59    66    68
## # … with 307 more rows, and 64 more variables: wk13 <dbl>, wk14 <dbl>,
## #   wk15 <dbl>, wk16 <dbl>, wk17 <dbl>, wk18 <dbl>, wk19 <dbl>,
## #   wk20 <dbl>, wk21 <dbl>, wk22 <dbl>, wk23 <dbl>, wk24 <dbl>,
## #   wk25 <dbl>, wk26 <dbl>, wk27 <dbl>, wk28 <dbl>, wk29 <dbl>,
## #   wk30 <dbl>, wk31 <dbl>, wk32 <dbl>, wk33 <dbl>, wk34 <dbl>,
## #   wk35 <dbl>, wk36 <dbl>, wk37 <dbl>, wk38 <dbl>, wk39 <dbl>,
## #   wk40 <dbl>, wk41 <dbl>, wk42 <dbl>, wk43 <dbl>, wk44 <dbl>, …

Já a função matches() se trata de um caso muito mais flexível das funções starts_with() e ends_with(), pois ela lhe permite selecionar qualquer coluna cujo o nome se encaixa em uma dada expressão regular. Expressões regulares são uma poderosa ferramenta para processamento de texto, a qual vamos discutir no capítulo 11 deste livro, especialmente na seção Expressões regulares (ou regex) com str_detect(). Outras duas referências úteis sobre o assunto, se encontram no capítulo 14 de Wickham and Grolemund (2017), que provê uma visão mais direta, além da obra de Friedl (2006) que oferece uma visão técnica e aprofundada sobre o assunto. Veja alguns exemplos abaixo:

## Seleciona todas as semanas que são
## maiores do que 9 e menores do que 100.
## Ou seja, toda semana com dois dígitos
billboard %>% 
  select(matches("wk[0-9]{2}")) %>% print(n = 5)

## # A tibble: 317 × 67
##    wk10  wk11  wk12  wk13  wk14  wk15  wk16  wk17  wk18  wk19  wk20  wk21
##   <dbl> <dbl> <dbl> <dbl> <dbl> <dbl> <dbl> <dbl> <dbl> <dbl> <dbl> <dbl>
## 1    NA    NA    NA    NA    NA    NA    NA    NA    NA    NA    NA    NA
## 2    NA    NA    NA    NA    NA    NA    NA    NA    NA    NA    NA    NA
## 3    51    51    51    47    44    38    28    22    18    18    14    12
## 4    61    61    59    61    66    72    76    75    67    73    70    NA
## 5    57    64    70    75    76    78    85    92    96    NA    NA    NA
## # … with 312 more rows, and 55 more variables: wk22 <dbl>, wk23 <dbl>,
## #   wk24 <dbl>, wk25 <dbl>, wk26 <dbl>, wk27 <dbl>, wk28 <dbl>,
## #   wk29 <dbl>, wk30 <dbl>, wk31 <dbl>, wk32 <dbl>, wk33 <dbl>,
## #   wk34 <dbl>, wk35 <dbl>, wk36 <dbl>, wk37 <dbl>, wk38 <dbl>,
## #   wk39 <dbl>, wk40 <dbl>, wk41 <dbl>, wk42 <dbl>, wk43 <dbl>,
## #   wk44 <dbl>, wk45 <dbl>, wk46 <dbl>, wk47 <dbl>, wk48 <dbl>,
## #   wk49 <dbl>, wk50 <dbl>, wk51 <dbl>, wk52 <dbl>, wk53 <dbl>, …

## Seleciona todas as colunas cujo nome
## possua um ponto final antecedido por
## 4 letras
billboard %>% 
  select(matches("[a-z]{4}[.]")) %>% print(n = 5)

## # A tibble: 317 × 1
##   date.entered
##   <date>      
## 1 2000-02-26  
## 2 2000-09-02  
## 3 2000-04-08  
## 4 2000-10-21  
## 5 2000-04-15  
## # … with 312 more rows

Essas são maneiras eficientes de selecionarmos um grande conjunto de colunas, porém, muitas vezes as nossas necessidades são pequenas e, portanto, não exigem mecanismos tão poderosos. Nessas situações, o método 1 se torna útil pois ele consiste em simplesmente listarmos o nome das colunas desejadas. Como exemplo, eu posso selecionar as colunas artist, track e wk5 da tabela billboard pelo comando abaixo.

billboard %>% select(artist, track, wk5)

## # A tibble: 317 × 3
##    artist         track                     wk5
##    <chr>          <chr>                   <dbl>
##  1 2 Pac          Baby Don't Cry (Keep...    87
##  2 2Ge+her        The Hardest Part Of ...    NA
##  3 3 Doors Down   Kryptonite                 66
##  4 3 Doors Down   Loser                      67
##  5 504 Boyz       Wobble Wobble              17
##  6 98^0           Give Me Just One Nig...    26
##  7 A*Teens        Dancing Queen             100
##  8 Aaliyah        I Don't Wanna              38
##  9 Aaliyah        Try Again                  21
## 10 Adams, Yolanda Open My Heart              68
## # … with 307 more rows

Vale destacar que a ordem dos índices utilizados importa para a função select(). Logo, se no exemplo acima, eu listasse as colunas na ordem track, wk5 e artist, o novo data.frame resultante de select(), iria conter essas colunas precisamente nessa ordem. O mesmo efeito seria produzido, caso eu utilizasse novamente o método 5, e fornecesse o vetor c(3, 2, 4) à função. Dessa forma, select() iria me retornar um novo data.frame contendo 3 colunas, que correspondem a 3°, 2° e 4° colunas da tabela billboard, exatamente nessa ordem.

Por outro lado, não há uma maneira de variarmos a ordem dos resultados gerados nos métodos 3 e 4, especificamente. Por isso, caso você utilize um desses dois métodos, as colunas selecionadas serão apresentadas no novo data.frame, precisamente na ordem em que eles aparecem no data.frame inicial.

Visto esses pontos, ao invés de selecionar colunas, você também pode utilizar o método 1 para rapidamente eliminar algumas colunas de seu data.frame, ao posicionar um sinal negativo (-) antes do nome da coluna que você deseja retirar. Por exemplo, eu posso selecionar todas as colunas da tabela mpg, exceto as colunas hwy e manufacturer por meio do seguinte comando:

mpg %>% select(-hwy, -manufacturer)

## # A tibble: 234 × 9
##    model      displ  year   cyl trans      drv     cty fl    class  
##    <chr>      <dbl> <int> <int> <chr>      <chr> <int> <chr> <chr>  
##  1 a4           1.8  1999     4 auto(l5)   f        18 p     compact
##  2 a4           1.8  1999     4 manual(m5) f        21 p     compact
##  3 a4           2    2008     4 manual(m6) f        20 p     compact
##  4 a4           2    2008     4 auto(av)   f        21 p     compact
##  5 a4           2.8  1999     6 auto(l5)   f        16 p     compact
##  6 a4           2.8  1999     6 manual(m5) f        18 p     compact
##  7 a4           3.1  2008     6 auto(av)   f        18 p     compact
##  8 a4 quattro   1.8  1999     4 manual(m5) 4        18 p     compact
##  9 a4 quattro   1.8  1999     4 auto(l5)   4        16 p     compact
## 10 a4 quattro   2    2008     4 manual(m6) 4        20 p     compact
## # … with 224 more rows

Em contrapartida, o método 3 busca selecionar um conjunto de colunas com base em seu tipo de dado, através da função where() e das funções de teste lógico is.*() (is.double, is.character, is.integer, …). Como exemplo, nós podemos selecionar todas as colunas da tabela billboard que contém dados textuais, através do comando abaixo. Portanto, para utilizar esse método você precisa apenas se referir a função is.*() que corresponde ao tipo de dado no qual você está interessado, dentro da função where().

billboard %>% select(where(is.character))

## # A tibble: 317 × 2
##    artist         track                  
##    <chr>          <chr>                  
##  1 2 Pac          Baby Don't Cry (Keep...
##  2 2Ge+her        The Hardest Part Of ...
##  3 3 Doors Down   Kryptonite             
##  4 3 Doors Down   Loser                  
##  5 504 Boyz       Wobble Wobble          
##  6 98^0           Give Me Just One Nig...
##  7 A*Teens        Dancing Queen          
##  8 Aaliyah        I Don't Wanna          
##  9 Aaliyah        Try Again              
## 10 Adams, Yolanda Open My Heart          
## # … with 307 more rows

Com isso, você possui não apenas uma boa variedade de métodos disponíveis na função select(), mas você também é capaz de misturá-los livremente dentro da função. Ou seja, se for de meu desejo, eu posso utilizar os métodos 2, 4 e 5 ao mesmo tempo, como no exemplo abaixo. Tratando especificamente do método 2, eu preciso fornecer dentro da função all_of(), um vetor contendo os nomes das colunas desejadas. Como exemplo, eu posso novamente extrair as colunas artist, track e wk5 através desse método. O método 2, em particular, se torna um método interessante quando ainda não conhecemos o conjunto de colunas a serem extraídas. Talvez você precise aplicar previamente diversos testes sobre o seu data.frame, para identificar essas colunas. Logo, um vetor contendo os nomes das colunas desejadas seria o resultado ideal para tais testes.

vec <- c("artist", "track", "wk5")

billboard %>% select(
  all_of(vec),  ## Método 2
  3:5,  ## Método 5
  matches("wk[0-9]{2}")  ## Método 4
)

## # A tibble: 317 × 73
##    artist  track   wk5 date.ent…¹   wk1   wk2  wk10  wk11  wk12  wk13  wk14
##    <chr>   <chr> <dbl> <date>     <dbl> <dbl> <dbl> <dbl> <dbl> <dbl> <dbl>
##  1 2 Pac   Baby…    87 2000-02-26    87    82    NA    NA    NA    NA    NA
##  2 2Ge+her The …    NA 2000-09-02    91    87    NA    NA    NA    NA    NA
##  3 3 Door… Kryp…    66 2000-04-08    81    70    51    51    51    47    44
##  4 3 Door… Loser    67 2000-10-21    76    76    61    61    59    61    66
##  5 504 Bo… Wobb…    17 2000-04-15    57    34    57    64    70    75    76
##  6 98^0    Give…    26 2000-08-19    51    39     6     7    22    29    36
##  7 A*Teens Danc…   100 2000-07-08    97    97    NA    NA    NA    NA    NA
##  8 Aaliyah I Do…    38 2000-01-29    84    62    36    37    37    38    49
##  9 Aaliyah Try …    21 2000-03-18    59    53    10     9     8     6     1
## 10 Adams,… Open…    68 2000-08-26    76    76    59    66    68    61    67
## # … with 307 more rows, 62 more variables: wk15 <dbl>, wk16 <dbl>,
## #   wk17 <dbl>, wk18 <dbl>, wk19 <dbl>, wk20 <dbl>, wk21 <dbl>,
## #   wk22 <dbl>, wk23 <dbl>, wk24 <dbl>, wk25 <dbl>, wk26 <dbl>,
## #   wk27 <dbl>, wk28 <dbl>, wk29 <dbl>, wk30 <dbl>, wk31 <dbl>,
## #   wk32 <dbl>, wk33 <dbl>, wk34 <dbl>, wk35 <dbl>, wk36 <dbl>,
## #   wk37 <dbl>, wk38 <dbl>, wk39 <dbl>, wk40 <dbl>, wk41 <dbl>,
## #   wk42 <dbl>, wk43 <dbl>, wk44 <dbl>, wk45 <dbl>, wk46 <dbl>, …
…
Portanto, ao utilizar a função filter() você deve construir uma condição lógica que seja capaz de identificar as linhas que você deseja filtrar. Como exemplo inicial, nós podemos retornar à tabela mpg, que contém dados de consumo de diversos modelos de carro. Por exemplo, nós podemos filtrar todas as linhas que dizem respeito a modelos da Toyota, através do comando abaixo. Como um paralelo, temos mais abaixo a mesma operação segundo a função de subsetting.

mpg %>% filter(manufacturer == "toyota")

## # A tibble: 34 × 11
##    manufacturer model displ  year   cyl trans drv     cty   hwy fl    class
##    <chr>        <chr> <dbl> <int> <int> <chr> <chr> <int> <int> <chr> <chr>
##  1 toyota       4run…   2.7  1999     4 manu… 4        15    20 r     suv  
##  2 toyota       4run…   2.7  1999     4 auto… 4        16    20 r     suv  
##  3 toyota       4run…   3.4  1999     6 auto… 4        15    19 r     suv  
##  4 toyota       4run…   3.4  1999     6 manu… 4        15    17 r     suv  
##  5 toyota       4run…   4    2008     6 auto… 4        16    20 r     suv  
##  6 toyota       4run…   4.7  2008     8 auto… 4        14    17 r     suv  
##  7 toyota       camry   2.2  1999     4 manu… f        21    29 r     mids…
##  8 toyota       camry   2.2  1999     4 auto… f        21    27 r     mids…
##  9 toyota       camry   2.4  2008     4 manu… f        21    31 r     mids…
## 10 toyota       camry   2.4  2008     4 auto… f        21    31 r     mids…
## # … with 24 more rows
…
