Capítulo 8 Visualização de dados com ggplot2 | Introdução à Linguagem R: seus fundamentos e sua prática
…
## Rows: 1836 Columns: 6

## -- Column specification ---------------------------------------------------
## Delimiter: ";"
## chr (5): Faixa etaria, Genero, Cor, Nome UF, UF
## dbl (1): Contagem

## 
## i Use `spec()` to retrieve the full column specification for this data.
## i Specify the column types or set `show_col_types = FALSE` to quiet this message.

datasus

## # A tibble: 1,836 x 6
##    `Faixa etaria` Genero    Cor      `Nome UF` UF    Contagem
##    <chr>          <chr>     <chr>    <chr>     <chr>    <dbl>
##  1 10 a 14        Feminino  Parda    Acre      AC           4
##  2 10 a 14        Masculino Parda    Acre      AC           4
##  3 15 a 19        Feminino  Branca   Acre      AC           2
##  4 15 a 19        Feminino  Parda    Acre      AC           4
##  5 15 a 19        Masculino Branca   Acre      AC           6
##  6 15 a 19        Masculino Parda    Acre      AC          65
##  7 15 a 19        Masculino Preta    Acre      AC           1
##  8 20 a 24        Feminino  Indígena Acre      AC           1
##  9 20 a 24        Feminino  Parda    Acre      AC           4
## 10 20 a 24        Masculino Branca   Acre      AC           7
## # ... with 1,826 more rows
…
8.5 Sobrepondo o aesthetic mapping inicial em diversas camadas

Agora, vou explicar em maiores detalhes qual é a diferença entre: preenchermos os argumentos de data e mapping já na função inicial do gráfico (ggplot()), e de preenchê-los nas funções geom.

Para isso, vamos usar outros dados. Na tabela PIB eu possuo uma série histórica mensal do índice de faturamento real da indústria (Faturamento_indus), da porcentagem do PIB que representa a dívida pública líquida (Divida_liq_perc), e a média mensal da taxa de investimento produtivo (taxa de formação bruta de capital fixo - FBCF) na economia brasileira, além de dados de PIB, coletados do IPEAData23.

PIB

## # A tibble: 184 x 6
##    Data           PIB PIB_acumulado Divida_liq_perc  FBCF Faturamento_indus
##    <date>       <dbl>         <dbl>           <dbl> <dbl>             <dbl>
##  1 2005-01-01 163540.         100              42.3 103.              102. 
##  2 2005-02-01 160702.          98.3            42.7  99.1              98.9
##  3 2005-03-01 175469.         107.             43.1 112.               98.3
##  4 2005-04-01 177179          108.             42.5 108.              107. 
##  5 2005-05-01 177497.         109.             42.4 113.              100. 
##  6 2005-06-01 180882.         111.             42.8 115.              104. 
##  7 2005-07-01 184074.         113.             43.2 111.               99.8
##  8 2005-08-01 187247.         114.             43.2 120.               97  
##  9 2005-09-01 181539.         111.             43.2 115.               96.1
## 10 2005-10-01 189183          116.             43.6 110.               95.8
## # ... with 174 more rows
…
8.2.C) Desenhe um conjunto de setas apontando para o texto "Uma anotação muito importante". Ou seja, desenhe o texto guardado no objeto anotacao abaixo em seu ggplot e, em seguida, tente desenhar um conjunto de setas apontando para essa anotação.

anotacao <- "Uma anotação\nmuito importante"

Questão 8.3. Na média qual a qualidade de corte (cut) na tabela diamonds que gera o maior preço (price). Dito de outra forma, utilize um gráfico do ggplot para responder à seguinte pergunta: tendo a tabela diamonds em mãos, quais são os cortes descritos na coluna cut que geram os diamantes mais caros do mercado, isto é, que possuem os maiores preços na coluna price. Lembre-se que a tabela diamonds advém do próprio pacote ggplot2, logo, se você chamou por esse pacote em sua sessão com um comando library(), você já tem acesso à tabela diamonds.

library(ggplot2)

### Ao chamar pelo pacote
### ggplot2, você terá acesso
### à tabela diamonds
diamonds

## # A tibble: 53,940 x 10
##    carat cut       color clarity depth table price     x     y     z
##    <dbl> <ord>     <ord> <ord>   <dbl> <dbl> <int> <dbl> <dbl> <dbl>
##  1  0.23 Ideal     E     SI2      61.5    55   326  3.95  3.98  2.43
##  2  0.21 Premium   E     SI1      59.8    61   326  3.89  3.84  2.31
##  3  0.23 Good      E     VS1      56.9    65   327  4.05  4.07  2.31
##  4  0.29 Premium   I     VS2      62.4    58   334  4.2   4.23  2.63
##  5  0.31 Good      J     SI2      63.3    58   335  4.34  4.35  2.75
##  6  0.24 Very Good J     VVS2     62.8    57   336  3.94  3.96  2.48
##  7  0.24 Very Good I     VVS1     62.3    57   336  3.95  3.98  2.47
##  8  0.26 Very Good H     SI1      61.9    55   337  4.07  4.11  2.53
##  9  0.22 Fair      E     VS2      65.1    61   337  3.87  3.78  2.49
## 10  0.23 Very Good H     VS1      59.4    61   338  4     4.05  2.39
## # ... with 53,930 more rows
…
